<?xml version="1.0" encoding="iso-8859-1"?>
<!-- Generator: Adobe Illustrator 19.0.0, SVG Export Plug-In . SVG Version: 6.00 Build 0)  -->
<svg version="1.1" id="Capa_1" xmlns="http://www.w3.org/2000/svg" xmlns:xlink="http://www.w3.org/1999/xlink" x="0px" y="0px"
	 viewBox="0 0 512 512" style="enable-background:new 0 0 512 512;" xml:space="preserve">
<g>
	<g>
		<path d="M407,0H105C47.103,0,0,47.103,0,105v302c0,57.897,47.103,105,105,105h302c57.897,0,105-47.103,105-105V105
			C512,47.103,464.897,0,407,0z M482,407c0,41.355-33.645,75-75,75H105c-41.355,0-75-33.645-75-75V105c0-41.355,33.645-75,75-75h302
			c41.355,0,75,33.645,75,75V407z"/>
	</g>
</g>
<g>
	<g>
		<rect x="241" y="60" width="30" height="50"/>
	</g>
</g>
<g>
	<g>
		<rect x="182.506" y="70.306" transform="matrix(0.9397 -0.342 0.342 0.9397 -20.6851 73.2939)" width="30" height="50"/>
	</g>
</g>
<g>
	<g>
		
			<rect x="131.084" y="100.004" transform="matrix(0.766 -0.6428 0.6428 0.766 -46.1738 123.1526)" width="29.998" height="49.999"/>
	</g>
</g>
<g>
	<g>
		<rect x="92.91" y="145.498" transform="matrix(0.5 -0.866 0.866 0.5 -93.7007 178.6982)" width="29.999" height="49.999"/>
	</g>
</g>
<g>
	<g>
		<rect x="72.588" y="201.313" transform="matrix(0.1737 -0.9848 0.9848 0.1737 -150.4986 273.2595)" width="30" height="50"/>
	</g>
</g>
<g>
	<g>
		<rect x="62.613" y="270.683" transform="matrix(0.9848 -0.1737 0.1737 0.9848 -48.2913 19.5611)" width="50" height="30"/>
	</g>
</g>
<g>
	<g>
		<rect x="82.91" y="326.495" transform="matrix(0.866 -0.5 0.5 0.866 -156.2933 99.7096)" width="49.999" height="29.999"/>
	</g>
</g>
<g>
	<g>
		
			<rect x="121.089" y="372.017" transform="matrix(0.6428 -0.766 0.766 0.6428 -244.2815 250.1419)" width="49.999" height="29.998"/>
	</g>
</g>
<g>
	<g>
		<rect x="172.508" y="401.688" transform="matrix(0.342 -0.9397 0.9397 0.342 -261.6015 459.779)" width="50" height="30"/>
	</g>
</g>
<g>
	<g>
		<rect x="241" y="402" width="30" height="50"/>
	</g>
</g>
<g>
	<g>
		<rect x="299.501" y="391.696" transform="matrix(0.9397 -0.342 0.342 0.9397 -123.5457 132.6864)" width="30" height="50"/>
	</g>
</g>
<g>
	<g>
		
			<rect x="350.891" y="362.009" transform="matrix(0.766 -0.6428 0.6428 0.766 -163.1644 325.7523)" width="29.998" height="49.999"/>
	</g>
</g>
<g>
	<g>
		<rect x="389.108" y="316.507" transform="matrix(0.5 -0.866 0.866 0.5 -93.7012 520.7144)" width="29.999" height="49.999"/>
	</g>
</g>
<g>
	<g>
		<rect x="409.425" y="260.684" transform="matrix(0.1737 -0.9848 0.9848 0.1737 69.3613 654.0344)" width="30" height="50"/>
	</g>
</g>
<g>
	<g>
		<rect x="399.415" y="211.324" transform="matrix(0.9848 -0.1736 0.1736 0.9848 -32.846 77.116)" width="49.999" height="30"/>
	</g>
</g>
<g>
	<g>
		<rect x="379.099" y="155.502" transform="matrix(0.866 -0.5 0.5 0.866 -31.1114 224.8976)" width="49.999" height="29.999"/>
	</g>
</g>
<g>
	<g>
		<rect x="340.909" y="110.012" transform="matrix(0.6428 -0.766 0.766 0.6428 34.9354 324.9444)" width="49.999" height="29.998"/>
	</g>
</g>
<g>
	<g>
		<rect x="289.494" y="80.308" transform="matrix(0.342 -0.9397 0.9397 0.342 117.376 358.2432)" width="50" height="30"/>
	</g>
</g>
<g>
	<g>
		<polygon points="376,76 416,116 436,56 		"/>
	</g>
</g>
<g>
	<g>
		<path d="M256,171c-46.869,0-85,38.131-85,85s38.131,85,85,85s85-38.131,85-85C341,209.131,302.869,171,256,171z M241,308.904
			c-18.285-5.193-32.711-19.619-37.904-37.904H241V308.904z M241,241h-37.904c5.193-18.285,19.619-32.711,37.904-37.904V241z
			 M271,308.904V271h37.904C303.711,289.285,289.285,303.711,271,308.904z M271,241v-37.904
			c18.285,5.193,32.711,19.619,37.904,37.904H271z"/>
	</g>
</g>
<g>
</g>
<g>
</g>
<g>
</g>
<g>
</g>
<g>
</g>
<g>
</g>
<g>
</g>
<g>
</g>
<g>
</g>
<g>
</g>
<g>
</g>
<g>
</g>
<g>
</g>
<g>
</g>
<g>
</g>
</svg>
