<?xml version="1.0" encoding="iso-8859-1"?>
<!-- Generator: Adobe Illustrator 19.0.0, SVG Export Plug-In . SVG Version: 6.00 Build 0)  -->
<svg version="1.1" id="Capa_1" xmlns="http://www.w3.org/2000/svg" xmlns:xlink="http://www.w3.org/1999/xlink" x="0px" y="0px"
	 viewBox="0 0 512 512" style="enable-background:new 0 0 512 512;" xml:space="preserve">
<g>
	<g>
		<path d="M407,0H105C47.103,0,0,47.103,0,105v302c0,57.897,47.103,105,105,105h302c57.897,0,105-47.103,105-105V105
			C512,47.103,464.897,0,407,0z M482,407c0,41.355-33.645,75-75,75H105c-41.355,0-75-33.645-75-75V105c0-41.355,33.645-75,75-75h302
			c41.355,0,75,33.645,75,75V407z"/>
	</g>
</g>
<g>
	<g>
		<path d="M371,60H141c-16.542,0-30,13.458-30,30v332c0,16.542,13.458,30,30,30h230c16.542,0,30-13.458,30-30V90
			C401,73.458,387.542,60,371,60z M371,422H141V90l229.999-0.019c0,0,0.001,0.006,0.001,0.019V422z"/>
	</g>
</g>
<g>
	<g>
		<circle cx="326" cy="372" r="20"/>
	</g>
</g>
<g>
	<g>
		<circle cx="186" cy="302" r="20"/>
	</g>
</g>
<g>
	<g>
		<circle cx="256" cy="302" r="20"/>
	</g>
</g>
<g>
	<g>
		<circle cx="326" cy="302" r="20"/>
	</g>
</g>
<g>
	<g>
		<circle cx="186" cy="232" r="20"/>
	</g>
</g>
<g>
	<g>
		<circle cx="256" cy="232" r="20"/>
	</g>
</g>
<g>
	<g>
		<circle cx="326" cy="232" r="20"/>
	</g>
</g>
<g>
	<g>
		<path d="M256,352h-70c-11.046,0-20,8.954-20,20c0,11.046,8.954,20,20,20h70c11.046,0,20-8.954,20-20
			C276,360.954,267.046,352,256,352z"/>
	</g>
</g>
<g>
	<g>
		<rect x="168" y="120" width="178" height="60"/>
	</g>
</g>
<g>
</g>
<g>
</g>
<g>
</g>
<g>
</g>
<g>
</g>
<g>
</g>
<g>
</g>
<g>
</g>
<g>
</g>
<g>
</g>
<g>
</g>
<g>
</g>
<g>
</g>
<g>
</g>
<g>
</g>
</svg>
