<?xml version="1.0" encoding="iso-8859-1"?>
<!-- Generator: Adobe Illustrator 19.0.0, SVG Export Plug-In . SVG Version: 6.00 Build 0)  -->
<svg version="1.1" id="Capa_1" xmlns="http://www.w3.org/2000/svg" xmlns:xlink="http://www.w3.org/1999/xlink" x="0px" y="0px"
	 viewBox="0 0 512 512" style="enable-background:new 0 0 512 512;" xml:space="preserve">
<g>
	<g>
		<path d="M407,0H105C47.103,0,0,47.103,0,105v302c0,57.897,47.103,105,105,105h302c57.897,0,105-47.103,105-105V105
			C512,47.103,464.897,0,407,0z M482,407c0,41.355-33.645,75-75,75H105c-41.355,0-75-33.645-75-75V105c0-41.355,33.645-75,75-75h302
			c41.355,0,75,33.645,75,75V407z"/>
	</g>
</g>
<g>
	<g>
		<path d="M356,226c-3.815,0-7.598,0.286-11.331,0.856C330.767,190.82,295.658,166,256,166c-2.095,0-4.172,0.076-6.233,0.21
			c-6.999-13.104-16.964-24.391-29.293-33.039C204.458,121.938,185.621,116,166,116c-52.383,0-95,42.617-95,95
			c0,38.435,23.39,72.645,57.685,87.352C126.941,303.966,126,309.899,126,316c0,33.084,26.916,60,60,60h170
			c41.355,0,75-33.645,75-75C431,259.645,397.355,226,356,226z M101,211c0-35.841,29.159-65,65-65
			c21.254,0,41.009,10.602,53.033,27.488C184.961,187.935,161,221.722,161,261c0,0.153,0,0.305,0.001,0.458
			c-6.022,2.774-11.477,6.517-16.198,11.002C118.994,263.552,101,238.899,101,211z M356,346H186c-16.542,0-30-13.458-30-30
			c0-14.134,10.021-26.483,23.829-29.364l13.698-2.857l-1.9-13.864C191.211,266.882,191,263.883,191,261c0-35.841,29.159-65,65-65
			c30.803,0,57.592,21.87,63.699,52.003l3.529,17.413l16.575-6.4C344.986,257.015,350.436,256,356,256c24.813,0,45,20.187,45,45
			S380.813,346,356,346z"/>
	</g>
</g>
<g>
</g>
<g>
</g>
<g>
</g>
<g>
</g>
<g>
</g>
<g>
</g>
<g>
</g>
<g>
</g>
<g>
</g>
<g>
</g>
<g>
</g>
<g>
</g>
<g>
</g>
<g>
</g>
<g>
</g>
</svg>
