%!PS-Adobe-3.0 EPSF-3.0
%%Creator: cairo 1.14.2 (http://cairographics.org)
%%CreationDate: Wed May  9 09:18:00 2018
%%Pages: 1
%%DocumentData: Clean7Bit
%%LanguageLevel: 2
%%BoundingBox: 0 -1 383 383
%%EndComments
%%BeginProlog
save
50 dict begin
/q { gsave } bind def
/Q { grestore } bind def
/cm { 6 array astore concat } bind def
/w { setlinewidth } bind def
/J { setlinecap } bind def
/j { setlinejoin } bind def
/M { setmiterlimit } bind def
/d { setdash } bind def
/m { moveto } bind def
/l { lineto } bind def
/c { curveto } bind def
/h { closepath } bind def
/re { exch dup neg 3 1 roll 5 3 roll moveto 0 rlineto
      0 exch rlineto 0 rlineto closepath } bind def
/S { stroke } bind def
/f { fill } bind def
/f* { eofill } bind def
/n { newpath } bind def
/W { clip } bind def
/W* { eoclip } bind def
/BT { } bind def
/ET { } bind def
/pdfmark where { pop globaldict /?pdfmark /exec load put }
    { globaldict begin /?pdfmark /pop load def /pdfmark
    /cleartomark load def end } ifelse
/BDC { mark 3 1 roll /BDC pdfmark } bind def
/EMC { mark /EMC pdfmark } bind def
/cairo_store_point { /cairo_point_y exch def /cairo_point_x exch def } def
/Tj { show currentpoint cairo_store_point } bind def
/TJ {
  {
    dup
    type /stringtype eq
    { show } { -0.001 mul 0 cairo_font_matrix dtransform rmoveto } ifelse
  } forall
  currentpoint cairo_store_point
} bind def
/cairo_selectfont { cairo_font_matrix aload pop pop pop 0 0 6 array astore
    cairo_font exch selectfont cairo_point_x cairo_point_y moveto } bind def
/Tf { pop /cairo_font exch def /cairo_font_matrix where
      { pop cairo_selectfont } if } bind def
/Td { matrix translate cairo_font_matrix matrix concatmatrix dup
      /cairo_font_matrix exch def dup 4 get exch 5 get cairo_store_point
      /cairo_font where { pop cairo_selectfont } if } bind def
/Tm { 2 copy 8 2 roll 6 array astore /cairo_font_matrix exch def
      cairo_store_point /cairo_font where { pop cairo_selectfont } if } bind def
/g { setgray } bind def
/rg { setrgbcolor } bind def
/d1 { setcachedevice } bind def
%%EndProlog
%%BeginSetup
%%EndSetup
%%Page: 1 1
%%BeginPageSetup
%%PageBoundingBox: 0 -1 383 383
%%EndPageSetup
q 0 -1 383 384 rectclip q
0 g
378.734 23.137 m 242.625 159.246 l 290.43 217.719 281.789 303.871 223.32
 351.68 c 164.848 399.484 78.695 390.84 30.887 332.371 c -16.918 273.902
 -8.273 187.75 50.195 139.941 c 100.555 98.766 172.957 98.766 223.32 139.941
 c 359.43 3.832 l 364.852 -1.406 373.496 -1.258 378.734 4.168 c 383.844 
9.461 383.844 17.848 378.734 23.137 c h
136.973 136.367 m 76.68 136.434 27.816 185.297 27.746 245.594 c 27.746 
305.914 76.652 354.82 136.973 354.82 c 197.297 354.82 246.199 305.914 246.199
 245.594 c 246.199 185.27 197.297 136.367 136.973 136.367 c h
136.973 136.367 m f
205.242 259.246 m 68.707 259.246 l 61.168 259.246 55.055 253.133 55.055
 245.594 c 55.055 238.051 61.168 231.938 68.707 231.938 c 205.242 231.938
 l 212.781 231.938 218.895 238.051 218.895 245.594 c 218.895 253.133 212.781
 259.246 205.242 259.246 c h
205.242 259.246 m f
Q Q
showpage
%%Trailer
end restore
%%EOF
