%!PS-Adobe-3.0 EPSF-3.0
%%Creator: cairo 1.14.2 (http://cairographics.org)
%%CreationDate: Wed May  9 09:18:00 2018
%%Pages: 1
%%DocumentData: Clean7Bit
%%LanguageLevel: 2
%%BoundingBox: 0 -1 383 383
%%EndComments
%%BeginProlog
save
50 dict begin
/q { gsave } bind def
/Q { grestore } bind def
/cm { 6 array astore concat } bind def
/w { setlinewidth } bind def
/J { setlinecap } bind def
/j { setlinejoin } bind def
/M { setmiterlimit } bind def
/d { setdash } bind def
/m { moveto } bind def
/l { lineto } bind def
/c { curveto } bind def
/h { closepath } bind def
/re { exch dup neg 3 1 roll 5 3 roll moveto 0 rlineto
      0 exch rlineto 0 rlineto closepath } bind def
/S { stroke } bind def
/f { fill } bind def
/f* { eofill } bind def
/n { newpath } bind def
/W { clip } bind def
/W* { eoclip } bind def
/BT { } bind def
/ET { } bind def
/pdfmark where { pop globaldict /?pdfmark /exec load put }
    { globaldict begin /?pdfmark /pop load def /pdfmark
    /cleartomark load def end } ifelse
/BDC { mark 3 1 roll /BDC pdfmark } bind def
/EMC { mark /EMC pdfmark } bind def
/cairo_store_point { /cairo_point_y exch def /cairo_point_x exch def } def
/Tj { show currentpoint cairo_store_point } bind def
/TJ {
  {
    dup
    type /stringtype eq
    { show } { -0.001 mul 0 cairo_font_matrix dtransform rmoveto } ifelse
  } forall
  currentpoint cairo_store_point
} bind def
/cairo_selectfont { cairo_font_matrix aload pop pop pop 0 0 6 array astore
    cairo_font exch selectfont cairo_point_x cairo_point_y moveto } bind def
/Tf { pop /cairo_font exch def /cairo_font_matrix where
      { pop cairo_selectfont } if } bind def
/Td { matrix translate cairo_font_matrix matrix concatmatrix dup
      /cairo_font_matrix exch def dup 4 get exch 5 get cairo_store_point
      /cairo_font where { pop cairo_selectfont } if } bind def
/Tm { 2 copy 8 2 roll 6 array astore /cairo_font_matrix exch def
      cairo_store_point /cairo_font where { pop cairo_selectfont } if } bind def
/g { setgray } bind def
/rg { setrgbcolor } bind def
/d1 { setcachedevice } bind def
%%EndProlog
%%BeginSetup
%%EndSetup
%%Page: 1 1
%%BeginPageSetup
%%PageBoundingBox: 0 -1 383 383
%%EndPageSetup
q 0 -1 383 384 rectclip q
0 g
308.195 116.45 m 250.074 135.825 l 248.684 136.29 247.227 136.532 245.762
 136.536 c 136.535 136.536 l 135.066 136.532 133.609 136.29 132.219 135.825
 c 74.098 116.45 l 29.82 101.739 -0.043 60.309 0 13.653 c 0 6.114 6.113 
0.001 13.652 0.001 c 368.641 0.001 l 376.18 0.001 382.293 6.114 382.293 
13.653 c 382.336 60.309 352.473 101.739 308.195 116.45 c h
28.453 27.305 m 33.473 56.801 54.348 81.13 82.738 90.563 c 138.746 109.227
 l 243.547 109.227 l 299.527 90.563 l 327.93 81.137 348.816 56.809 353.84
 27.305 c h
28.453 27.305 m f
191.145 382.294 m 145.902 382.294 109.227 345.618 109.227 300.372 c 109.227
 245.758 l 109.27 200.536 145.922 163.883 191.145 163.84 c 236.371 163.883
 273.023 200.536 273.066 245.758 c 273.066 300.372 l 273.066 345.618 236.391
 382.294 191.145 382.294 c h
245.762 245.758 m 245.762 215.598 221.309 191.145 191.145 191.145 c 160.984
 191.145 136.531 215.598 136.531 245.758 c 136.531 300.372 l 136.531 330.536
 160.984 354.989 191.145 354.989 c 221.309 354.989 245.762 330.536 245.762
 300.372 c h
245.762 245.758 m f
Q Q
showpage
%%Trailer
end restore
%%EOF
