%!PS-Adobe-3.0 EPSF-3.0
%%Creator: cairo 1.14.2 (http://cairographics.org)
%%CreationDate: Wed May  9 09:18:00 2018
%%Pages: 1
%%DocumentData: Clean7Bit
%%LanguageLevel: 2
%%BoundingBox: 41 -1 342 383
%%EndComments
%%BeginProlog
save
50 dict begin
/q { gsave } bind def
/Q { grestore } bind def
/cm { 6 array astore concat } bind def
/w { setlinewidth } bind def
/J { setlinecap } bind def
/j { setlinejoin } bind def
/M { setmiterlimit } bind def
/d { setdash } bind def
/m { moveto } bind def
/l { lineto } bind def
/c { curveto } bind def
/h { closepath } bind def
/re { exch dup neg 3 1 roll 5 3 roll moveto 0 rlineto
      0 exch rlineto 0 rlineto closepath } bind def
/S { stroke } bind def
/f { fill } bind def
/f* { eofill } bind def
/n { newpath } bind def
/W { clip } bind def
/W* { eoclip } bind def
/BT { } bind def
/ET { } bind def
/pdfmark where { pop globaldict /?pdfmark /exec load put }
    { globaldict begin /?pdfmark /pop load def /pdfmark
    /cleartomark load def end } ifelse
/BDC { mark 3 1 roll /BDC pdfmark } bind def
/EMC { mark /EMC pdfmark } bind def
/cairo_store_point { /cairo_point_y exch def /cairo_point_x exch def } def
/Tj { show currentpoint cairo_store_point } bind def
/TJ {
  {
    dup
    type /stringtype eq
    { show } { -0.001 mul 0 cairo_font_matrix dtransform rmoveto } ifelse
  } forall
  currentpoint cairo_store_point
} bind def
/cairo_selectfont { cairo_font_matrix aload pop pop pop 0 0 6 array astore
    cairo_font exch selectfont cairo_point_x cairo_point_y moveto } bind def
/Tf { pop /cairo_font exch def /cairo_font_matrix where
      { pop cairo_selectfont } if } bind def
/Td { matrix translate cairo_font_matrix matrix concatmatrix dup
      /cairo_font_matrix exch def dup 4 get exch 5 get cairo_store_point
      /cairo_font where { pop cairo_selectfont } if } bind def
/Tm { 2 copy 8 2 roll 6 array astore /cairo_font_matrix exch def
      cairo_store_point /cairo_font where { pop cairo_selectfont } if } bind def
/g { setgray } bind def
/rg { setrgbcolor } bind def
/d1 { setcachedevice } bind def
%%EndProlog
%%BeginSetup
%%EndSetup
%%Page: 1 1
%%BeginPageSetup
%%PageBoundingBox: 41 -1 342 383
%%EndPageSetup
q 41 -1 301 384 rectclip q
0 g
327.734 245.759 m 95.625 245.759 l 95.625 259.415 l 95.586 312.196 138.34
 355.02 191.125 355.063 c 230.121 355.095 265.227 331.427 279.824 295.266
 c 282.699 288.298 290.68 284.977 297.652 287.852 c 304.555 290.7 307.891
 298.567 305.137 305.509 c 279.723 368.434 208.105 398.841 145.18 373.423
 c 98.707 354.653 68.289 309.536 68.32 259.411 c 68.32 245.759 l 54.668 
245.759 l 47.125 245.759 41.012 239.645 41.012 232.106 c 41.012 13.653 l
 41.012 6.11 47.125 -0.003 54.668 -0.003 c 327.734 -0.003 l 335.273 -0.003
 341.387 6.11 341.387 13.653 c 341.387 232.106 l 341.387 239.645 335.273
 245.759 327.734 245.759 c h
314.078 27.305 m 68.32 27.305 l 68.32 218.454 l 314.078 218.454 l h
314.078 27.305 m f
229.816 150.356 m 222.277 171.684 198.875 182.86 177.547 175.321 c 156.219
 167.778 145.043 144.376 152.582 123.048 c 156.707 111.384 165.883 102.208
 177.547 98.087 c 177.547 68.266 l 177.547 60.723 183.66 54.61 191.199 54.61
 c 198.742 54.61 204.855 60.723 204.855 68.266 c 204.855 98.087 l 226.18
 105.626 237.359 129.028 229.816 150.356 c h
191.199 122.88 m 183.66 122.88 177.547 128.993 177.547 136.532 c 177.547
 144.075 183.66 150.188 191.199 150.188 c 198.742 150.188 204.855 144.075
 204.855 136.532 c 204.855 128.993 198.738 122.88 191.199 122.88 c h
191.199 122.88 m f
Q Q
showpage
%%Trailer
end restore
%%EOF
