%!PS-Adobe-3.0 EPSF-3.0
%%Creator: cairo 1.14.2 (http://cairographics.org)
%%CreationDate: Wed May  9 09:18:00 2018
%%Pages: 1
%%DocumentData: Clean7Bit
%%LanguageLevel: 2
%%BoundingBox: 0 19 410 390
%%EndComments
%%BeginProlog
save
50 dict begin
/q { gsave } bind def
/Q { grestore } bind def
/cm { 6 array astore concat } bind def
/w { setlinewidth } bind def
/J { setlinecap } bind def
/j { setlinejoin } bind def
/M { setmiterlimit } bind def
/d { setdash } bind def
/m { moveto } bind def
/l { lineto } bind def
/c { curveto } bind def
/h { closepath } bind def
/re { exch dup neg 3 1 roll 5 3 roll moveto 0 rlineto
      0 exch rlineto 0 rlineto closepath } bind def
/S { stroke } bind def
/f { fill } bind def
/f* { eofill } bind def
/n { newpath } bind def
/W { clip } bind def
/W* { eoclip } bind def
/BT { } bind def
/ET { } bind def
/pdfmark where { pop globaldict /?pdfmark /exec load put }
    { globaldict begin /?pdfmark /pop load def /pdfmark
    /cleartomark load def end } ifelse
/BDC { mark 3 1 roll /BDC pdfmark } bind def
/EMC { mark /EMC pdfmark } bind def
/cairo_store_point { /cairo_point_y exch def /cairo_point_x exch def } def
/Tj { show currentpoint cairo_store_point } bind def
/TJ {
  {
    dup
    type /stringtype eq
    { show } { -0.001 mul 0 cairo_font_matrix dtransform rmoveto } ifelse
  } forall
  currentpoint cairo_store_point
} bind def
/cairo_selectfont { cairo_font_matrix aload pop pop pop 0 0 6 array astore
    cairo_font exch selectfont cairo_point_x cairo_point_y moveto } bind def
/Tf { pop /cairo_font exch def /cairo_font_matrix where
      { pop cairo_selectfont } if } bind def
/Td { matrix translate cairo_font_matrix matrix concatmatrix dup
      /cairo_font_matrix exch def dup 4 get exch 5 get cairo_store_point
      /cairo_font where { pop cairo_selectfont } if } bind def
/Tm { 2 copy 8 2 roll 6 array astore /cairo_font_matrix exch def
      cairo_store_point /cairo_font where { pop cairo_selectfont } if } bind def
/g { setgray } bind def
/rg { setrgbcolor } bind def
/d1 { setcachedevice } bind def
%%EndProlog
%%BeginSetup
%%EndSetup
%%Page: 1 1
%%BeginPageSetup
%%PageBoundingBox: 0 19 410 390
%%EndPageSetup
q 0 19 410 371 rectclip q
0 g
368.641 389.12 m 346.062 389.163 327.73 370.893 327.688 348.315 c 327.668
 337.674 331.801 327.444 339.203 319.803 c 264.371 170.163 l 262.73 170.432
 261.074 170.6 259.414 170.666 c 254.125 170.655 248.891 169.616 244 167.608
 c 185.902 232.94 l 189.297 238.936 191.102 245.698 191.148 252.584 c 191.148
 275.205 172.809 293.545 150.188 293.545 c 127.566 293.545 109.227 275.205
 109.227 252.584 c 109.266 242.807 112.836 233.373 119.277 226.014 c 48.277
 101.663 l 45.867 102.127 43.418 102.373 40.961 102.401 c 18.34 102.401 
0 84.061 0 61.44 c 0 38.819 18.34 20.479 40.961 20.479 c 63.582 20.479 81.922
 38.819 81.922 61.44 c 81.879 71.217 78.312 80.651 71.871 88.01 c 142.867
 212.366 l 150.492 210.858 158.387 211.666 165.547 214.686 c 223.641 149.354
 l 220.27 143.354 218.484 136.592 218.453 129.705 c 218.387 107.084 236.668
 88.69 259.289 88.623 c 281.91 88.557 300.305 106.838 300.375 129.459 c 
300.406 140.131 296.27 150.393 288.852 158.065 c 363.684 307.705 l 365.324
 307.432 366.98 307.264 368.641 307.202 c 391.262 307.202 409.602 325.538
 409.602 348.159 c 409.602 370.78 391.262 389.12 368.641 389.12 c h
40.961 47.788 m 33.418 47.788 27.305 53.901 27.305 61.44 c 27.305 68.979
 33.418 75.092 40.961 75.092 c 48.5 75.092 54.613 68.979 54.613 61.44 c 
54.613 53.901 48.5 47.788 40.961 47.788 c h
150.188 238.932 m 142.645 238.932 136.531 245.045 136.531 252.588 c 136.531
 260.127 142.645 266.241 150.188 266.241 c 157.727 266.241 163.84 260.127
 163.84 252.588 c 163.84 245.045 157.727 238.932 150.188 238.932 c h
259.414 116.053 m 251.871 116.053 245.762 122.166 245.762 129.705 c 245.762
 137.248 251.871 143.362 259.414 143.362 c 266.953 143.362 273.066 137.248
 273.066 129.705 c 273.066 122.166 266.953 116.053 259.414 116.053 c h
368.641 334.506 m 361.098 334.506 354.988 340.62 354.988 348.159 c 354.988
 355.702 361.098 361.815 368.641 361.815 c 376.18 361.815 382.293 355.702
 382.293 348.159 c 382.293 340.62 376.18 334.506 368.641 334.506 c h
368.641 334.506 m f
Q Q
showpage
%%Trailer
end restore
%%EOF
