%!PS-Adobe-3.0 EPSF-3.0
%%Creator: cairo 1.14.2 (http://cairographics.org)
%%CreationDate: Wed May  9 09:18:00 2018
%%Pages: 1
%%DocumentData: Clean7Bit
%%LanguageLevel: 2
%%BoundingBox: 0 -1 383 383
%%EndComments
%%BeginProlog
save
50 dict begin
/q { gsave } bind def
/Q { grestore } bind def
/cm { 6 array astore concat } bind def
/w { setlinewidth } bind def
/J { setlinecap } bind def
/j { setlinejoin } bind def
/M { setmiterlimit } bind def
/d { setdash } bind def
/m { moveto } bind def
/l { lineto } bind def
/c { curveto } bind def
/h { closepath } bind def
/re { exch dup neg 3 1 roll 5 3 roll moveto 0 rlineto
      0 exch rlineto 0 rlineto closepath } bind def
/S { stroke } bind def
/f { fill } bind def
/f* { eofill } bind def
/n { newpath } bind def
/W { clip } bind def
/W* { eoclip } bind def
/BT { } bind def
/ET { } bind def
/pdfmark where { pop globaldict /?pdfmark /exec load put }
    { globaldict begin /?pdfmark /pop load def /pdfmark
    /cleartomark load def end } ifelse
/BDC { mark 3 1 roll /BDC pdfmark } bind def
/EMC { mark /EMC pdfmark } bind def
/cairo_store_point { /cairo_point_y exch def /cairo_point_x exch def } def
/Tj { show currentpoint cairo_store_point } bind def
/TJ {
  {
    dup
    type /stringtype eq
    { show } { -0.001 mul 0 cairo_font_matrix dtransform rmoveto } ifelse
  } forall
  currentpoint cairo_store_point
} bind def
/cairo_selectfont { cairo_font_matrix aload pop pop pop 0 0 6 array astore
    cairo_font exch selectfont cairo_point_x cairo_point_y moveto } bind def
/Tf { pop /cairo_font exch def /cairo_font_matrix where
      { pop cairo_selectfont } if } bind def
/Td { matrix translate cairo_font_matrix matrix concatmatrix dup
      /cairo_font_matrix exch def dup 4 get exch 5 get cairo_store_point
      /cairo_font where { pop cairo_selectfont } if } bind def
/Tm { 2 copy 8 2 roll 6 array astore /cairo_font_matrix exch def
      cairo_store_point /cairo_font where { pop cairo_selectfont } if } bind def
/g { setgray } bind def
/rg { setrgbcolor } bind def
/d1 { setcachedevice } bind def
%%EndProlog
%%BeginSetup
%%EndSetup
%%Page: 1 1
%%BeginPageSetup
%%PageBoundingBox: 0 -1 383 383
%%EndPageSetup
q 0 -1 383 384 rectclip q
0 g
95.574 232.106 m 13.652 232.106 l 6.113 232.106 0 225.993 0 218.454 c 0
 13.653 l 0 6.114 6.113 0.001 13.652 0.001 c 95.574 0.001 l 103.113 0.001
 109.227 6.114 109.227 13.653 c 109.227 218.454 l 109.227 225.993 103.113
 232.106 95.574 232.106 c h
81.922 27.305 m 27.305 27.305 l 27.305 204.801 l 81.922 204.801 l h
81.922 27.305 m f
232.105 382.294 m 150.188 382.294 l 142.645 382.294 136.531 376.18 136.531
 368.641 c 136.531 13.653 l 136.531 6.114 142.645 0.001 150.188 0.001 c 
232.105 0.001 l 239.648 0.001 245.762 6.114 245.762 13.653 c 245.762 368.641
 l 245.762 376.18 239.648 382.294 232.105 382.294 c h
218.453 27.305 m 163.84 27.305 l 163.84 354.989 l 218.453 354.989 l h
218.453 27.305 m f
368.641 273.067 m 286.719 273.067 l 279.18 273.067 273.066 266.954 273.066
 259.415 c 273.066 13.653 l 273.066 6.114 279.18 0.001 286.719 0.001 c 368.641
 0.001 l 376.18 0.001 382.293 6.114 382.293 13.653 c 382.293 259.415 l 382.293
 266.954 376.18 273.067 368.641 273.067 c h
354.988 27.305 m 300.371 27.305 l 300.371 245.758 l 354.988 245.758 l h
354.988 27.305 m f
Q Q
showpage
%%Trailer
end restore
%%EOF
