%!PS-Adobe-3.0 EPSF-3.0
%%Creator: cairo 1.14.2 (http://cairographics.org)
%%CreationDate: Wed May  9 09:18:00 2018
%%Pages: 1
%%DocumentData: Clean7Bit
%%LanguageLevel: 2
%%BoundingBox: 0 40 383 343
%%EndComments
%%BeginProlog
save
50 dict begin
/q { gsave } bind def
/Q { grestore } bind def
/cm { 6 array astore concat } bind def
/w { setlinewidth } bind def
/J { setlinecap } bind def
/j { setlinejoin } bind def
/M { setmiterlimit } bind def
/d { setdash } bind def
/m { moveto } bind def
/l { lineto } bind def
/c { curveto } bind def
/h { closepath } bind def
/re { exch dup neg 3 1 roll 5 3 roll moveto 0 rlineto
      0 exch rlineto 0 rlineto closepath } bind def
/S { stroke } bind def
/f { fill } bind def
/f* { eofill } bind def
/n { newpath } bind def
/W { clip } bind def
/W* { eoclip } bind def
/BT { } bind def
/ET { } bind def
/pdfmark where { pop globaldict /?pdfmark /exec load put }
    { globaldict begin /?pdfmark /pop load def /pdfmark
    /cleartomark load def end } ifelse
/BDC { mark 3 1 roll /BDC pdfmark } bind def
/EMC { mark /EMC pdfmark } bind def
/cairo_store_point { /cairo_point_y exch def /cairo_point_x exch def } def
/Tj { show currentpoint cairo_store_point } bind def
/TJ {
  {
    dup
    type /stringtype eq
    { show } { -0.001 mul 0 cairo_font_matrix dtransform rmoveto } ifelse
  } forall
  currentpoint cairo_store_point
} bind def
/cairo_selectfont { cairo_font_matrix aload pop pop pop 0 0 6 array astore
    cairo_font exch selectfont cairo_point_x cairo_point_y moveto } bind def
/Tf { pop /cairo_font exch def /cairo_font_matrix where
      { pop cairo_selectfont } if } bind def
/Td { matrix translate cairo_font_matrix matrix concatmatrix dup
      /cairo_font_matrix exch def dup 4 get exch 5 get cairo_store_point
      /cairo_font where { pop cairo_selectfont } if } bind def
/Tm { 2 copy 8 2 roll 6 array astore /cairo_font_matrix exch def
      cairo_store_point /cairo_font where { pop cairo_selectfont } if } bind def
/g { setgray } bind def
/rg { setrgbcolor } bind def
/d1 { setcachedevice } bind def
%%EndProlog
%%BeginSetup
%%EndSetup
%%Page: 1 1
%%BeginPageSetup
%%PageBoundingBox: 0 40 383 343
%%EndPageSetup
q 0 40 383 303 rectclip q
0 g
378.316 282.89 m 378.309 282.898 378.301 282.906 378.293 282.913 c 378.281
 282.902 l 323.668 337.515 l 318.242 342.753 309.598 342.601 304.359 337.179
 c 299.25 331.886 299.25 323.499 304.359 318.206 c 335.68 286.886 l 259.414
 286.886 l 206.656 286.827 163.902 244.074 163.84 191.312 c 163.797 153.628
 133.258 123.093 95.574 123.046 c 13.656 123.046 l 6.113 123.046 0 116.933
 0 109.394 c 0 101.851 6.113 95.738 13.652 95.738 c 95.574 95.738 l 148.332
 95.8 191.086 138.554 191.148 191.312 c 191.191 228.995 221.73 259.534 259.414
 259.577 c 335.68 259.577 l 304.375 228.273 l 298.949 223.034 298.801 214.39
 304.039 208.968 c 309.277 203.542 317.922 203.394 323.344 208.632 c 323.457
 208.741 323.57 208.851 323.68 208.968 c 378.293 263.581 l 383.633 268.906
 383.641 277.55 378.316 282.89 c h
378.316 282.89 m f
378.316 119.05 m 378.293 119.074 l 378.281 119.058 l 323.668 173.671 l 
318.242 178.909 309.598 178.761 304.359 173.335 c 299.25 168.046 299.25 
159.659 304.359 154.366 c 335.68 123.046 l 259.414 123.046 l 242.617 123.034
 226.406 129.222 213.895 140.429 c 208.23 145.406 199.602 144.847 194.625
 139.183 c 189.715 133.593 190.184 125.101 195.68 120.085 c 213.199 104.394
 235.895 95.722 259.414 95.741 c 335.68 95.741 l 304.375 64.433 l 298.949
 59.195 298.801 50.55 304.039 45.128 c 309.277 39.702 317.922 39.554 323.344
 44.792 c 323.457 44.902 323.57 45.011 323.68 45.128 c 378.293 99.741 l 
383.633 105.066 383.641 113.71 378.316 119.05 c h
378.316 119.05 m f
159.309 262.542 m 141.789 278.234 119.094 286.902 95.574 286.886 c 13.652
 286.886 l 6.113 286.886 0 280.773 0 273.234 c 0 265.691 6.113 259.577 13.652
 259.577 c 95.574 259.577 l 112.371 259.593 128.578 253.402 141.094 242.199
 c 146.758 237.222 155.387 237.777 160.363 243.441 c 165.273 249.034 164.805
 257.527 159.309 262.542 c h
159.309 262.542 m f
Q Q
showpage
%%Trailer
end restore
%%EOF
