%!PS-Adobe-3.0 EPSF-3.0
%%Creator: cairo 1.14.2 (http://cairographics.org)
%%CreationDate: Wed May  9 09:18:00 2018
%%Pages: 1
%%DocumentData: Clean7Bit
%%LanguageLevel: 2
%%BoundingBox: 0 13 383 370
%%EndComments
%%BeginProlog
save
50 dict begin
/q { gsave } bind def
/Q { grestore } bind def
/cm { 6 array astore concat } bind def
/w { setlinewidth } bind def
/J { setlinecap } bind def
/j { setlinejoin } bind def
/M { setmiterlimit } bind def
/d { setdash } bind def
/m { moveto } bind def
/l { lineto } bind def
/c { curveto } bind def
/h { closepath } bind def
/re { exch dup neg 3 1 roll 5 3 roll moveto 0 rlineto
      0 exch rlineto 0 rlineto closepath } bind def
/S { stroke } bind def
/f { fill } bind def
/f* { eofill } bind def
/n { newpath } bind def
/W { clip } bind def
/W* { eoclip } bind def
/BT { } bind def
/ET { } bind def
/pdfmark where { pop globaldict /?pdfmark /exec load put }
    { globaldict begin /?pdfmark /pop load def /pdfmark
    /cleartomark load def end } ifelse
/BDC { mark 3 1 roll /BDC pdfmark } bind def
/EMC { mark /EMC pdfmark } bind def
/cairo_store_point { /cairo_point_y exch def /cairo_point_x exch def } def
/Tj { show currentpoint cairo_store_point } bind def
/TJ {
  {
    dup
    type /stringtype eq
    { show } { -0.001 mul 0 cairo_font_matrix dtransform rmoveto } ifelse
  } forall
  currentpoint cairo_store_point
} bind def
/cairo_selectfont { cairo_font_matrix aload pop pop pop 0 0 6 array astore
    cairo_font exch selectfont cairo_point_x cairo_point_y moveto } bind def
/Tf { pop /cairo_font exch def /cairo_font_matrix where
      { pop cairo_selectfont } if } bind def
/Td { matrix translate cairo_font_matrix matrix concatmatrix dup
      /cairo_font_matrix exch def dup 4 get exch 5 get cairo_store_point
      /cairo_font where { pop cairo_selectfont } if } bind def
/Tm { 2 copy 8 2 roll 6 array astore /cairo_font_matrix exch def
      cairo_store_point /cairo_font where { pop cairo_selectfont } if } bind def
/g { setgray } bind def
/rg { setrgbcolor } bind def
/d1 { setcachedevice } bind def
%%EndProlog
%%BeginSetup
%%EndSetup
%%Page: 1 1
%%BeginPageSetup
%%PageBoundingBox: 0 13 383 370
%%EndPageSetup
q 0 13 383 357 rectclip q
0 g
368.641 136.532 m 121.363 136.532 l 95.477 356.583 l 94.668 363.458 88.84
 368.637 81.922 368.641 c 13.652 368.641 l 6.113 368.641 0 362.528 0 354.989
 c 0 347.446 6.113 341.333 13.652 341.333 c 69.781 341.333 l 95.723 121.282
 l 96.531 114.43 102.328 109.255 109.227 109.227 c 368.641 109.227 l 376.18
 109.227 382.293 115.34 382.293 122.88 c 382.293 130.423 376.18 136.532 
368.641 136.532 c h
368.641 136.532 m f
150.188 95.575 m 127.566 95.575 109.227 77.235 109.227 54.614 c 109.227
 31.993 127.566 13.653 150.188 13.653 c 172.809 13.653 191.145 31.993 191.145
 54.614 c 191.145 77.235 172.809 95.575 150.188 95.575 c h
150.188 40.962 m 142.645 40.962 136.531 47.071 136.531 54.614 c 136.531
 62.153 142.645 68.266 150.188 68.266 c 157.727 68.266 163.84 62.153 163.84
 54.614 c 163.84 47.071 157.727 40.962 150.188 40.962 c h
150.188 40.962 m f
314.027 95.575 m 291.406 95.575 273.066 77.235 273.066 54.614 c 273.066
 31.993 291.406 13.653 314.027 13.653 c 336.648 13.653 354.988 31.993 354.988
 54.614 c 354.988 77.235 336.648 95.575 314.027 95.575 c h
314.027 40.962 m 306.484 40.962 300.371 47.071 300.371 54.614 c 300.371
 62.153 306.484 68.266 314.027 68.266 c 321.566 68.266 327.68 62.153 327.68
 54.614 c 327.68 47.071 321.566 40.962 314.027 40.962 c h
314.027 40.962 m f
368.641 368.641 m 136.535 368.641 l 128.992 368.637 122.883 362.52 122.887
 354.981 c 122.887 354.29 122.938 353.598 123.043 352.911 c 150.352 175.419
 l 151.375 168.758 157.102 163.84 163.84 163.84 c 368.641 163.84 l 376.18
 163.84 382.293 169.954 382.293 177.493 c 382.293 354.989 l 382.293 362.528
 376.18 368.641 368.641 368.641 c h
218.453 191.149 m 175.555 191.149 l 171.348 218.454 l 218.453 218.454 l
 h
218.453 245.758 m 167.145 245.758 l 162.953 273.067 l 218.453 273.067 l
 h
218.453 300.372 m 158.746 300.372 l 152.453 341.333 l 218.453 341.333 l
 h
286.719 191.149 m 245.762 191.149 l 245.762 218.454 l 286.719 218.454 l
 h
286.719 245.758 m 245.762 245.758 l 245.762 273.067 l 286.719 273.067 l
 h
286.719 300.372 m 245.762 300.372 l 245.762 341.333 l 286.719 341.333 l
 h
354.988 191.149 m 314.027 191.149 l 314.027 218.454 l 354.988 218.454 l
 h
354.988 245.758 m 314.027 245.758 l 314.027 273.067 l 354.988 273.067 l
 h
354.988 300.372 m 314.027 300.372 l 314.027 341.333 l 354.988 341.333 l
 h
354.988 300.372 m f
Q Q
showpage
%%Trailer
end restore
%%EOF
