%!PS-Adobe-3.0 EPSF-3.0
%%Creator: cairo 1.14.2 (http://cairographics.org)
%%CreationDate: Wed May  9 09:18:00 2018
%%Pages: 1
%%DocumentData: Clean7Bit
%%LanguageLevel: 2
%%BoundingBox: 0 -1 385 385
%%EndComments
%%BeginProlog
save
50 dict begin
/q { gsave } bind def
/Q { grestore } bind def
/cm { 6 array astore concat } bind def
/w { setlinewidth } bind def
/J { setlinecap } bind def
/j { setlinejoin } bind def
/M { setmiterlimit } bind def
/d { setdash } bind def
/m { moveto } bind def
/l { lineto } bind def
/c { curveto } bind def
/h { closepath } bind def
/re { exch dup neg 3 1 roll 5 3 roll moveto 0 rlineto
      0 exch rlineto 0 rlineto closepath } bind def
/S { stroke } bind def
/f { fill } bind def
/f* { eofill } bind def
/n { newpath } bind def
/W { clip } bind def
/W* { eoclip } bind def
/BT { } bind def
/ET { } bind def
/pdfmark where { pop globaldict /?pdfmark /exec load put }
    { globaldict begin /?pdfmark /pop load def /pdfmark
    /cleartomark load def end } ifelse
/BDC { mark 3 1 roll /BDC pdfmark } bind def
/EMC { mark /EMC pdfmark } bind def
/cairo_store_point { /cairo_point_y exch def /cairo_point_x exch def } def
/Tj { show currentpoint cairo_store_point } bind def
/TJ {
  {
    dup
    type /stringtype eq
    { show } { -0.001 mul 0 cairo_font_matrix dtransform rmoveto } ifelse
  } forall
  currentpoint cairo_store_point
} bind def
/cairo_selectfont { cairo_font_matrix aload pop pop pop 0 0 6 array astore
    cairo_font exch selectfont cairo_point_x cairo_point_y moveto } bind def
/Tf { pop /cairo_font exch def /cairo_font_matrix where
      { pop cairo_selectfont } if } bind def
/Td { matrix translate cairo_font_matrix matrix concatmatrix dup
      /cairo_font_matrix exch def dup 4 get exch 5 get cairo_store_point
      /cairo_font where { pop cairo_selectfont } if } bind def
/Tm { 2 copy 8 2 roll 6 array astore /cairo_font_matrix exch def
      cairo_store_point /cairo_font where { pop cairo_selectfont } if } bind def
/g { setgray } bind def
/rg { setrgbcolor } bind def
/d1 { setcachedevice } bind def
%%EndProlog
%%BeginSetup
%%EndSetup
%%Page: 1 1
%%BeginPageSetup
%%PageBoundingBox: 0 -1 385 385
%%EndPageSetup
q 0 -1 385 386 rectclip q
0 g
341.094 109.587 m 321.258 114.083 300.555 107.364 287.137 92.083 c 108.402
 181.458 l 110.059 188.973 110.059 196.766 108.402 204.286 c 287.137 293.657
 l 297.406 281.727 312.355 274.841 328.098 274.79 c 358.363 274.684 382.988
 299.134 383.094 329.403 c 383.199 359.673 358.746 384.294 328.48 384.399
 c 298.211 384.505 273.59 360.055 273.484 329.786 c 273.473 325.821 273.887
 321.864 274.727 317.989 c 95.992 228.614 l 76.25 251.419 41.762 253.903
 18.957 234.161 c -3.848 214.423 -6.332 179.93 13.41 157.126 c 33.152 134.321
 67.641 131.837 90.445 151.579 c 92.426 153.294 94.277 155.145 95.992 157.126
 c 274.727 67.751 l 267.953 37.872 286.684 8.161 316.562 1.387 c 346.441
 -5.39 376.152 13.341 382.93 43.22 c 389.703 73.098 370.973 102.809 341.094
 109.587 c h
328.098 356.712 m 343.18 356.794 355.473 344.637 355.555 329.555 c 355.637
 314.473 343.48 302.18 328.398 302.098 c 318.035 302.04 308.527 307.86 303.863
 317.118 c 303.863 317.305 l 303.863 317.387 303.727 317.442 303.688 317.524
 c 301.824 321.212 300.836 325.274 300.793 329.403 c 300.793 344.485 313.016
 356.712 328.098 356.712 c h
79.512 180.923 m 79.512 180.841 79.391 180.786 79.336 180.692 c 79.336 
180.501 l 74.699 171.337 65.301 165.559 55.031 165.563 c 39.949 165.481 
27.656 177.637 27.574 192.72 c 27.492 207.802 39.648 220.095 54.73 220.177
 c 65.098 220.235 74.602 214.415 79.266 205.157 c 79.266 204.966 l 79.332
 204.845 79.441 204.747 79.512 204.626 c 83.27 197.173 83.27 188.376 79.512
 180.923 c h
328.098 29.032 m 313.02 29.032 300.793 41.255 300.793 56.337 c 300.805 
60.415 301.738 64.438 303.523 68.106 c 303.605 68.243 303.715 68.337 303.781
 68.473 c 303.781 68.665 l 308.406 77.852 317.812 83.645 328.098 83.641 
c 343.18 83.641 355.406 71.419 355.406 56.337 c 355.406 41.255 343.18 29.032
 328.098 29.032 c h
328.098 29.032 m f
Q Q
showpage
%%Trailer
end restore
%%EOF
