%!PS-Adobe-3.0 EPSF-3.0
%%Creator: cairo 1.14.2 (http://cairographics.org)
%%CreationDate: Wed May  9 09:18:00 2018
%%Pages: 1
%%DocumentData: Clean7Bit
%%LanguageLevel: 2
%%BoundingBox: 0 -1 383 383
%%EndComments
%%BeginProlog
save
50 dict begin
/q { gsave } bind def
/Q { grestore } bind def
/cm { 6 array astore concat } bind def
/w { setlinewidth } bind def
/J { setlinecap } bind def
/j { setlinejoin } bind def
/M { setmiterlimit } bind def
/d { setdash } bind def
/m { moveto } bind def
/l { lineto } bind def
/c { curveto } bind def
/h { closepath } bind def
/re { exch dup neg 3 1 roll 5 3 roll moveto 0 rlineto
      0 exch rlineto 0 rlineto closepath } bind def
/S { stroke } bind def
/f { fill } bind def
/f* { eofill } bind def
/n { newpath } bind def
/W { clip } bind def
/W* { eoclip } bind def
/BT { } bind def
/ET { } bind def
/pdfmark where { pop globaldict /?pdfmark /exec load put }
    { globaldict begin /?pdfmark /pop load def /pdfmark
    /cleartomark load def end } ifelse
/BDC { mark 3 1 roll /BDC pdfmark } bind def
/EMC { mark /EMC pdfmark } bind def
/cairo_store_point { /cairo_point_y exch def /cairo_point_x exch def } def
/Tj { show currentpoint cairo_store_point } bind def
/TJ {
  {
    dup
    type /stringtype eq
    { show } { -0.001 mul 0 cairo_font_matrix dtransform rmoveto } ifelse
  } forall
  currentpoint cairo_store_point
} bind def
/cairo_selectfont { cairo_font_matrix aload pop pop pop 0 0 6 array astore
    cairo_font exch selectfont cairo_point_x cairo_point_y moveto } bind def
/Tf { pop /cairo_font exch def /cairo_font_matrix where
      { pop cairo_selectfont } if } bind def
/Td { matrix translate cairo_font_matrix matrix concatmatrix dup
      /cairo_font_matrix exch def dup 4 get exch 5 get cairo_store_point
      /cairo_font where { pop cairo_selectfont } if } bind def
/Tm { 2 copy 8 2 roll 6 array astore /cairo_font_matrix exch def
      cairo_store_point /cairo_font where { pop cairo_selectfont } if } bind def
/g { setgray } bind def
/rg { setrgbcolor } bind def
/d1 { setcachedevice } bind def
%%EndProlog
%%BeginSetup
%%EndSetup
%%Page: 1 1
%%BeginPageSetup
%%PageBoundingBox: 0 -1 383 383
%%EndPageSetup
q 0 -1 383 384 rectclip q
0 g
368.641 245.758 m 345.523 245.758 l 343.613 251.188 341.418 256.512 338.945
 261.708 c 355.328 278.09 l 360.66 283.423 360.66 292.067 355.328 297.395
 c 297.344 355.274 l 292.012 360.602 283.367 360.602 278.035 355.274 c 261.652
 338.891 l 256.473 341.376 251.168 343.59 245.762 345.524 c 245.762 368.641
 l 245.762 376.18 239.648 382.294 232.105 382.294 c 150.188 382.294 l 142.645
 382.294 136.531 376.18 136.531 368.641 c 136.531 345.524 l 131.102 343.61
 125.773 341.415 120.57 338.946 c 104.188 355.329 l 98.855 360.657 90.215
 360.657 84.883 355.329 c 27.02 297.34 l 21.688 292.012 21.688 283.368 27.02
 278.036 c 43.402 261.653 l 40.91 256.477 38.695 251.173 36.77 245.758 c
 13.652 245.758 l 6.113 245.758 0 239.649 0 232.106 c 0 150.188 l 0 142.645
 6.113 136.532 13.652 136.532 c 36.77 136.532 l 38.68 131.106 40.875 125.782
 43.348 120.587 c 26.965 104.204 l 21.637 98.872 21.637 90.227 26.965 84.895
 c 84.898 26.965 l 90.23 21.637 98.871 21.637 104.203 26.965 c 120.586 43.348
 l 125.785 40.88 131.105 38.684 136.535 36.77 c 136.535 13.653 l 136.535
 6.114 142.645 0.001 150.188 0.001 c 232.105 0.001 l 239.648 0.001 245.762
 6.114 245.762 13.653 c 245.762 36.77 l 251.191 38.684 256.52 40.88 261.723
 43.348 c 278.105 26.965 l 283.438 21.637 292.078 21.637 297.41 26.965 c
 355.344 84.895 l 360.672 90.227 360.672 98.872 355.344 104.204 c 338.957
 120.587 l 341.43 125.782 343.621 131.106 345.527 136.532 c 368.641 136.532
 l 376.18 136.532 382.293 142.645 382.293 150.188 c 382.293 232.106 l 382.293
 239.649 376.18 245.758 368.641 245.758 c h
354.988 163.84 m 335.531 163.84 l 329.426 163.84 324.062 159.786 322.395
 153.915 c 319.527 143.719 315.477 133.895 310.328 124.641 c 307.312 119.294
 308.238 112.587 312.594 108.258 c 326.246 94.536 l 287.691 55.981 l 273.969
 69.633 l 269.637 73.985 262.934 74.915 257.586 71.899 c 248.332 66.751 
238.512 62.7 228.324 59.829 c 222.445 58.169 218.387 52.805 218.387 46.696
 c 218.387 27.305 l 163.84 27.305 l 163.84 46.762 l 163.84 52.872 159.777
 58.235 153.898 59.899 c 143.711 62.77 133.891 66.821 124.641 71.965 c 119.293
 74.981 112.586 74.055 108.258 69.7 c 94.602 56.048 l 55.977 94.602 l 69.633
 108.325 l 73.984 112.657 74.914 119.36 71.898 124.708 c 66.746 133.962 
62.695 143.786 59.828 153.981 c 58.145 159.805 52.824 163.817 46.762 163.84
 c 27.305 163.84 l 27.305 218.454 l 46.762 218.454 l 52.867 218.454 58.23
 222.505 59.898 228.38 c 62.766 238.575 66.812 248.399 71.965 257.653 c 
74.98 263.001 74.055 269.704 69.699 274.036 c 56.047 287.688 l 94.602 326.317
 l 108.258 312.661 l 112.586 308.309 119.293 307.38 124.641 310.395 c 133.891
 315.544 143.711 319.594 153.898 322.465 c 159.754 324.118 163.809 329.45
 163.84 335.532 c 163.84 354.989 l 218.453 354.989 l 218.453 335.532 l 218.457
 329.423 222.516 324.059 228.395 322.395 c 238.582 319.524 248.402 315.473
 257.652 310.329 c 263.004 307.313 269.707 308.239 274.035 312.594 c 287.758
 326.247 l 326.316 287.692 l 312.66 274.036 l 308.309 269.708 307.379 263.001
 310.395 257.653 c 315.547 248.399 319.598 238.575 322.465 228.38 c 324.133
 222.508 329.496 218.454 335.598 218.454 c 354.988 218.454 l h
354.988 163.84 m f
191.145 286.719 m 138.363 286.719 95.574 243.93 95.574 191.145 c 95.574
 138.364 138.363 95.575 191.145 95.575 c 243.93 95.575 286.719 138.364 286.719
 191.149 c 286.66 243.907 243.906 286.661 191.145 286.719 c h
191.145 122.88 m 153.445 122.88 122.879 153.446 122.879 191.145 c 122.879
 228.848 153.445 259.415 191.145 259.415 c 228.848 259.415 259.414 228.848
 259.414 191.145 c 259.367 153.462 228.832 122.926 191.145 122.88 c h
191.145 122.88 m f
Q Q
showpage
%%Trailer
end restore
%%EOF
