%!PS-Adobe-3.0 EPSF-3.0
%%Creator: cairo 1.14.2 (http://cairographics.org)
%%CreationDate: Wed May  9 09:18:00 2018
%%Pages: 1
%%DocumentData: Clean7Bit
%%LanguageLevel: 2
%%BoundingBox: 0 -1 383 383
%%EndComments
%%BeginProlog
save
50 dict begin
/q { gsave } bind def
/Q { grestore } bind def
/cm { 6 array astore concat } bind def
/w { setlinewidth } bind def
/J { setlinecap } bind def
/j { setlinejoin } bind def
/M { setmiterlimit } bind def
/d { setdash } bind def
/m { moveto } bind def
/l { lineto } bind def
/c { curveto } bind def
/h { closepath } bind def
/re { exch dup neg 3 1 roll 5 3 roll moveto 0 rlineto
      0 exch rlineto 0 rlineto closepath } bind def
/S { stroke } bind def
/f { fill } bind def
/f* { eofill } bind def
/n { newpath } bind def
/W { clip } bind def
/W* { eoclip } bind def
/BT { } bind def
/ET { } bind def
/pdfmark where { pop globaldict /?pdfmark /exec load put }
    { globaldict begin /?pdfmark /pop load def /pdfmark
    /cleartomark load def end } ifelse
/BDC { mark 3 1 roll /BDC pdfmark } bind def
/EMC { mark /EMC pdfmark } bind def
/cairo_store_point { /cairo_point_y exch def /cairo_point_x exch def } def
/Tj { show currentpoint cairo_store_point } bind def
/TJ {
  {
    dup
    type /stringtype eq
    { show } { -0.001 mul 0 cairo_font_matrix dtransform rmoveto } ifelse
  } forall
  currentpoint cairo_store_point
} bind def
/cairo_selectfont { cairo_font_matrix aload pop pop pop 0 0 6 array astore
    cairo_font exch selectfont cairo_point_x cairo_point_y moveto } bind def
/Tf { pop /cairo_font exch def /cairo_font_matrix where
      { pop cairo_selectfont } if } bind def
/Td { matrix translate cairo_font_matrix matrix concatmatrix dup
      /cairo_font_matrix exch def dup 4 get exch 5 get cairo_store_point
      /cairo_font where { pop cairo_selectfont } if } bind def
/Tm { 2 copy 8 2 roll 6 array astore /cairo_font_matrix exch def
      cairo_store_point /cairo_font where { pop cairo_selectfont } if } bind def
/g { setgray } bind def
/rg { setrgbcolor } bind def
/d1 { setcachedevice } bind def
%%EndProlog
%%BeginSetup
%%EndSetup
%%Page: 1 1
%%BeginPageSetup
%%PageBoundingBox: 0 -1 383 383
%%EndPageSetup
q 0 -1 383 384 rectclip q
0 g
191.145 382.296 m 145.902 382.296 109.227 345.62 109.227 300.378 c 109.227
 245.765 l 109.27 200.538 145.922 163.89 191.145 163.843 c 236.371 163.89
 273.023 200.538 273.066 245.765 c 273.066 300.378 l 273.066 345.62 236.391
 382.296 191.145 382.296 c h
245.762 245.765 m 245.762 215.601 221.309 191.148 191.145 191.148 c 160.984
 191.148 136.531 215.601 136.531 245.765 c 136.531 300.378 l 136.531 330.538
 160.984 354.991 191.145 354.991 c 221.309 354.991 245.762 330.538 245.762
 300.378 c h
245.762 245.765 m f
332.527 157.265 m 322.363 161.605 311.426 163.843 300.371 163.843 c 277.113
 163.827 254.965 153.894 239.48 136.538 c 136.535 136.538 l 135.066 136.534
 133.609 136.296 132.219 135.827 c 74.098 116.452 l 29.82 101.741 -0.043
 60.312 0 13.655 c 0 6.116 6.113 0.003 13.652 0.003 c 368.641 0.003 l 376.18
 0.003 382.293 6.116 382.293 13.655 c 382.215 25.984 379.98 38.198 375.699
 49.757 c 393.465 91.366 374.137 139.499 332.527 157.265 c h
28.453 27.312 m 33.473 56.808 54.348 81.132 82.738 90.566 c 138.746 109.23
 l 223.23 109.23 l 221.738 105.05 220.594 100.753 219.805 96.382 c 219.723
 95.878 219.668 95.37 219.574 94.866 c 218.859 90.589 218.484 86.261 218.453
 81.925 c 218.477 77.066 218.934 72.214 219.82 67.437 c 219.82 67.027 219.93
 66.62 219.996 66.222 c 220.879 61.804 222.133 57.464 223.738 53.253 c 223.941
 52.691 224.133 52.132 224.352 51.573 c 225.961 47.566 227.895 43.695 230.129
 39.995 c 231.18 38.261 l 233.449 34.679 235.992 31.28 238.781 28.089 c 
238.988 27.843 239.152 27.558 239.355 27.312 c h
348.926 57.429 m 348.844 57.292 348.719 57.183 348.637 57.034 c 345.348
 50.687 340.867 45.038 335.438 40.39 c 334.836 39.898 334.262 39.394 333.648
 38.929 c 332.18 37.761 330.656 36.675 329.074 35.667 c 327.312 34.57 325.488
 33.581 323.613 32.702 c 322.246 32.05 320.883 31.476 319.516 30.941 c 317.383
 30.124 315.199 29.445 312.977 28.909 c 312.008 28.675 311.035 28.456 310.055
 28.28 c 280.727 22.659 252.398 41.878 246.777 71.206 c 245.484 77.964 245.492
 84.905 246.797 91.659 c 247.086 93.187 247.523 94.675 247.945 96.179 c 
248.367 97.679 248.738 98.909 249.23 100.273 c 249.984 102.327 250.859 104.331
 251.852 106.28 c 252.098 106.784 252.383 107.277 252.656 107.769 c 253.934
 110.14 255.371 112.421 256.957 114.597 c 256.957 114.675 l 267.188 128.386
 283.27 136.484 300.375 136.534 c 330.535 136.534 354.988 112.085 354.988
 81.921 c 354.934 73.394 352.855 64.999 348.926 57.429 c h
348.926 57.429 m f
327.68 95.577 m 273.066 95.577 l 265.527 95.577 259.414 89.464 259.414 
81.925 c 259.414 74.382 265.527 68.269 273.066 68.269 c 327.68 68.269 l 
335.223 68.269 341.332 74.382 341.332 81.925 c 341.332 89.464 335.223 95.577
 327.68 95.577 c h
327.68 95.577 m f
Q Q
showpage
%%Trailer
end restore
%%EOF
