%!PS-Adobe-3.0 EPSF-3.0
%%Creator: cairo 1.14.2 (http://cairographics.org)
%%CreationDate: Wed May  9 09:18:00 2018
%%Pages: 1
%%DocumentData: Clean7Bit
%%LanguageLevel: 2
%%BoundingBox: 0 -1 383 383
%%EndComments
%%BeginProlog
save
50 dict begin
/q { gsave } bind def
/Q { grestore } bind def
/cm { 6 array astore concat } bind def
/w { setlinewidth } bind def
/J { setlinecap } bind def
/j { setlinejoin } bind def
/M { setmiterlimit } bind def
/d { setdash } bind def
/m { moveto } bind def
/l { lineto } bind def
/c { curveto } bind def
/h { closepath } bind def
/re { exch dup neg 3 1 roll 5 3 roll moveto 0 rlineto
      0 exch rlineto 0 rlineto closepath } bind def
/S { stroke } bind def
/f { fill } bind def
/f* { eofill } bind def
/n { newpath } bind def
/W { clip } bind def
/W* { eoclip } bind def
/BT { } bind def
/ET { } bind def
/pdfmark where { pop globaldict /?pdfmark /exec load put }
    { globaldict begin /?pdfmark /pop load def /pdfmark
    /cleartomark load def end } ifelse
/BDC { mark 3 1 roll /BDC pdfmark } bind def
/EMC { mark /EMC pdfmark } bind def
/cairo_store_point { /cairo_point_y exch def /cairo_point_x exch def } def
/Tj { show currentpoint cairo_store_point } bind def
/TJ {
  {
    dup
    type /stringtype eq
    { show } { -0.001 mul 0 cairo_font_matrix dtransform rmoveto } ifelse
  } forall
  currentpoint cairo_store_point
} bind def
/cairo_selectfont { cairo_font_matrix aload pop pop pop 0 0 6 array astore
    cairo_font exch selectfont cairo_point_x cairo_point_y moveto } bind def
/Tf { pop /cairo_font exch def /cairo_font_matrix where
      { pop cairo_selectfont } if } bind def
/Td { matrix translate cairo_font_matrix matrix concatmatrix dup
      /cairo_font_matrix exch def dup 4 get exch 5 get cairo_store_point
      /cairo_font where { pop cairo_selectfont } if } bind def
/Tm { 2 copy 8 2 roll 6 array astore /cairo_font_matrix exch def
      cairo_store_point /cairo_font where { pop cairo_selectfont } if } bind def
/g { setgray } bind def
/rg { setrgbcolor } bind def
/d1 { setcachedevice } bind def
%%EndProlog
%%BeginSetup
%%EndSetup
%%Page: 1 1
%%BeginPageSetup
%%PageBoundingBox: 0 -1 383 383
%%EndPageSetup
q 0 -1 383 384 rectclip q
0 g
368.641 286.719 m 300.375 286.719 l 300.375 368.641 l 300.375 376.18 294.262
 382.294 286.719 382.294 c 95.574 382.294 l 88.031 382.294 81.922 376.18
 81.922 368.641 c 81.922 286.719 l 13.652 286.719 l 6.113 286.719 0 280.606
 0 273.067 c 0 95.575 l 0 88.032 6.113 81.919 13.652 81.919 c 81.922 81.919
 l 81.922 13.653 l 81.922 6.114 88.031 0.001 95.574 0.001 c 286.719 0.001
 l 294.262 0.001 300.375 6.114 300.375 13.653 c 300.375 81.919 l 368.641
 81.919 l 376.18 81.919 382.293 88.032 382.293 95.575 c 382.293 273.067 
l 382.293 280.606 376.18 286.719 368.641 286.719 c h
109.227 354.989 m 273.066 354.989 l 273.066 286.719 l 109.227 286.719 l
 h
273.066 27.305 m 109.227 27.305 l 109.227 150.188 l 273.066 150.188 l h
354.988 109.227 m 300.371 109.227 l 300.371 150.188 l 314.027 150.188 l
 321.566 150.188 327.68 156.301 327.68 163.84 c 327.68 171.383 321.566 177.493
 314.027 177.493 c 68.266 177.493 l 60.727 177.493 54.613 171.38 54.613 
163.84 c 54.613 156.298 60.727 150.188 68.266 150.188 c 81.922 150.188 l
 81.922 109.227 l 27.305 109.227 l 27.305 259.415 l 354.988 259.415 l h
354.988 109.227 m f
327.68 232.106 m 314.027 232.106 l 306.484 232.106 300.371 225.993 300.371
 218.454 c 300.371 210.915 306.484 204.801 314.027 204.801 c 327.68 204.801
 l 335.223 204.801 341.332 210.915 341.332 218.454 c 341.332 225.993 335.223
 232.106 327.68 232.106 c h
327.68 232.106 m f
232.105 122.88 m 150.188 122.88 l 142.645 122.88 136.531 116.766 136.531
 109.227 c 136.531 101.684 142.645 95.571 150.188 95.571 c 232.105 95.571
 l 239.648 95.571 245.762 101.684 245.762 109.227 c 245.762 116.766 239.648
 122.88 232.105 122.88 c h
232.105 122.88 m f
232.105 81.919 m 150.188 81.919 l 142.645 81.919 136.531 75.805 136.531
 68.266 c 136.531 60.727 142.645 54.614 150.188 54.614 c 232.105 54.614 
l 239.648 54.614 245.762 60.727 245.762 68.266 c 245.762 75.805 239.648 
81.919 232.105 81.919 c h
232.105 81.919 m f
Q Q
showpage
%%Trailer
end restore
%%EOF
