%!PS-Adobe-3.0 EPSF-3.0
%%Creator: cairo 1.14.2 (http://cairographics.org)
%%CreationDate: Wed May  9 09:18:00 2018
%%Pages: 1
%%DocumentData: Clean7Bit
%%LanguageLevel: 2
%%BoundingBox: 0 -1 383 384
%%EndComments
%%BeginProlog
save
50 dict begin
/q { gsave } bind def
/Q { grestore } bind def
/cm { 6 array astore concat } bind def
/w { setlinewidth } bind def
/J { setlinecap } bind def
/j { setlinejoin } bind def
/M { setmiterlimit } bind def
/d { setdash } bind def
/m { moveto } bind def
/l { lineto } bind def
/c { curveto } bind def
/h { closepath } bind def
/re { exch dup neg 3 1 roll 5 3 roll moveto 0 rlineto
      0 exch rlineto 0 rlineto closepath } bind def
/S { stroke } bind def
/f { fill } bind def
/f* { eofill } bind def
/n { newpath } bind def
/W { clip } bind def
/W* { eoclip } bind def
/BT { } bind def
/ET { } bind def
/pdfmark where { pop globaldict /?pdfmark /exec load put }
    { globaldict begin /?pdfmark /pop load def /pdfmark
    /cleartomark load def end } ifelse
/BDC { mark 3 1 roll /BDC pdfmark } bind def
/EMC { mark /EMC pdfmark } bind def
/cairo_store_point { /cairo_point_y exch def /cairo_point_x exch def } def
/Tj { show currentpoint cairo_store_point } bind def
/TJ {
  {
    dup
    type /stringtype eq
    { show } { -0.001 mul 0 cairo_font_matrix dtransform rmoveto } ifelse
  } forall
  currentpoint cairo_store_point
} bind def
/cairo_selectfont { cairo_font_matrix aload pop pop pop 0 0 6 array astore
    cairo_font exch selectfont cairo_point_x cairo_point_y moveto } bind def
/Tf { pop /cairo_font exch def /cairo_font_matrix where
      { pop cairo_selectfont } if } bind def
/Td { matrix translate cairo_font_matrix matrix concatmatrix dup
      /cairo_font_matrix exch def dup 4 get exch 5 get cairo_store_point
      /cairo_font where { pop cairo_selectfont } if } bind def
/Tm { 2 copy 8 2 roll 6 array astore /cairo_font_matrix exch def
      cairo_store_point /cairo_font where { pop cairo_selectfont } if } bind def
/g { setgray } bind def
/rg { setrgbcolor } bind def
/d1 { setcachedevice } bind def
%%EndProlog
%%BeginSetup
%%EndSetup
%%Page: 1 1
%%BeginPageSetup
%%PageBoundingBox: 0 -1 383 384
%%EndPageSetup
q 0 -1 383 385 rectclip q
0 g
378.625 106.539 m 310.359 174.805 l 305.027 180.137 296.387 180.137 291.055
 174.805 c 246.094 129.871 l 130.219 246.391 l 175.273 291.446 l 180.602
 296.778 180.602 305.418 175.273 310.75 c 107.008 379.02 l 101.676 384.348
 93.031 384.348 87.699 379.02 c 32.324 323.625 l -10.25 280.946 -10.25 211.86
 32.324 169.18 c 168.855 31.938 l 211.543 -10.648 280.641 -10.648 323.328
 31.938 c 378.625 87.235 l 383.957 92.563 383.957 101.207 378.625 106.539
 c h
304.023 51.243 m 272.008 19.325 220.203 19.325 188.188 51.243 c 51.656 
188.473 l 19.719 220.489 19.719 272.317 51.656 304.336 c 97.27 349.965 l
 146.246 301.004 l 101.285 256.043 l 95.973 250.715 95.973 242.094 101.285
 236.766 c 236.453 100.914 l 239.008 98.356 242.473 96.907 246.094 96.887
 c 249.711 96.887 253.184 98.325 255.746 100.887 c 300.707 145.848 l 349.668
 96.887 l h
304.023 51.243 m f
Q Q
showpage
%%Trailer
end restore
%%EOF
