%!PS-Adobe-3.0 EPSF-3.0
%%Creator: cairo 1.14.2 (http://cairographics.org)
%%CreationDate: Wed May  9 09:18:00 2018
%%Pages: 1
%%DocumentData: Clean7Bit
%%LanguageLevel: 2
%%BoundingBox: 0 -1 383 383
%%EndComments
%%BeginProlog
save
50 dict begin
/q { gsave } bind def
/Q { grestore } bind def
/cm { 6 array astore concat } bind def
/w { setlinewidth } bind def
/J { setlinecap } bind def
/j { setlinejoin } bind def
/M { setmiterlimit } bind def
/d { setdash } bind def
/m { moveto } bind def
/l { lineto } bind def
/c { curveto } bind def
/h { closepath } bind def
/re { exch dup neg 3 1 roll 5 3 roll moveto 0 rlineto
      0 exch rlineto 0 rlineto closepath } bind def
/S { stroke } bind def
/f { fill } bind def
/f* { eofill } bind def
/n { newpath } bind def
/W { clip } bind def
/W* { eoclip } bind def
/BT { } bind def
/ET { } bind def
/pdfmark where { pop globaldict /?pdfmark /exec load put }
    { globaldict begin /?pdfmark /pop load def /pdfmark
    /cleartomark load def end } ifelse
/BDC { mark 3 1 roll /BDC pdfmark } bind def
/EMC { mark /EMC pdfmark } bind def
/cairo_store_point { /cairo_point_y exch def /cairo_point_x exch def } def
/Tj { show currentpoint cairo_store_point } bind def
/TJ {
  {
    dup
    type /stringtype eq
    { show } { -0.001 mul 0 cairo_font_matrix dtransform rmoveto } ifelse
  } forall
  currentpoint cairo_store_point
} bind def
/cairo_selectfont { cairo_font_matrix aload pop pop pop 0 0 6 array astore
    cairo_font exch selectfont cairo_point_x cairo_point_y moveto } bind def
/Tf { pop /cairo_font exch def /cairo_font_matrix where
      { pop cairo_selectfont } if } bind def
/Td { matrix translate cairo_font_matrix matrix concatmatrix dup
      /cairo_font_matrix exch def dup 4 get exch 5 get cairo_store_point
      /cairo_font where { pop cairo_selectfont } if } bind def
/Tm { 2 copy 8 2 roll 6 array astore /cairo_font_matrix exch def
      cairo_store_point /cairo_font where { pop cairo_selectfont } if } bind def
/g { setgray } bind def
/rg { setrgbcolor } bind def
/d1 { setcachedevice } bind def
%%EndProlog
%%BeginSetup
%%EndSetup
%%Page: 1 1
%%BeginPageSetup
%%PageBoundingBox: 0 -1 383 383
%%EndPageSetup
q 0 -1 383 384 rectclip q
0 g
378.293 310.025 m 310.023 378.294 l 304.691 383.622 296.051 383.622 290.719
 378.294 c 259.41 346.986 l 228.105 378.294 l 222.773 383.622 214.129 383.622
 208.797 378.294 c 113.227 282.72 l 107.801 277.482 107.652 268.837 112.891
 263.415 c 118.129 257.99 126.77 257.837 132.195 263.079 c 132.309 263.189
 132.422 263.298 132.531 263.415 c 218.453 349.333 l 240.105 327.681 l 17.652
 105.228 l 15.641 103.212 14.309 100.622 13.844 97.814 c 0.188 15.892 l 
-1.047 8.454 3.98 1.423 11.418 0.185 c 12.156 0.064 12.902 0.001 13.652 
0.001 c 14.406 0.001 15.16 0.068 15.902 0.193 c 97.824 13.845 l 100.629 
14.314 103.215 15.646 105.223 17.654 c 378.289 290.72 l 383.621 296.052 
383.621 304.693 378.293 310.025 c h
89.02 40.06 m 30.309 30.271 l 40.109 88.978 l 150.184 199.15 l 199.145 
150.189 l h
218.453 169.494 m 169.492 218.454 l 300.371 349.333 l 349.332 300.372 l
 h
218.453 169.494 m f
Q Q
showpage
%%Trailer
end restore
%%EOF
