%!PS-Adobe-3.0 EPSF-3.0
%%Creator: cairo 1.14.2 (http://cairographics.org)
%%CreationDate: Wed May  9 09:18:00 2018
%%Pages: 1
%%DocumentData: Clean7Bit
%%LanguageLevel: 2
%%BoundingBox: 0 8 378 369
%%EndComments
%%BeginProlog
save
50 dict begin
/q { gsave } bind def
/Q { grestore } bind def
/cm { 6 array astore concat } bind def
/w { setlinewidth } bind def
/J { setlinecap } bind def
/j { setlinejoin } bind def
/M { setmiterlimit } bind def
/d { setdash } bind def
/m { moveto } bind def
/l { lineto } bind def
/c { curveto } bind def
/h { closepath } bind def
/re { exch dup neg 3 1 roll 5 3 roll moveto 0 rlineto
      0 exch rlineto 0 rlineto closepath } bind def
/S { stroke } bind def
/f { fill } bind def
/f* { eofill } bind def
/n { newpath } bind def
/W { clip } bind def
/W* { eoclip } bind def
/BT { } bind def
/ET { } bind def
/pdfmark where { pop globaldict /?pdfmark /exec load put }
    { globaldict begin /?pdfmark /pop load def /pdfmark
    /cleartomark load def end } ifelse
/BDC { mark 3 1 roll /BDC pdfmark } bind def
/EMC { mark /EMC pdfmark } bind def
/cairo_store_point { /cairo_point_y exch def /cairo_point_x exch def } def
/Tj { show currentpoint cairo_store_point } bind def
/TJ {
  {
    dup
    type /stringtype eq
    { show } { -0.001 mul 0 cairo_font_matrix dtransform rmoveto } ifelse
  } forall
  currentpoint cairo_store_point
} bind def
/cairo_selectfont { cairo_font_matrix aload pop pop pop 0 0 6 array astore
    cairo_font exch selectfont cairo_point_x cairo_point_y moveto } bind def
/Tf { pop /cairo_font exch def /cairo_font_matrix where
      { pop cairo_selectfont } if } bind def
/Td { matrix translate cairo_font_matrix matrix concatmatrix dup
      /cairo_font_matrix exch def dup 4 get exch 5 get cairo_store_point
      /cairo_font where { pop cairo_selectfont } if } bind def
/Tm { 2 copy 8 2 roll 6 array astore /cairo_font_matrix exch def
      cairo_store_point /cairo_font where { pop cairo_selectfont } if } bind def
/g { setgray } bind def
/rg { setrgbcolor } bind def
/d1 { setcachedevice } bind def
%%EndProlog
%%BeginSetup
%%EndSetup
%%Page: 1 1
%%BeginPageSetup
%%PageBoundingBox: 0 8 378 369
%%EndPageSetup
q 0 8 378 361 rectclip q
0 g
345.332 337.782 m 303.98 378.246 237.867 378.239 196.527 337.762 c 23.129
 164.367 l -8.227 132.274 -7.625 80.84 24.469 49.485 c 56.031 18.649 106.441
 18.649 138.008 49.485 c 295.023 206.5 l 315.434 226.91 315.434 260.008 
295.023 280.418 c 274.609 300.832 241.516 300.832 221.102 280.418 c 70.914
 130.235 l 65.676 124.809 65.828 116.164 71.25 110.926 c 76.543 105.817 
84.93 105.817 90.223 110.926 c 240.406 261.114 l 250.367 270.653 266.176
 270.313 275.715 260.356 c 284.969 250.696 284.969 235.465 275.715 225.805
 c 118.703 68.793 l 97.492 47.883 63.344 48.129 42.434 69.34 c 21.738 90.336
 21.738 124.063 42.434 145.059 c 215.832 318.457 l 246.719 349.356 296.805
 349.364 327.699 318.477 c 358.598 287.594 358.605 237.508 327.723 206.61
 c 154.324 33.211 l 148.598 28.309 147.93 19.688 152.836 13.961 c 157.738
 8.235 166.359 7.567 172.086 12.473 c 172.621 12.93 173.117 13.426 173.574
 13.961 c 346.973 187.36 l 388.059 229.348 387.324 296.7 345.332 337.782
 c h
345.332 337.782 m f
Q Q
showpage
%%Trailer
end restore
%%EOF
