%!PS-Adobe-3.0 EPSF-3.0
%%Creator: cairo 1.14.2 (http://cairographics.org)
%%CreationDate: Wed May  9 09:18:00 2018
%%Pages: 1
%%DocumentData: Clean7Bit
%%LanguageLevel: 2
%%BoundingBox: 0 -1 383 383
%%EndComments
%%BeginProlog
save
50 dict begin
/q { gsave } bind def
/Q { grestore } bind def
/cm { 6 array astore concat } bind def
/w { setlinewidth } bind def
/J { setlinecap } bind def
/j { setlinejoin } bind def
/M { setmiterlimit } bind def
/d { setdash } bind def
/m { moveto } bind def
/l { lineto } bind def
/c { curveto } bind def
/h { closepath } bind def
/re { exch dup neg 3 1 roll 5 3 roll moveto 0 rlineto
      0 exch rlineto 0 rlineto closepath } bind def
/S { stroke } bind def
/f { fill } bind def
/f* { eofill } bind def
/n { newpath } bind def
/W { clip } bind def
/W* { eoclip } bind def
/BT { } bind def
/ET { } bind def
/pdfmark where { pop globaldict /?pdfmark /exec load put }
    { globaldict begin /?pdfmark /pop load def /pdfmark
    /cleartomark load def end } ifelse
/BDC { mark 3 1 roll /BDC pdfmark } bind def
/EMC { mark /EMC pdfmark } bind def
/cairo_store_point { /cairo_point_y exch def /cairo_point_x exch def } def
/Tj { show currentpoint cairo_store_point } bind def
/TJ {
  {
    dup
    type /stringtype eq
    { show } { -0.001 mul 0 cairo_font_matrix dtransform rmoveto } ifelse
  } forall
  currentpoint cairo_store_point
} bind def
/cairo_selectfont { cairo_font_matrix aload pop pop pop 0 0 6 array astore
    cairo_font exch selectfont cairo_point_x cairo_point_y moveto } bind def
/Tf { pop /cairo_font exch def /cairo_font_matrix where
      { pop cairo_selectfont } if } bind def
/Td { matrix translate cairo_font_matrix matrix concatmatrix dup
      /cairo_font_matrix exch def dup 4 get exch 5 get cairo_store_point
      /cairo_font where { pop cairo_selectfont } if } bind def
/Tm { 2 copy 8 2 roll 6 array astore /cairo_font_matrix exch def
      cairo_store_point /cairo_font where { pop cairo_selectfont } if } bind def
/g { setgray } bind def
/rg { setrgbcolor } bind def
/d1 { setcachedevice } bind def
%%EndProlog
%%BeginSetup
%%EndSetup
%%Page: 1 1
%%BeginPageSetup
%%PageBoundingBox: 0 -1 383 383
%%EndPageSetup
q 0 -1 383 384 rectclip q
0 g
368.641 286.719 m 300.375 286.719 l 300.375 368.641 l 300.375 376.18 294.262
 382.294 286.719 382.294 c 13.652 382.294 l 6.113 382.294 0 376.18 0 368.641
 c 0 54.614 l 0 24.45 24.453 0.001 54.613 0.001 c 327.68 0.001 l 357.844
 0.001 382.293 24.45 382.293 54.614 c 382.293 273.067 l 382.293 280.606 
376.18 286.719 368.641 286.719 c h
54.613 27.305 m 39.531 27.305 27.309 39.532 27.309 54.614 c 27.309 354.989
 l 273.066 354.989 l 273.066 54.614 l 273.102 51.321 273.434 48.04 274.062
 44.809 c 274.199 44.032 274.352 43.266 274.527 42.505 c 275.203 39.411 
276.145 36.383 277.34 33.45 c 277.34 33.313 277.477 33.192 277.531 33.067
 c 278.371 31.094 279.328 29.169 280.398 27.305 c h
354.988 54.614 m 354.988 39.532 342.762 27.305 327.68 27.305 c 312.598 
27.305 300.375 39.532 300.375 54.614 c 300.375 259.415 l 354.988 259.415
 l h
354.988 54.614 m f
191.145 314.028 m 109.227 314.028 l 101.688 314.028 95.574 307.915 95.574
 300.372 c 95.574 292.833 101.688 286.719 109.227 286.719 c 191.145 286.719
 l 198.688 286.719 204.801 292.833 204.801 300.372 c 204.801 307.915 198.688
 314.028 191.145 314.028 c h
191.145 314.028 m f
232.105 245.758 m 68.266 245.758 l 60.727 245.758 54.613 239.649 54.613
 232.106 c 54.613 224.567 60.727 218.454 68.266 218.454 c 232.105 218.454
 l 239.648 218.454 245.762 224.567 245.762 232.106 c 245.762 239.649 239.648
 245.758 232.105 245.758 c h
232.105 245.758 m f
232.105 191.149 m 68.266 191.149 l 60.727 191.149 54.613 185.036 54.613
 177.493 c 54.613 169.954 60.727 163.84 68.266 163.84 c 232.105 163.84 l
 239.648 163.84 245.762 169.954 245.762 177.493 c 245.762 185.036 239.648
 191.149 232.105 191.149 c h
232.105 191.149 m f
232.105 136.532 m 68.266 136.532 l 60.727 136.532 54.613 130.423 54.613
 122.88 c 54.613 115.34 60.727 109.227 68.266 109.227 c 232.105 109.227 
l 239.648 109.227 245.762 115.34 245.762 122.88 c 245.762 130.423 239.648
 136.532 232.105 136.532 c h
232.105 136.532 m f
232.105 81.919 m 68.266 81.919 l 60.727 81.919 54.613 75.805 54.613 68.266
 c 54.613 60.727 60.727 54.614 68.266 54.614 c 232.105 54.614 l 239.648 
54.614 245.762 60.727 245.762 68.266 c 245.762 75.809 239.648 81.919 232.105
 81.919 c h
232.105 81.919 m f
Q Q
showpage
%%Trailer
end restore
%%EOF
