%!PS-Adobe-3.0 EPSF-3.0
%%Creator: cairo 1.14.2 (http://cairographics.org)
%%CreationDate: Wed May  9 09:18:00 2018
%%Pages: 1
%%DocumentData: Clean7Bit
%%LanguageLevel: 2
%%BoundingBox: 0 13 383 370
%%EndComments
%%BeginProlog
save
50 dict begin
/q { gsave } bind def
/Q { grestore } bind def
/cm { 6 array astore concat } bind def
/w { setlinewidth } bind def
/J { setlinecap } bind def
/j { setlinejoin } bind def
/M { setmiterlimit } bind def
/d { setdash } bind def
/m { moveto } bind def
/l { lineto } bind def
/c { curveto } bind def
/h { closepath } bind def
/re { exch dup neg 3 1 roll 5 3 roll moveto 0 rlineto
      0 exch rlineto 0 rlineto closepath } bind def
/S { stroke } bind def
/f { fill } bind def
/f* { eofill } bind def
/n { newpath } bind def
/W { clip } bind def
/W* { eoclip } bind def
/BT { } bind def
/ET { } bind def
/pdfmark where { pop globaldict /?pdfmark /exec load put }
    { globaldict begin /?pdfmark /pop load def /pdfmark
    /cleartomark load def end } ifelse
/BDC { mark 3 1 roll /BDC pdfmark } bind def
/EMC { mark /EMC pdfmark } bind def
/cairo_store_point { /cairo_point_y exch def /cairo_point_x exch def } def
/Tj { show currentpoint cairo_store_point } bind def
/TJ {
  {
    dup
    type /stringtype eq
    { show } { -0.001 mul 0 cairo_font_matrix dtransform rmoveto } ifelse
  } forall
  currentpoint cairo_store_point
} bind def
/cairo_selectfont { cairo_font_matrix aload pop pop pop 0 0 6 array astore
    cairo_font exch selectfont cairo_point_x cairo_point_y moveto } bind def
/Tf { pop /cairo_font exch def /cairo_font_matrix where
      { pop cairo_selectfont } if } bind def
/Td { matrix translate cairo_font_matrix matrix concatmatrix dup
      /cairo_font_matrix exch def dup 4 get exch 5 get cairo_store_point
      /cairo_font where { pop cairo_selectfont } if } bind def
/Tm { 2 copy 8 2 roll 6 array astore /cairo_font_matrix exch def
      cairo_store_point /cairo_font where { pop cairo_selectfont } if } bind def
/g { setgray } bind def
/rg { setrgbcolor } bind def
/d1 { setcachedevice } bind def
%%EndProlog
%%BeginSetup
%%EndSetup
%%Page: 1 1
%%BeginPageSetup
%%PageBoundingBox: 0 13 383 370
%%EndPageSetup
q 0 13 383 357 rectclip q
0 g
204.812 368.706 m 106.945 368.706 27.32 295.21 27.32 204.866 c 27.516 167.999
 40.758 132.397 64.703 104.362 c 59.754 74.311 38.371 49.577 9.352 40.331
 c 2.195 37.952 -1.676 30.221 0.699 23.069 c 2.555 17.483 7.781 13.713 13.668
 13.717 c 58.07 12.151 101.598 26.342 136.547 53.776 c 158.312 45.323 181.465
 40.999 204.812 41.026 c 302.68 41.026 382.309 114.522 382.309 204.866 c
 382.309 295.21 302.68 368.706 204.812 368.706 c h
204.812 68.331 m 182.105 68.299 159.652 73.073 138.922 82.338 c 133.559
 84.729 127.27 83.42 123.305 79.088 c 108.031 63.956 88.918 53.284 68.02
 48.221 c 81.176 65.01 89.738 84.94 92.855 106.042 c 93.535 110.178 92.277
 114.397 89.441 117.483 c 67.289 141.213 54.859 172.401 54.625 204.866 c
 54.625 280.151 122.004 341.397 204.812 341.397 c 287.621 341.397 355 280.151
 355 204.866 c 355 129.581 287.621 68.331 204.812 68.331 c h
204.812 68.331 m f
Q Q
showpage
%%Trailer
end restore
%%EOF
