%!PS-Adobe-3.0 EPSF-3.0
%%Creator: cairo 1.14.2 (http://cairographics.org)
%%CreationDate: Wed May  9 09:18:00 2018
%%Pages: 1
%%DocumentData: Clean7Bit
%%LanguageLevel: 2
%%BoundingBox: 0 12 328 315
%%EndComments
%%BeginProlog
save
50 dict begin
/q { gsave } bind def
/Q { grestore } bind def
/cm { 6 array astore concat } bind def
/w { setlinewidth } bind def
/J { setlinecap } bind def
/j { setlinejoin } bind def
/M { setmiterlimit } bind def
/d { setdash } bind def
/m { moveto } bind def
/l { lineto } bind def
/c { curveto } bind def
/h { closepath } bind def
/re { exch dup neg 3 1 roll 5 3 roll moveto 0 rlineto
      0 exch rlineto 0 rlineto closepath } bind def
/S { stroke } bind def
/f { fill } bind def
/f* { eofill } bind def
/n { newpath } bind def
/W { clip } bind def
/W* { eoclip } bind def
/BT { } bind def
/ET { } bind def
/pdfmark where { pop globaldict /?pdfmark /exec load put }
    { globaldict begin /?pdfmark /pop load def /pdfmark
    /cleartomark load def end } ifelse
/BDC { mark 3 1 roll /BDC pdfmark } bind def
/EMC { mark /EMC pdfmark } bind def
/cairo_store_point { /cairo_point_y exch def /cairo_point_x exch def } def
/Tj { show currentpoint cairo_store_point } bind def
/TJ {
  {
    dup
    type /stringtype eq
    { show } { -0.001 mul 0 cairo_font_matrix dtransform rmoveto } ifelse
  } forall
  currentpoint cairo_store_point
} bind def
/cairo_selectfont { cairo_font_matrix aload pop pop pop 0 0 6 array astore
    cairo_font exch selectfont cairo_point_x cairo_point_y moveto } bind def
/Tf { pop /cairo_font exch def /cairo_font_matrix where
      { pop cairo_selectfont } if } bind def
/Td { matrix translate cairo_font_matrix matrix concatmatrix dup
      /cairo_font_matrix exch def dup 4 get exch 5 get cairo_store_point
      /cairo_font where { pop cairo_selectfont } if } bind def
/Tm { 2 copy 8 2 roll 6 array astore /cairo_font_matrix exch def
      cairo_store_point /cairo_font where { pop cairo_selectfont } if } bind def
/g { setgray } bind def
/rg { setrgbcolor } bind def
/d1 { setcachedevice } bind def
%%EndProlog
%%BeginSetup
%%EndSetup
%%Page: 1 1
%%BeginPageSetup
%%PageBoundingBox: 0 12 328 315
%%EndPageSetup
q 0 12 328 303 rectclip q
0 g
314.027 314.028 m 13.652 314.028 l 6.113 314.028 0 307.914 0 300.375 c 
0 292.832 6.113 286.719 13.652 286.719 c 314.027 286.719 l 321.566 286.719
 327.68 292.832 327.68 300.375 c 327.68 307.914 321.566 314.028 314.027 
314.028 c h
314.027 314.028 m f
314.027 177.492 m 13.652 177.492 l 6.113 177.492 0 171.379 0 163.84 c 0
 156.301 6.113 150.188 13.652 150.188 c 314.027 150.188 l 321.566 150.188
 327.68 156.301 327.68 163.84 c 327.68 171.379 321.566 177.492 314.027 177.492
 c h
314.027 177.492 m f
314.027 40.961 m 13.652 40.961 l 6.113 40.961 0 34.848 0 27.305 c 0 19.766
 6.113 13.653 13.652 13.653 c 314.027 13.653 l 321.566 13.653 327.68 19.766
 327.68 27.305 c 327.68 34.848 321.566 40.961 314.027 40.961 c h
314.027 40.961 m f
Q Q
showpage
%%Trailer
end restore
%%EOF
