%!PS-Adobe-3.0 EPSF-3.0
%%Creator: cairo 1.14.2 (http://cairographics.org)
%%CreationDate: Wed May  9 09:18:00 2018
%%Pages: 1
%%DocumentData: Clean7Bit
%%LanguageLevel: 2
%%BoundingBox: 0 26 383 356
%%EndComments
%%BeginProlog
save
50 dict begin
/q { gsave } bind def
/Q { grestore } bind def
/cm { 6 array astore concat } bind def
/w { setlinewidth } bind def
/J { setlinecap } bind def
/j { setlinejoin } bind def
/M { setmiterlimit } bind def
/d { setdash } bind def
/m { moveto } bind def
/l { lineto } bind def
/c { curveto } bind def
/h { closepath } bind def
/re { exch dup neg 3 1 roll 5 3 roll moveto 0 rlineto
      0 exch rlineto 0 rlineto closepath } bind def
/S { stroke } bind def
/f { fill } bind def
/f* { eofill } bind def
/n { newpath } bind def
/W { clip } bind def
/W* { eoclip } bind def
/BT { } bind def
/ET { } bind def
/pdfmark where { pop globaldict /?pdfmark /exec load put }
    { globaldict begin /?pdfmark /pop load def /pdfmark
    /cleartomark load def end } ifelse
/BDC { mark 3 1 roll /BDC pdfmark } bind def
/EMC { mark /EMC pdfmark } bind def
/cairo_store_point { /cairo_point_y exch def /cairo_point_x exch def } def
/Tj { show currentpoint cairo_store_point } bind def
/TJ {
  {
    dup
    type /stringtype eq
    { show } { -0.001 mul 0 cairo_font_matrix dtransform rmoveto } ifelse
  } forall
  currentpoint cairo_store_point
} bind def
/cairo_selectfont { cairo_font_matrix aload pop pop pop 0 0 6 array astore
    cairo_font exch selectfont cairo_point_x cairo_point_y moveto } bind def
/Tf { pop /cairo_font exch def /cairo_font_matrix where
      { pop cairo_selectfont } if } bind def
/Td { matrix translate cairo_font_matrix matrix concatmatrix dup
      /cairo_font_matrix exch def dup 4 get exch 5 get cairo_store_point
      /cairo_font where { pop cairo_selectfont } if } bind def
/Tm { 2 copy 8 2 roll 6 array astore /cairo_font_matrix exch def
      cairo_store_point /cairo_font where { pop cairo_selectfont } if } bind def
/g { setgray } bind def
/rg { setrgbcolor } bind def
/d1 { setcachedevice } bind def
%%EndProlog
%%BeginSetup
%%EndSetup
%%Page: 1 1
%%BeginPageSetup
%%PageBoundingBox: 0 26 383 356
%%EndPageSetup
q 0 26 383 330 rectclip q
0 g
342.016 246.105 m 328.363 246.105 l 328.363 341.675 l 328.359 349.218 322.246
 355.328 314.707 355.328 c 312.965 355.328 311.242 354.996 309.629 354.347
 c 107.957 273.41 l 40.961 273.41 l 18.34 273.41 0 255.07 0 232.449 c 0 
177.835 l 0 155.214 18.34 136.874 40.961 136.874 c 41.641 136.874 l 41.641
 41.304 l 41.641 33.761 47.754 27.648 55.297 27.648 c 109.91 27.648 l 117.449
 27.648 123.562 33.761 123.562 41.304 c 123.562 130.621 l 309.633 55.937
 l 311.242 55.285 312.969 54.949 314.711 54.956 c 322.25 54.956 328.363 
61.07 328.363 68.609 c 328.363 164.183 l 342.02 164.183 l 364.641 164.183
 382.977 182.523 382.977 205.144 c 382.977 227.765 364.637 246.105 342.016
 246.105 c h
96.258 54.956 m 68.949 54.956 l 68.949 136.874 l 96.258 136.874 l h
96.938 164.183 m 40.961 164.183 l 33.418 164.183 27.305 170.296 27.305 
177.835 c 27.305 232.449 l 27.305 239.992 33.418 246.105 40.961 246.105 
c 96.938 246.105 l h
301.055 88.804 m 124.246 159.8 l 124.246 250.527 l 301.055 321.484 l h
342.016 191.488 m 328.363 191.488 l 328.363 218.796 l 342.016 218.796 l
 349.559 218.796 355.668 212.683 355.668 205.144 c 355.668 197.601 349.559
 191.488 342.016 191.488 c h
342.016 191.488 m f
Q Q
showpage
%%Trailer
end restore
%%EOF
