%!PS-Adobe-3.0 EPSF-3.0
%%Creator: cairo 1.14.2 (http://cairographics.org)
%%CreationDate: Wed May  9 09:18:00 2018
%%Pages: 1
%%DocumentData: Clean7Bit
%%LanguageLevel: 2
%%BoundingBox: 0 -1 383 383
%%EndComments
%%BeginProlog
save
50 dict begin
/q { gsave } bind def
/Q { grestore } bind def
/cm { 6 array astore concat } bind def
/w { setlinewidth } bind def
/J { setlinecap } bind def
/j { setlinejoin } bind def
/M { setmiterlimit } bind def
/d { setdash } bind def
/m { moveto } bind def
/l { lineto } bind def
/c { curveto } bind def
/h { closepath } bind def
/re { exch dup neg 3 1 roll 5 3 roll moveto 0 rlineto
      0 exch rlineto 0 rlineto closepath } bind def
/S { stroke } bind def
/f { fill } bind def
/f* { eofill } bind def
/n { newpath } bind def
/W { clip } bind def
/W* { eoclip } bind def
/BT { } bind def
/ET { } bind def
/pdfmark where { pop globaldict /?pdfmark /exec load put }
    { globaldict begin /?pdfmark /pop load def /pdfmark
    /cleartomark load def end } ifelse
/BDC { mark 3 1 roll /BDC pdfmark } bind def
/EMC { mark /EMC pdfmark } bind def
/cairo_store_point { /cairo_point_y exch def /cairo_point_x exch def } def
/Tj { show currentpoint cairo_store_point } bind def
/TJ {
  {
    dup
    type /stringtype eq
    { show } { -0.001 mul 0 cairo_font_matrix dtransform rmoveto } ifelse
  } forall
  currentpoint cairo_store_point
} bind def
/cairo_selectfont { cairo_font_matrix aload pop pop pop 0 0 6 array astore
    cairo_font exch selectfont cairo_point_x cairo_point_y moveto } bind def
/Tf { pop /cairo_font exch def /cairo_font_matrix where
      { pop cairo_selectfont } if } bind def
/Td { matrix translate cairo_font_matrix matrix concatmatrix dup
      /cairo_font_matrix exch def dup 4 get exch 5 get cairo_store_point
      /cairo_font where { pop cairo_selectfont } if } bind def
/Tm { 2 copy 8 2 roll 6 array astore /cairo_font_matrix exch def
      cairo_store_point /cairo_font where { pop cairo_selectfont } if } bind def
/g { setgray } bind def
/rg { setrgbcolor } bind def
/d1 { setcachedevice } bind def
%%EndProlog
%%BeginSetup
%%EndSetup
%%Page: 1 1
%%BeginPageSetup
%%PageBoundingBox: 0 -1 383 383
%%EndPageSetup
q 0 -1 383 384 rectclip q
0 g
368.648 382.299 m 366.527 382.299 364.438 381.807 362.539 380.858 c 259.074
 329.112 l 142.078 381.12 l 141.891 381.202 141.672 381.213 141.465 381.295
 c 140.938 381.495 140.402 381.659 139.855 381.787 c 139.312 381.932 138.758
 382.049 138.203 382.127 c 137.094 382.221 135.98 382.221 134.871 382.127
 c 134.312 382.049 133.762 381.932 133.219 381.787 c 132.672 381.659 132.133
 381.495 131.609 381.295 c 131.402 381.213 131.184 381.202 130.992 381.12
 c 8.113 326.506 l 3.18 324.315 0.004 319.424 0.004 314.026 c 0.004 13.655
 l 0.004 9.034 2.344 4.729 6.215 2.209 c 10.09 -0.31 14.973 -0.701 19.199
 1.174 c 136.535 53.33 l 253.871 1.174 l 254.078 1.092 254.297 1.174 254.5
 1.049 c 257.805 -0.427 261.602 -0.341 264.836 1.284 c 265.055 1.377 265.301
 1.284 265.52 1.432 c 374.746 56.045 l 379.375 58.358 382.297 63.092 382.297
 68.268 c 382.297 368.639 l 382.301 376.178 376.191 382.295 368.648 382.299
 c h
122.883 77.139 m 27.309 34.666 l 27.309 305.151 l 122.883 347.627 l h
245.762 34.666 m 150.191 77.139 l 150.191 347.627 l 245.762 305.151 l h
354.988 76.705 m 273.07 35.745 l 273.07 305.588 l 354.988 346.549 l h
354.988 76.705 m f
Q Q
showpage
%%Trailer
end restore
%%EOF
