%!PS-Adobe-3.0 EPSF-3.0
%%Creator: cairo 1.14.2 (http://cairographics.org)
%%CreationDate: Wed May  9 09:18:00 2018
%%Pages: 1
%%DocumentData: Clean7Bit
%%LanguageLevel: 2
%%BoundingBox: 40 -1 342 383
%%EndComments
%%BeginProlog
save
50 dict begin
/q { gsave } bind def
/Q { grestore } bind def
/cm { 6 array astore concat } bind def
/w { setlinewidth } bind def
/J { setlinecap } bind def
/j { setlinejoin } bind def
/M { setmiterlimit } bind def
/d { setdash } bind def
/m { moveto } bind def
/l { lineto } bind def
/c { curveto } bind def
/h { closepath } bind def
/re { exch dup neg 3 1 roll 5 3 roll moveto 0 rlineto
      0 exch rlineto 0 rlineto closepath } bind def
/S { stroke } bind def
/f { fill } bind def
/f* { eofill } bind def
/n { newpath } bind def
/W { clip } bind def
/W* { eoclip } bind def
/BT { } bind def
/ET { } bind def
/pdfmark where { pop globaldict /?pdfmark /exec load put }
    { globaldict begin /?pdfmark /pop load def /pdfmark
    /cleartomark load def end } ifelse
/BDC { mark 3 1 roll /BDC pdfmark } bind def
/EMC { mark /EMC pdfmark } bind def
/cairo_store_point { /cairo_point_y exch def /cairo_point_x exch def } def
/Tj { show currentpoint cairo_store_point } bind def
/TJ {
  {
    dup
    type /stringtype eq
    { show } { -0.001 mul 0 cairo_font_matrix dtransform rmoveto } ifelse
  } forall
  currentpoint cairo_store_point
} bind def
/cairo_selectfont { cairo_font_matrix aload pop pop pop 0 0 6 array astore
    cairo_font exch selectfont cairo_point_x cairo_point_y moveto } bind def
/Tf { pop /cairo_font exch def /cairo_font_matrix where
      { pop cairo_selectfont } if } bind def
/Td { matrix translate cairo_font_matrix matrix concatmatrix dup
      /cairo_font_matrix exch def dup 4 get exch 5 get cairo_store_point
      /cairo_font where { pop cairo_selectfont } if } bind def
/Tm { 2 copy 8 2 roll 6 array astore /cairo_font_matrix exch def
      cairo_store_point /cairo_font where { pop cairo_selectfont } if } bind def
/g { setgray } bind def
/rg { setrgbcolor } bind def
/d1 { setcachedevice } bind def
%%EndProlog
%%BeginSetup
%%EndSetup
%%Page: 1 1
%%BeginPageSetup
%%PageBoundingBox: 40 -1 342 383
%%EndPageSetup
q 40 -1 302 384 rectclip q
0 g
327.68 245.758 m 314.027 245.758 l 314.027 259.415 l 313.953 327.247 258.98
 382.219 191.145 382.294 c 123.312 382.219 68.34 327.247 68.266 259.415 
c 68.266 245.758 l 54.613 245.758 l 47.074 245.758 40.961 239.649 40.961
 232.106 c 40.961 13.653 l 40.961 6.114 47.074 0.001 54.613 0.001 c 327.68
 0.001 l 335.223 0.001 341.332 6.114 341.332 13.653 c 341.332 232.106 l 
341.332 239.649 335.223 245.758 327.68 245.758 c h
95.574 259.415 m 95.574 312.196 138.363 354.989 191.148 354.989 c 243.93
 354.989 286.719 312.196 286.719 259.415 c 286.719 245.758 l 95.574 245.758
 l h
314.027 27.305 m 68.266 27.305 l 68.266 218.454 l 314.027 218.454 l h
314.027 27.305 m f
229.766 150.204 m 224 166.583 208.512 177.528 191.145 177.493 c 168.578
 177.536 150.246 159.274 150.203 136.708 c 150.172 119.34 161.117 103.856
 177.492 98.087 c 177.492 68.266 l 177.492 60.727 183.605 54.614 191.148
 54.614 c 198.688 54.614 204.801 60.727 204.801 68.266 c 204.801 98.087 
l 226.086 105.583 237.266 128.919 229.766 150.204 c h
191.145 122.88 m 183.605 122.88 177.492 128.993 177.492 136.532 c 177.492
 144.075 183.605 150.188 191.145 150.188 c 198.688 150.188 204.801 144.075
 204.801 136.532 c 204.801 128.993 198.688 122.88 191.145 122.88 c h
191.145 122.88 m f
Q Q
showpage
%%Trailer
end restore
%%EOF
