%!PS-Adobe-3.0 EPSF-3.0
%%Creator: cairo 1.14.2 (http://cairographics.org)
%%CreationDate: Wed May  9 09:18:00 2018
%%Pages: 1
%%DocumentData: Clean7Bit
%%LanguageLevel: 2
%%BoundingBox: 7 -1 360 367
%%EndComments
%%BeginProlog
save
50 dict begin
/q { gsave } bind def
/Q { grestore } bind def
/cm { 6 array astore concat } bind def
/w { setlinewidth } bind def
/J { setlinecap } bind def
/j { setlinejoin } bind def
/M { setmiterlimit } bind def
/d { setdash } bind def
/m { moveto } bind def
/l { lineto } bind def
/c { curveto } bind def
/h { closepath } bind def
/re { exch dup neg 3 1 roll 5 3 roll moveto 0 rlineto
      0 exch rlineto 0 rlineto closepath } bind def
/S { stroke } bind def
/f { fill } bind def
/f* { eofill } bind def
/n { newpath } bind def
/W { clip } bind def
/W* { eoclip } bind def
/BT { } bind def
/ET { } bind def
/pdfmark where { pop globaldict /?pdfmark /exec load put }
    { globaldict begin /?pdfmark /pop load def /pdfmark
    /cleartomark load def end } ifelse
/BDC { mark 3 1 roll /BDC pdfmark } bind def
/EMC { mark /EMC pdfmark } bind def
/cairo_store_point { /cairo_point_y exch def /cairo_point_x exch def } def
/Tj { show currentpoint cairo_store_point } bind def
/TJ {
  {
    dup
    type /stringtype eq
    { show } { -0.001 mul 0 cairo_font_matrix dtransform rmoveto } ifelse
  } forall
  currentpoint cairo_store_point
} bind def
/cairo_selectfont { cairo_font_matrix aload pop pop pop 0 0 6 array astore
    cairo_font exch selectfont cairo_point_x cairo_point_y moveto } bind def
/Tf { pop /cairo_font exch def /cairo_font_matrix where
      { pop cairo_selectfont } if } bind def
/Td { matrix translate cairo_font_matrix matrix concatmatrix dup
      /cairo_font_matrix exch def dup 4 get exch 5 get cairo_store_point
      /cairo_font where { pop cairo_selectfont } if } bind def
/Tm { 2 copy 8 2 roll 6 array astore /cairo_font_matrix exch def
      cairo_store_point /cairo_font where { pop cairo_selectfont } if } bind def
/g { setgray } bind def
/rg { setrgbcolor } bind def
/d1 { setcachedevice } bind def
%%EndProlog
%%BeginSetup
%%EndSetup
%%Page: 1 1
%%BeginPageSetup
%%PageBoundingBox: 7 -1 360 367
%%EndPageSetup
q 7 -1 353 368 rectclip q
0 g
356.59 205.033 m 355.457 212.486 348.492 217.611 341.039 216.478 c 333.586
 215.342 328.461 208.381 329.598 200.924 c 329.617 200.783 329.641 200.642
 329.668 200.502 c 343.57 118.65 288.492 41.029 206.641 27.127 c 124.793
 13.22 47.172 68.303 33.266 150.15 c 19.363 231.998 74.441 309.623 156.293
 323.525 c 206.625 332.076 257.859 314.494 292.34 276.838 c 231.855 256.67
 l 224.691 254.287 220.816 246.549 223.199 239.385 c 225.582 232.22 233.32
 228.345 240.484 230.728 c 322.402 258.037 l 327.996 259.9 331.762 265.138
 331.742 271.033 c 331.742 352.955 l 331.742 360.494 325.629 366.607 318.09
 366.607 c 310.547 366.607 304.434 360.494 304.434 352.955 c 304.434 303.08
 l 234.113 369.978 122.871 367.201 55.969 296.877 c -10.93 226.553 -8.152
 115.314 62.172 48.412 c 132.496 -18.487 243.734 -15.709 310.637 54.615 
c 348.789 94.717 365.816 150.455 356.59 205.033 c h
356.59 205.033 m f
249.82 175.463 m 236.168 175.463 l 236.168 205.623 211.719 230.076 181.555
 230.076 c 151.391 230.076 126.941 205.623 126.941 175.463 c 113.289 175.463
 l 105.746 175.463 99.633 169.349 99.633 161.806 c 99.633 79.888 l 99.633
 72.345 105.746 66.232 113.289 66.232 c 249.82 66.232 l 257.363 66.232 263.473
 72.345 263.473 79.888 c 263.473 161.806 l 263.477 169.349 257.363 175.463
 249.82 175.463 c h
181.555 202.767 m 196.637 202.767 208.863 190.541 208.863 175.463 c 154.246
 175.463 l 154.25 190.541 166.473 202.767 181.555 202.767 c h
236.168 93.541 m 126.941 93.541 l 126.941 148.154 l 236.168 148.154 l h
236.168 93.541 m f
Q Q
showpage
%%Trailer
end restore
%%EOF
