%!PS-Adobe-3.0 EPSF-3.0
%%Creator: cairo 1.14.2 (http://cairographics.org)
%%CreationDate: Wed May  9 09:18:00 2018
%%Pages: 1
%%DocumentData: Clean7Bit
%%LanguageLevel: 2
%%BoundingBox: 0 -1 246 246
%%EndComments
%%BeginProlog
save
50 dict begin
/q { gsave } bind def
/Q { grestore } bind def
/cm { 6 array astore concat } bind def
/w { setlinewidth } bind def
/J { setlinecap } bind def
/j { setlinejoin } bind def
/M { setmiterlimit } bind def
/d { setdash } bind def
/m { moveto } bind def
/l { lineto } bind def
/c { curveto } bind def
/h { closepath } bind def
/re { exch dup neg 3 1 roll 5 3 roll moveto 0 rlineto
      0 exch rlineto 0 rlineto closepath } bind def
/S { stroke } bind def
/f { fill } bind def
/f* { eofill } bind def
/n { newpath } bind def
/W { clip } bind def
/W* { eoclip } bind def
/BT { } bind def
/ET { } bind def
/pdfmark where { pop globaldict /?pdfmark /exec load put }
    { globaldict begin /?pdfmark /pop load def /pdfmark
    /cleartomark load def end } ifelse
/BDC { mark 3 1 roll /BDC pdfmark } bind def
/EMC { mark /EMC pdfmark } bind def
/cairo_store_point { /cairo_point_y exch def /cairo_point_x exch def } def
/Tj { show currentpoint cairo_store_point } bind def
/TJ {
  {
    dup
    type /stringtype eq
    { show } { -0.001 mul 0 cairo_font_matrix dtransform rmoveto } ifelse
  } forall
  currentpoint cairo_store_point
} bind def
/cairo_selectfont { cairo_font_matrix aload pop pop pop 0 0 6 array astore
    cairo_font exch selectfont cairo_point_x cairo_point_y moveto } bind def
/Tf { pop /cairo_font exch def /cairo_font_matrix where
      { pop cairo_selectfont } if } bind def
/Td { matrix translate cairo_font_matrix matrix concatmatrix dup
      /cairo_font_matrix exch def dup 4 get exch 5 get cairo_store_point
      /cairo_font where { pop cairo_selectfont } if } bind def
/Tm { 2 copy 8 2 roll 6 array astore /cairo_font_matrix exch def
      cairo_store_point /cairo_font where { pop cairo_selectfont } if } bind def
/g { setgray } bind def
/rg { setrgbcolor } bind def
/d1 { setcachedevice } bind def
%%EndProlog
%%BeginSetup
%%EndSetup
%%Page: 1 1
%%BeginPageSetup
%%PageBoundingBox: 0 -1 246 246
%%EndPageSetup
q 0 -1 246 247 rectclip q
0 g
122.879 177.494 m 92.719 177.494 68.266 153.041 68.266 122.881 c 68.266
 92.717 92.719 68.268 122.879 68.268 c 153.043 68.268 177.492 92.717 177.492
 122.881 c 177.492 153.041 153.043 177.494 122.879 177.494 c h
122.879 95.572 m 107.801 95.572 95.574 107.799 95.574 122.881 c 95.574 
137.959 107.801 150.186 122.879 150.186 c 137.961 150.186 150.188 137.959
 150.188 122.881 c 150.188 107.799 137.961 95.572 122.879 95.572 c h
122.879 95.572 m f
122.879 245.76 m 115.34 245.76 109.227 239.647 109.227 232.108 c 109.227
 218.451 l 109.227 210.912 115.34 204.799 122.879 204.799 c 130.422 204.799
 136.535 210.912 136.535 218.451 c 136.535 232.108 l 136.535 239.647 130.422
 245.76 122.879 245.76 c h
122.879 245.76 m f
122.879 40.959 m 115.34 40.959 109.227 34.846 109.227 27.307 c 109.227 
13.655 l 109.227 6.112 115.34 -0.002 122.879 -0.002 c 130.422 -0.002 136.535
 6.112 136.535 13.655 c 136.535 27.307 l 136.535 34.846 130.422 40.959 122.879
 40.959 c h
122.879 40.959 m f
232.105 136.533 m 218.453 136.533 l 210.91 136.533 204.801 130.42 204.801
 122.881 c 204.801 115.338 210.91 109.225 218.453 109.225 c 232.105 109.225
 l 239.648 109.225 245.762 115.338 245.762 122.881 c 245.762 130.42 239.648
 136.533 232.105 136.533 c h
232.105 136.533 m f
27.305 136.533 m 13.652 136.533 l 6.113 136.533 0 130.42 0 122.881 c 0 
115.338 6.113 109.225 13.652 109.225 c 27.309 109.225 l 34.848 109.225 40.961
 115.338 40.961 122.881 c 40.961 130.42 34.848 136.533 27.305 136.533 c 
h
27.305 136.533 m f
209.434 209.768 m 204.145 214.881 195.754 214.881 190.465 209.768 c 180.812
 200.115 l 175.387 194.877 175.238 186.233 180.477 180.811 c 185.715 175.389
 194.359 175.237 199.781 180.475 c 199.895 180.584 200.008 180.697 200.117
 180.811 c 209.77 190.463 l 215.008 195.889 214.859 204.53 209.434 209.768
 c h
209.434 209.768 m f
65.285 64.947 m 60.047 70.373 51.402 70.522 45.98 65.283 c 45.867 65.174
 45.754 65.061 45.645 64.947 c 35.992 55.295 l 30.566 50.057 30.414 41.416
 35.656 35.99 c 40.895 30.565 49.539 30.416 54.961 35.655 c 55.074 35.764
 55.188 35.877 55.297 35.99 c 64.949 45.643 l 70.371 50.881 70.523 59.526
 65.285 64.947 c h
65.285 64.947 m f
209.77 55.295 m 200.117 64.947 l 194.785 70.28 186.141 70.28 180.812 64.947
 c 175.48 59.615 175.48 50.975 180.812 45.643 c 190.465 35.99 l 195.887 
30.752 204.531 30.901 209.77 36.326 c 214.879 41.615 214.879 50.006 209.77
 55.295 c h
209.77 55.295 m f
65.285 199.783 m 65.176 199.897 65.062 200.006 64.949 200.115 c 55.297 
209.768 l 49.871 215.006 41.23 214.858 35.992 209.436 c 30.879 204.143 30.879
 195.756 35.992 190.463 c 45.645 180.811 l 50.883 175.389 59.527 175.237
 64.949 180.475 c 70.371 185.713 70.523 194.358 65.285 199.783 c h
65.285 199.783 m f
Q Q
showpage
%%Trailer
end restore
%%EOF
