%!PS-Adobe-3.0 EPSF-3.0
%%Creator: cairo 1.14.2 (http://cairographics.org)
%%CreationDate: Wed May  9 09:18:00 2018
%%Pages: 1
%%DocumentData: Clean7Bit
%%LanguageLevel: 2
%%BoundingBox: 0 -1 383 383
%%EndComments
%%BeginProlog
save
50 dict begin
/q { gsave } bind def
/Q { grestore } bind def
/cm { 6 array astore concat } bind def
/w { setlinewidth } bind def
/J { setlinecap } bind def
/j { setlinejoin } bind def
/M { setmiterlimit } bind def
/d { setdash } bind def
/m { moveto } bind def
/l { lineto } bind def
/c { curveto } bind def
/h { closepath } bind def
/re { exch dup neg 3 1 roll 5 3 roll moveto 0 rlineto
      0 exch rlineto 0 rlineto closepath } bind def
/S { stroke } bind def
/f { fill } bind def
/f* { eofill } bind def
/n { newpath } bind def
/W { clip } bind def
/W* { eoclip } bind def
/BT { } bind def
/ET { } bind def
/pdfmark where { pop globaldict /?pdfmark /exec load put }
    { globaldict begin /?pdfmark /pop load def /pdfmark
    /cleartomark load def end } ifelse
/BDC { mark 3 1 roll /BDC pdfmark } bind def
/EMC { mark /EMC pdfmark } bind def
/cairo_store_point { /cairo_point_y exch def /cairo_point_x exch def } def
/Tj { show currentpoint cairo_store_point } bind def
/TJ {
  {
    dup
    type /stringtype eq
    { show } { -0.001 mul 0 cairo_font_matrix dtransform rmoveto } ifelse
  } forall
  currentpoint cairo_store_point
} bind def
/cairo_selectfont { cairo_font_matrix aload pop pop pop 0 0 6 array astore
    cairo_font exch selectfont cairo_point_x cairo_point_y moveto } bind def
/Tf { pop /cairo_font exch def /cairo_font_matrix where
      { pop cairo_selectfont } if } bind def
/Td { matrix translate cairo_font_matrix matrix concatmatrix dup
      /cairo_font_matrix exch def dup 4 get exch 5 get cairo_store_point
      /cairo_font where { pop cairo_selectfont } if } bind def
/Tm { 2 copy 8 2 roll 6 array astore /cairo_font_matrix exch def
      cairo_store_point /cairo_font where { pop cairo_selectfont } if } bind def
/g { setgray } bind def
/rg { setrgbcolor } bind def
/d1 { setcachedevice } bind def
%%EndProlog
%%BeginSetup
%%EndSetup
%%Page: 1 1
%%BeginPageSetup
%%PageBoundingBox: 0 -1 383 383
%%EndPageSetup
q 0 -1 383 384 rectclip q
0 g
191.145 245.758 m 160.984 245.758 136.531 221.309 136.531 191.145 c 136.531
 160.985 160.984 136.532 191.145 136.532 c 221.309 136.532 245.762 160.985
 245.762 191.145 c 245.762 221.309 221.309 245.758 191.145 245.758 c h
191.145 163.84 m 176.066 163.84 163.84 176.067 163.84 191.145 c 163.84 
206.227 176.066 218.454 191.145 218.454 c 206.227 218.454 218.453 206.227
 218.453 191.145 c 218.453 176.067 206.227 163.84 191.145 163.84 c h
191.145 163.84 m f
191.145 382.294 m 183.605 382.294 177.492 376.18 177.492 368.641 c 177.492
 286.719 l 177.492 279.18 183.605 273.067 191.145 273.067 c 198.688 273.067
 204.801 279.18 204.801 286.719 c 204.801 368.641 l 204.801 376.18 198.688
 382.294 191.145 382.294 c h
191.145 382.294 m f
191.145 109.227 m 183.605 109.227 177.492 103.114 177.492 95.575 c 177.492
 13.653 l 177.492 6.114 183.605 0.001 191.145 0.001 c 198.688 0.001 204.801
 6.114 204.801 13.653 c 204.801 95.575 l 204.801 103.114 198.688 109.227
 191.145 109.227 c h
191.145 109.227 m f
368.641 204.801 m 286.719 204.801 l 279.18 204.801 273.066 198.688 273.066
 191.145 c 273.066 183.606 279.18 177.493 286.719 177.493 c 368.641 177.493
 l 376.18 177.493 382.293 183.606 382.293 191.149 c 382.293 198.688 376.18
 204.801 368.641 204.801 c h
368.641 204.801 m f
95.574 204.801 m 13.652 204.801 l 6.113 204.801 0 198.688 0 191.149 c 0
 183.606 6.113 177.493 13.652 177.493 c 95.574 177.493 l 103.113 177.493
 109.227 183.606 109.227 191.149 c 109.227 198.688 103.113 204.801 95.574
 204.801 c h
95.574 204.801 m f
326.324 326.305 m 326.316 326.313 l 320.984 331.645 312.34 331.645 307.008
 326.313 c 249.078 268.383 l 243.656 263.145 243.504 254.501 248.742 249.079
 c 253.98 243.653 262.625 243.505 268.047 248.743 c 268.16 248.852 268.273
 248.965 268.383 249.079 c 326.316 306.997 l 331.648 312.325 331.656 320.969
 326.324 326.305 c h
326.324 326.305 m f
133.551 133.204 m 128.312 138.626 119.668 138.778 114.246 133.54 c 114.133
 133.43 114.02 133.317 113.91 133.204 c 113.91 133.215 l 55.977 75.298 l
 50.645 69.962 50.645 61.313 55.977 55.981 c 61.312 50.645 69.965 50.645
 75.297 55.981 c 133.215 113.895 l 138.641 119.133 138.789 127.778 133.551
 133.204 c h
133.551 133.204 m f
326.312 75.298 m 268.398 133.215 l 263.066 138.551 254.422 138.555 249.09
 133.227 c 249.078 133.215 l 243.746 127.883 243.746 119.243 249.078 113.911
 c 306.996 55.981 l 312.332 50.645 320.98 50.645 326.312 55.981 c 331.648
 61.313 331.648 69.962 326.312 75.298 c h
326.312 75.298 m f
133.539 268.048 m 133.43 268.161 133.316 268.274 133.203 268.383 c 75.297
 326.313 l 69.965 331.649 61.312 331.649 55.98 326.313 c 50.645 320.981 
50.645 312.329 55.98 306.997 c 113.898 249.079 l 119.137 243.653 127.777
 243.505 133.203 248.743 c 138.625 253.981 138.777 262.626 133.539 268.048
 c h
133.539 268.048 m f
Q Q
showpage
%%Trailer
end restore
%%EOF
