%!PS-Adobe-3.0 EPSF-3.0
%%Creator: cairo 1.14.2 (http://cairographics.org)
%%CreationDate: Wed May  9 09:18:00 2018
%%Pages: 1
%%DocumentData: Clean7Bit
%%LanguageLevel: 2
%%BoundingBox: 0 108 383 274
%%EndComments
%%BeginProlog
save
50 dict begin
/q { gsave } bind def
/Q { grestore } bind def
/cm { 6 array astore concat } bind def
/w { setlinewidth } bind def
/J { setlinecap } bind def
/j { setlinejoin } bind def
/M { setmiterlimit } bind def
/d { setdash } bind def
/m { moveto } bind def
/l { lineto } bind def
/c { curveto } bind def
/h { closepath } bind def
/re { exch dup neg 3 1 roll 5 3 roll moveto 0 rlineto
      0 exch rlineto 0 rlineto closepath } bind def
/S { stroke } bind def
/f { fill } bind def
/f* { eofill } bind def
/n { newpath } bind def
/W { clip } bind def
/W* { eoclip } bind def
/BT { } bind def
/ET { } bind def
/pdfmark where { pop globaldict /?pdfmark /exec load put }
    { globaldict begin /?pdfmark /pop load def /pdfmark
    /cleartomark load def end } ifelse
/BDC { mark 3 1 roll /BDC pdfmark } bind def
/EMC { mark /EMC pdfmark } bind def
/cairo_store_point { /cairo_point_y exch def /cairo_point_x exch def } def
/Tj { show currentpoint cairo_store_point } bind def
/TJ {
  {
    dup
    type /stringtype eq
    { show } { -0.001 mul 0 cairo_font_matrix dtransform rmoveto } ifelse
  } forall
  currentpoint cairo_store_point
} bind def
/cairo_selectfont { cairo_font_matrix aload pop pop pop 0 0 6 array astore
    cairo_font exch selectfont cairo_point_x cairo_point_y moveto } bind def
/Tf { pop /cairo_font exch def /cairo_font_matrix where
      { pop cairo_selectfont } if } bind def
/Td { matrix translate cairo_font_matrix matrix concatmatrix dup
      /cairo_font_matrix exch def dup 4 get exch 5 get cairo_store_point
      /cairo_font where { pop cairo_selectfont } if } bind def
/Tm { 2 copy 8 2 roll 6 array astore /cairo_font_matrix exch def
      cairo_store_point /cairo_font where { pop cairo_selectfont } if } bind def
/g { setgray } bind def
/rg { setrgbcolor } bind def
/d1 { setcachedevice } bind def
%%EndProlog
%%BeginSetup
%%EndSetup
%%Page: 1 1
%%BeginPageSetup
%%PageBoundingBox: 0 108 383 274
%%EndPageSetup
q 0 108 383 166 rectclip q
0 g
368.734 259.46 m 361.195 259.46 355.082 253.351 355.082 245.808 c 355.082
 204.847 l 314.121 204.847 l 314.121 245.808 l 314.121 253.351 308.008 259.46
 300.469 259.46 c 292.93 259.46 286.816 253.351 286.816 245.808 c 286.816
 204.847 l 162.707 204.847 l 155.168 249.46 112.891 279.511 68.281 271.968
 c 23.668 264.429 -6.383 222.151 1.16 177.542 c 8.699 132.933 50.977 102.882
 95.586 110.421 c 129.965 116.233 156.895 143.163 162.707 177.542 c 368.734
 177.542 l 376.277 177.542 382.391 183.655 382.391 191.194 c 382.391 245.808
 l 382.391 253.351 376.277 259.46 368.734 259.46 c h
82.016 136.581 m 51.855 136.581 27.402 161.034 27.402 191.194 c 27.402 
221.358 51.855 245.808 82.016 245.808 c 112.18 245.808 136.629 221.358 136.629
 191.194 c 136.629 161.034 112.18 136.581 82.016 136.581 c h
82.016 136.581 m f
Q Q
showpage
%%Trailer
end restore
%%EOF
