%!PS-Adobe-3.0 EPSF-3.0
%%Creator: cairo 1.14.2 (http://cairographics.org)
%%CreationDate: Wed May  9 09:18:00 2018
%%Pages: 1
%%DocumentData: Clean7Bit
%%LanguageLevel: 2
%%BoundingBox: 0 -1 383 383
%%EndComments
%%BeginProlog
save
50 dict begin
/q { gsave } bind def
/Q { grestore } bind def
/cm { 6 array astore concat } bind def
/w { setlinewidth } bind def
/J { setlinecap } bind def
/j { setlinejoin } bind def
/M { setmiterlimit } bind def
/d { setdash } bind def
/m { moveto } bind def
/l { lineto } bind def
/c { curveto } bind def
/h { closepath } bind def
/re { exch dup neg 3 1 roll 5 3 roll moveto 0 rlineto
      0 exch rlineto 0 rlineto closepath } bind def
/S { stroke } bind def
/f { fill } bind def
/f* { eofill } bind def
/n { newpath } bind def
/W { clip } bind def
/W* { eoclip } bind def
/BT { } bind def
/ET { } bind def
/pdfmark where { pop globaldict /?pdfmark /exec load put }
    { globaldict begin /?pdfmark /pop load def /pdfmark
    /cleartomark load def end } ifelse
/BDC { mark 3 1 roll /BDC pdfmark } bind def
/EMC { mark /EMC pdfmark } bind def
/cairo_store_point { /cairo_point_y exch def /cairo_point_x exch def } def
/Tj { show currentpoint cairo_store_point } bind def
/TJ {
  {
    dup
    type /stringtype eq
    { show } { -0.001 mul 0 cairo_font_matrix dtransform rmoveto } ifelse
  } forall
  currentpoint cairo_store_point
} bind def
/cairo_selectfont { cairo_font_matrix aload pop pop pop 0 0 6 array astore
    cairo_font exch selectfont cairo_point_x cairo_point_y moveto } bind def
/Tf { pop /cairo_font exch def /cairo_font_matrix where
      { pop cairo_selectfont } if } bind def
/Td { matrix translate cairo_font_matrix matrix concatmatrix dup
      /cairo_font_matrix exch def dup 4 get exch 5 get cairo_store_point
      /cairo_font where { pop cairo_selectfont } if } bind def
/Tm { 2 copy 8 2 roll 6 array astore /cairo_font_matrix exch def
      cairo_store_point /cairo_font where { pop cairo_selectfont } if } bind def
/g { setgray } bind def
/rg { setrgbcolor } bind def
/d1 { setcachedevice } bind def
%%EndProlog
%%BeginSetup
%%EndSetup
%%Page: 1 1
%%BeginPageSetup
%%PageBoundingBox: 0 -1 383 383
%%EndPageSetup
q 0 -1 383 384 rectclip q
0 g
191.145 382.294 m 85.578 382.294 0 296.715 0 191.149 c 0 85.579 85.578 
0.001 191.145 0.001 c 296.715 0.001 382.293 85.579 382.293 191.149 c 382.18
 296.669 296.668 382.18 191.145 382.294 c h
191.145 27.305 m 100.66 27.305 27.305 100.661 27.305 191.149 c 27.305 281.633
 100.66 354.989 191.145 354.989 c 281.633 354.989 354.988 281.633 354.988
 191.149 c 354.891 100.7 281.594 27.403 191.145 27.305 c h
191.145 27.305 m f
218.453 204.801 m 136.535 204.801 l 128.992 204.801 122.879 198.688 122.879
 191.145 c 122.879 183.606 128.992 177.493 136.535 177.493 c 150.188 177.493
 l 150.188 81.919 l 150.188 74.38 156.301 68.266 163.84 68.266 c 218.453
 68.266 l 225.996 68.266 232.109 74.38 232.109 81.919 c 232.109 191.149 
l 232.105 198.688 225.992 204.801 218.453 204.801 c h
204.801 95.575 m 177.492 95.575 l 177.492 177.493 l 204.801 177.493 l h
204.801 95.575 m f
191.145 314.028 m 168.523 314.028 150.188 295.688 150.188 273.067 c 150.188
 250.446 168.523 232.106 191.145 232.106 c 213.77 232.106 232.105 250.446
 232.105 273.067 c 232.105 295.688 213.77 314.028 191.145 314.028 c h
191.145 259.415 m 183.605 259.415 177.492 265.528 177.492 273.067 c 177.492
 280.606 183.605 286.719 191.145 286.719 c 198.688 286.719 204.801 280.606
 204.801 273.067 c 204.801 265.528 198.688 259.415 191.145 259.415 c h
191.145 259.415 m f
Q Q
showpage
%%Trailer
end restore
%%EOF
