%!PS-Adobe-3.0 EPSF-3.0
%%Creator: cairo 1.14.2 (http://cairographics.org)
%%CreationDate: Wed May  9 09:18:00 2018
%%Pages: 1
%%DocumentData: Clean7Bit
%%LanguageLevel: 2
%%BoundingBox: 0 -1 383 383
%%EndComments
%%BeginProlog
save
50 dict begin
/q { gsave } bind def
/Q { grestore } bind def
/cm { 6 array astore concat } bind def
/w { setlinewidth } bind def
/J { setlinecap } bind def
/j { setlinejoin } bind def
/M { setmiterlimit } bind def
/d { setdash } bind def
/m { moveto } bind def
/l { lineto } bind def
/c { curveto } bind def
/h { closepath } bind def
/re { exch dup neg 3 1 roll 5 3 roll moveto 0 rlineto
      0 exch rlineto 0 rlineto closepath } bind def
/S { stroke } bind def
/f { fill } bind def
/f* { eofill } bind def
/n { newpath } bind def
/W { clip } bind def
/W* { eoclip } bind def
/BT { } bind def
/ET { } bind def
/pdfmark where { pop globaldict /?pdfmark /exec load put }
    { globaldict begin /?pdfmark /pop load def /pdfmark
    /cleartomark load def end } ifelse
/BDC { mark 3 1 roll /BDC pdfmark } bind def
/EMC { mark /EMC pdfmark } bind def
/cairo_store_point { /cairo_point_y exch def /cairo_point_x exch def } def
/Tj { show currentpoint cairo_store_point } bind def
/TJ {
  {
    dup
    type /stringtype eq
    { show } { -0.001 mul 0 cairo_font_matrix dtransform rmoveto } ifelse
  } forall
  currentpoint cairo_store_point
} bind def
/cairo_selectfont { cairo_font_matrix aload pop pop pop 0 0 6 array astore
    cairo_font exch selectfont cairo_point_x cairo_point_y moveto } bind def
/Tf { pop /cairo_font exch def /cairo_font_matrix where
      { pop cairo_selectfont } if } bind def
/Td { matrix translate cairo_font_matrix matrix concatmatrix dup
      /cairo_font_matrix exch def dup 4 get exch 5 get cairo_store_point
      /cairo_font where { pop cairo_selectfont } if } bind def
/Tm { 2 copy 8 2 roll 6 array astore /cairo_font_matrix exch def
      cairo_store_point /cairo_font where { pop cairo_selectfont } if } bind def
/g { setgray } bind def
/rg { setrgbcolor } bind def
/d1 { setcachedevice } bind def
%%EndProlog
%%BeginSetup
%%EndSetup
%%Page: 1 1
%%BeginPageSetup
%%PageBoundingBox: 0 -1 383 383
%%EndPageSetup
q 0 -1 383 384 rectclip q
0 g
341.332 382.294 m 40.961 382.294 l 18.34 382.294 0 363.954 0 341.333 c 
0 122.88 l 0 100.258 18.34 81.919 40.961 81.919 c 89.43 81.919 l 82.004 
15.153 l 81.176 7.657 86.578 0.911 94.074 0.083 c 97.945 -0.343 101.812 
0.903 104.707 3.508 c 191.844 81.919 l 341.332 81.919 l 363.957 81.919 382.293
 100.258 382.293 122.88 c 382.293 341.333 l 382.293 363.954 363.957 382.294
 341.332 382.294 c h
354.988 122.88 m 354.988 115.337 348.875 109.223 341.332 109.223 c 186.602
 109.223 l 183.227 109.223 179.973 107.973 177.465 105.715 c 113.105 47.786
 l 118.25 94.055 l 119.09 101.551 113.691 108.301 106.199 109.141 c 105.695
 109.196 105.188 109.227 104.68 109.223 c 40.961 109.223 l 33.418 109.223
 27.305 115.337 27.305 122.88 c 27.305 341.333 l 27.305 348.872 33.418 354.985
 40.961 354.985 c 341.332 354.985 l 348.875 354.985 354.988 348.872 354.988
 341.333 c h
354.988 122.88 m f
314.027 314.024 m 68.266 314.024 l 60.727 314.024 54.613 307.915 54.613
 300.372 c 54.613 292.833 60.727 286.719 68.266 286.719 c 314.027 286.719
 l 321.566 286.719 327.68 292.833 327.68 300.372 c 327.68 307.915 321.566
 314.024 314.027 314.024 c h
314.027 314.024 m f
314.027 245.758 m 68.266 245.758 l 60.727 245.758 54.613 239.645 54.613
 232.106 c 54.613 224.563 60.727 218.45 68.266 218.45 c 314.027 218.45 l
 321.566 218.45 327.68 224.563 327.68 232.106 c 327.68 239.645 321.566 245.758
 314.027 245.758 c h
314.027 245.758 m f
314.027 177.493 m 68.266 177.493 l 60.727 177.493 54.613 171.38 54.613 
163.837 c 54.613 156.298 60.727 150.184 68.266 150.184 c 314.027 150.184
 l 321.566 150.184 327.68 156.298 327.68 163.837 c 327.68 171.38 321.566
 177.493 314.027 177.493 c h
314.027 177.493 m f
Q Q
showpage
%%Trailer
end restore
%%EOF
