%!PS-Adobe-3.0 EPSF-3.0
%%Creator: cairo 1.14.2 (http://cairographics.org)
%%CreationDate: Wed May  9 09:18:00 2018
%%Pages: 1
%%DocumentData: Clean7Bit
%%LanguageLevel: 2
%%BoundingBox: 40 -1 342 383
%%EndComments
%%BeginProlog
save
50 dict begin
/q { gsave } bind def
/Q { grestore } bind def
/cm { 6 array astore concat } bind def
/w { setlinewidth } bind def
/J { setlinecap } bind def
/j { setlinejoin } bind def
/M { setmiterlimit } bind def
/d { setdash } bind def
/m { moveto } bind def
/l { lineto } bind def
/c { curveto } bind def
/h { closepath } bind def
/re { exch dup neg 3 1 roll 5 3 roll moveto 0 rlineto
      0 exch rlineto 0 rlineto closepath } bind def
/S { stroke } bind def
/f { fill } bind def
/f* { eofill } bind def
/n { newpath } bind def
/W { clip } bind def
/W* { eoclip } bind def
/BT { } bind def
/ET { } bind def
/pdfmark where { pop globaldict /?pdfmark /exec load put }
    { globaldict begin /?pdfmark /pop load def /pdfmark
    /cleartomark load def end } ifelse
/BDC { mark 3 1 roll /BDC pdfmark } bind def
/EMC { mark /EMC pdfmark } bind def
/cairo_store_point { /cairo_point_y exch def /cairo_point_x exch def } def
/Tj { show currentpoint cairo_store_point } bind def
/TJ {
  {
    dup
    type /stringtype eq
    { show } { -0.001 mul 0 cairo_font_matrix dtransform rmoveto } ifelse
  } forall
  currentpoint cairo_store_point
} bind def
/cairo_selectfont { cairo_font_matrix aload pop pop pop 0 0 6 array astore
    cairo_font exch selectfont cairo_point_x cairo_point_y moveto } bind def
/Tf { pop /cairo_font exch def /cairo_font_matrix where
      { pop cairo_selectfont } if } bind def
/Td { matrix translate cairo_font_matrix matrix concatmatrix dup
      /cairo_font_matrix exch def dup 4 get exch 5 get cairo_store_point
      /cairo_font where { pop cairo_selectfont } if } bind def
/Tm { 2 copy 8 2 roll 6 array astore /cairo_font_matrix exch def
      cairo_store_point /cairo_font where { pop cairo_selectfont } if } bind def
/g { setgray } bind def
/rg { setrgbcolor } bind def
/d1 { setcachedevice } bind def
%%EndProlog
%%BeginSetup
%%EndSetup
%%Page: 1 1
%%BeginPageSetup
%%PageBoundingBox: 40 -1 342 383
%%EndPageSetup
q 40 -1 302 384 rectclip q
0 g
336.625 242.369 m 334.152 244.533 330.98 245.728 327.695 245.74 c 254.211
 245.74 l 312.676 362.517 l 314.766 366.76 314.512 371.779 312.008 375.791
 c 309.52 379.818 305.125 382.275 300.387 382.275 c 54.629 382.275 l 47.086
 382.271 40.977 376.158 40.98 368.615 c 40.98 367.924 41.035 367.232 41.137
 366.545 c 68.445 189.053 l 69.469 182.392 75.195 177.478 81.934 177.474
 c 135.457 177.474 l 122.895 14.685 l 122.324 7.166 127.957 0.611 135.477
 0.041 c 139.758 -0.287 143.945 1.424 146.777 4.65 c 337.922 223.103 l 342.883
 228.783 342.305 237.408 336.625 242.369 c h
153.316 53.529 m 163.812 190.064 l 164.402 197.58 158.785 204.154 151.27
 204.74 c 150.914 204.767 150.559 204.783 150.203 204.783 c 93.652 204.783
 l 70.547 354.971 l 278.297 354.971 l 219.902 238.193 l 216.531 231.447 
219.266 223.248 226.012 219.877 c 227.91 218.928 230 218.435 232.121 218.435
 c 297.66 218.435 l h
153.316 53.529 m f
Q Q
showpage
%%Trailer
end restore
%%EOF
