%!PS-Adobe-3.0 EPSF-3.0
%%Creator: cairo 1.14.2 (http://cairographics.org)
%%CreationDate: Wed May  9 09:18:00 2018
%%Pages: 1
%%DocumentData: Clean7Bit
%%LanguageLevel: 2
%%BoundingBox: 27 -1 355 383
%%EndComments
%%BeginProlog
save
50 dict begin
/q { gsave } bind def
/Q { grestore } bind def
/cm { 6 array astore concat } bind def
/w { setlinewidth } bind def
/J { setlinecap } bind def
/j { setlinejoin } bind def
/M { setmiterlimit } bind def
/d { setdash } bind def
/m { moveto } bind def
/l { lineto } bind def
/c { curveto } bind def
/h { closepath } bind def
/re { exch dup neg 3 1 roll 5 3 roll moveto 0 rlineto
      0 exch rlineto 0 rlineto closepath } bind def
/S { stroke } bind def
/f { fill } bind def
/f* { eofill } bind def
/n { newpath } bind def
/W { clip } bind def
/W* { eoclip } bind def
/BT { } bind def
/ET { } bind def
/pdfmark where { pop globaldict /?pdfmark /exec load put }
    { globaldict begin /?pdfmark /pop load def /pdfmark
    /cleartomark load def end } ifelse
/BDC { mark 3 1 roll /BDC pdfmark } bind def
/EMC { mark /EMC pdfmark } bind def
/cairo_store_point { /cairo_point_y exch def /cairo_point_x exch def } def
/Tj { show currentpoint cairo_store_point } bind def
/TJ {
  {
    dup
    type /stringtype eq
    { show } { -0.001 mul 0 cairo_font_matrix dtransform rmoveto } ifelse
  } forall
  currentpoint cairo_store_point
} bind def
/cairo_selectfont { cairo_font_matrix aload pop pop pop 0 0 6 array astore
    cairo_font exch selectfont cairo_point_x cairo_point_y moveto } bind def
/Tf { pop /cairo_font exch def /cairo_font_matrix where
      { pop cairo_selectfont } if } bind def
/Td { matrix translate cairo_font_matrix matrix concatmatrix dup
      /cairo_font_matrix exch def dup 4 get exch 5 get cairo_store_point
      /cairo_font where { pop cairo_selectfont } if } bind def
/Tm { 2 copy 8 2 roll 6 array astore /cairo_font_matrix exch def
      cairo_store_point /cairo_font where { pop cairo_selectfont } if } bind def
/g { setgray } bind def
/rg { setrgbcolor } bind def
/d1 { setcachedevice } bind def
%%EndProlog
%%BeginSetup
%%EndSetup
%%Page: 1 1
%%BeginPageSetup
%%PageBoundingBox: 27 -1 355 383
%%EndPageSetup
q 27 -1 328 384 rectclip q
0 g
341.332 382.294 m 81.922 382.294 l 74.379 382.294 68.266 376.18 68.266 
368.641 c 68.266 327.68 l 40.961 327.68 l 33.418 327.68 27.305 321.567 27.305
 314.028 c 27.305 13.653 l 27.305 6.114 33.418 0.001 40.961 0.001 c 286.719
 0.001 l 294.262 0.001 300.375 6.114 300.375 13.653 c 300.375 27.305 l 341.332
 27.305 l 348.875 27.305 354.988 33.419 354.988 40.962 c 354.988 368.641
 l 354.988 376.18 348.875 382.294 341.332 382.294 c h
273.066 27.305 m 54.613 27.305 l 54.613 300.372 l 204.801 300.372 l 204.801
 245.758 l 204.801 238.219 210.914 232.106 218.453 232.106 c 273.066 232.106
 l h
232.105 259.415 m 232.105 281.067 l 253.762 259.415 l h
327.68 54.614 m 300.375 54.614 l 300.375 245.758 l 300.355 249.383 298.914
 252.856 296.359 255.426 c 228.094 323.692 l 225.523 326.231 222.062 327.661
 218.453 327.68 c 95.574 327.68 l 95.574 354.989 l 327.68 354.989 l h
327.68 54.614 m f
232.105 204.801 m 95.574 204.801 l 88.031 204.801 81.922 198.688 81.922
 191.145 c 81.922 183.606 88.031 177.493 95.574 177.493 c 232.105 177.493
 l 239.648 177.493 245.762 183.606 245.762 191.149 c 245.762 198.688 239.648
 204.801 232.105 204.801 c h
232.105 204.801 m f
232.105 150.188 m 95.574 150.188 l 88.031 150.188 81.922 144.075 81.922
 136.532 c 81.922 128.993 88.031 122.88 95.574 122.88 c 232.105 122.88 l
 239.648 122.88 245.762 128.993 245.762 136.532 c 245.762 144.075 239.648
 150.188 232.105 150.188 c h
232.105 150.188 m f
232.105 95.575 m 95.574 95.575 l 88.031 95.575 81.922 89.462 81.922 81.919
 c 81.922 74.38 88.031 68.266 95.574 68.266 c 232.105 68.266 l 239.648 68.266
 245.762 74.38 245.762 81.919 c 245.762 89.462 239.648 95.575 232.105 95.575
 c h
232.105 95.575 m f
Q Q
showpage
%%Trailer
end restore
%%EOF
