%!PS-Adobe-3.0 EPSF-3.0
%%Creator: cairo 1.14.2 (http://cairographics.org)
%%CreationDate: Wed May  9 09:18:00 2018
%%Pages: 1
%%DocumentData: Clean7Bit
%%LanguageLevel: 2
%%BoundingBox: 0 -1 383 383
%%EndComments
%%BeginProlog
save
50 dict begin
/q { gsave } bind def
/Q { grestore } bind def
/cm { 6 array astore concat } bind def
/w { setlinewidth } bind def
/J { setlinecap } bind def
/j { setlinejoin } bind def
/M { setmiterlimit } bind def
/d { setdash } bind def
/m { moveto } bind def
/l { lineto } bind def
/c { curveto } bind def
/h { closepath } bind def
/re { exch dup neg 3 1 roll 5 3 roll moveto 0 rlineto
      0 exch rlineto 0 rlineto closepath } bind def
/S { stroke } bind def
/f { fill } bind def
/f* { eofill } bind def
/n { newpath } bind def
/W { clip } bind def
/W* { eoclip } bind def
/BT { } bind def
/ET { } bind def
/pdfmark where { pop globaldict /?pdfmark /exec load put }
    { globaldict begin /?pdfmark /pop load def /pdfmark
    /cleartomark load def end } ifelse
/BDC { mark 3 1 roll /BDC pdfmark } bind def
/EMC { mark /EMC pdfmark } bind def
/cairo_store_point { /cairo_point_y exch def /cairo_point_x exch def } def
/Tj { show currentpoint cairo_store_point } bind def
/TJ {
  {
    dup
    type /stringtype eq
    { show } { -0.001 mul 0 cairo_font_matrix dtransform rmoveto } ifelse
  } forall
  currentpoint cairo_store_point
} bind def
/cairo_selectfont { cairo_font_matrix aload pop pop pop 0 0 6 array astore
    cairo_font exch selectfont cairo_point_x cairo_point_y moveto } bind def
/Tf { pop /cairo_font exch def /cairo_font_matrix where
      { pop cairo_selectfont } if } bind def
/Td { matrix translate cairo_font_matrix matrix concatmatrix dup
      /cairo_font_matrix exch def dup 4 get exch 5 get cairo_store_point
      /cairo_font where { pop cairo_selectfont } if } bind def
/Tm { 2 copy 8 2 roll 6 array astore /cairo_font_matrix exch def
      cairo_store_point /cairo_font where { pop cairo_selectfont } if } bind def
/g { setgray } bind def
/rg { setrgbcolor } bind def
/d1 { setcachedevice } bind def
%%EndProlog
%%BeginSetup
%%EndSetup
%%Page: 1 1
%%BeginPageSetup
%%PageBoundingBox: 0 -1 383 383
%%EndPageSetup
q 0 -1 383 384 rectclip q
0 g
368.641 204.801 m 148.246 204.801 l 140.844 233.891 111.258 251.473 82.168
 244.067 c 62.875 239.157 47.809 224.094 42.898 204.801 c 13.652 204.801
 l 6.113 204.801 0 198.688 0 191.145 c 0 183.606 6.113 177.493 13.652 177.493
 c 42.898 177.493 l 50.305 148.403 79.891 130.821 108.98 138.227 c 128.273
 143.137 143.34 158.2 148.25 177.493 c 368.641 177.493 l 376.18 177.493 
382.293 183.606 382.293 191.149 c 382.293 198.688 376.18 204.801 368.641
 204.801 c h
95.574 163.84 m 80.492 163.84 68.266 176.067 68.266 191.145 c 68.266 206.227
 80.492 218.454 95.574 218.454 c 110.656 218.454 122.879 206.227 122.879
 191.145 c 122.879 176.067 110.656 163.84 95.574 163.84 c h
95.574 163.84 m f
368.641 341.333 m 325.742 341.333 l 318.336 370.426 288.754 388.005 259.66
 380.602 c 240.367 375.692 225.301 360.626 220.391 341.333 c 13.652 341.333
 l 6.113 341.333 0 335.219 0 327.68 c 0 320.137 6.113 314.028 13.652 314.028
 c 220.391 314.028 l 227.797 284.934 257.383 267.356 286.473 274.758 c 305.766
 279.669 320.832 294.735 325.742 314.028 c 368.641 314.028 l 376.18 314.028
 382.293 320.137 382.293 327.68 c 382.293 335.219 376.18 341.333 368.641
 341.333 c h
273.066 300.372 m 257.988 300.372 245.762 312.598 245.762 327.68 c 245.762
 342.762 257.988 354.985 273.066 354.985 c 288.148 354.985 300.375 342.762
 300.375 327.68 c 300.375 312.598 288.148 300.372 273.066 300.372 c h
273.066 300.372 m f
368.641 68.266 m 298.434 68.266 l 291.031 97.356 261.445 114.938 232.352
 107.536 c 213.059 102.626 197.996 87.559 193.086 68.266 c 13.652 68.266
 l 6.113 68.266 0 62.153 0 54.614 c 0 47.075 6.113 40.962 13.652 40.962 
c 193.086 40.962 l 200.488 11.868 230.074 -5.71 259.168 1.692 c 278.461 
6.602 293.523 21.669 298.434 40.962 c 368.641 40.962 l 376.18 40.962 382.293
 47.071 382.293 54.614 c 382.293 62.153 376.18 68.266 368.641 68.266 c h
245.762 27.305 m 230.68 27.305 218.453 39.532 218.453 54.614 c 218.453 
69.692 230.68 81.919 245.762 81.919 c 260.84 81.919 273.066 69.692 273.066
 54.614 c 273.066 39.532 260.84 27.305 245.762 27.305 c h
245.762 27.305 m f
Q Q
showpage
%%Trailer
end restore
%%EOF
