%!PS-Adobe-3.0 EPSF-3.0
%%Creator: cairo 1.14.2 (http://cairographics.org)
%%CreationDate: Wed May  9 09:18:00 2018
%%Pages: 1
%%DocumentData: Clean7Bit
%%LanguageLevel: 2
%%BoundingBox: 0 54 383 329
%%EndComments
%%BeginProlog
save
50 dict begin
/q { gsave } bind def
/Q { grestore } bind def
/cm { 6 array astore concat } bind def
/w { setlinewidth } bind def
/J { setlinecap } bind def
/j { setlinejoin } bind def
/M { setmiterlimit } bind def
/d { setdash } bind def
/m { moveto } bind def
/l { lineto } bind def
/c { curveto } bind def
/h { closepath } bind def
/re { exch dup neg 3 1 roll 5 3 roll moveto 0 rlineto
      0 exch rlineto 0 rlineto closepath } bind def
/S { stroke } bind def
/f { fill } bind def
/f* { eofill } bind def
/n { newpath } bind def
/W { clip } bind def
/W* { eoclip } bind def
/BT { } bind def
/ET { } bind def
/pdfmark where { pop globaldict /?pdfmark /exec load put }
    { globaldict begin /?pdfmark /pop load def /pdfmark
    /cleartomark load def end } ifelse
/BDC { mark 3 1 roll /BDC pdfmark } bind def
/EMC { mark /EMC pdfmark } bind def
/cairo_store_point { /cairo_point_y exch def /cairo_point_x exch def } def
/Tj { show currentpoint cairo_store_point } bind def
/TJ {
  {
    dup
    type /stringtype eq
    { show } { -0.001 mul 0 cairo_font_matrix dtransform rmoveto } ifelse
  } forall
  currentpoint cairo_store_point
} bind def
/cairo_selectfont { cairo_font_matrix aload pop pop pop 0 0 6 array astore
    cairo_font exch selectfont cairo_point_x cairo_point_y moveto } bind def
/Tf { pop /cairo_font exch def /cairo_font_matrix where
      { pop cairo_selectfont } if } bind def
/Td { matrix translate cairo_font_matrix matrix concatmatrix dup
      /cairo_font_matrix exch def dup 4 get exch 5 get cairo_store_point
      /cairo_font where { pop cairo_selectfont } if } bind def
/Tm { 2 copy 8 2 roll 6 array astore /cairo_font_matrix exch def
      cairo_store_point /cairo_font where { pop cairo_selectfont } if } bind def
/g { setgray } bind def
/rg { setrgbcolor } bind def
/d1 { setcachedevice } bind def
%%EndProlog
%%BeginSetup
%%EndSetup
%%Page: 1 1
%%BeginPageSetup
%%PageBoundingBox: 0 54 383 329
%%EndPageSetup
q 0 54 383 275 rectclip q
0 g
368.641 327.68 m 13.652 327.68 l 6.113 327.68 0 321.567 0 314.028 c 0 68.266
 l 0 60.727 6.113 54.614 13.652 54.614 c 368.641 54.614 l 376.18 54.614 
382.293 60.727 382.293 68.266 c 382.293 314.028 l 382.293 321.567 376.18
 327.68 368.641 327.68 c h
27.305 300.372 m 66.328 300.372 l 61.332 281.266 46.41 266.348 27.305 261.352
 c h
27.305 81.919 m 27.305 120.942 l 46.41 115.946 61.332 101.024 66.328 81.923
 c 27.305 81.923 l h
354.988 81.919 m 315.965 81.919 l 320.961 101.024 335.879 115.946 354.988
 120.942 c h
354.988 148.958 m 320.684 143.094 293.812 116.223 287.949 81.923 c 94.344
 81.923 l 88.48 116.223 61.609 143.094 27.309 148.958 c 27.309 233.337 l
 61.609 239.2 88.48 266.071 94.344 300.372 c 287.949 300.372 l 293.812 266.071
 320.684 239.2 354.988 233.337 c h
354.988 261.352 m 335.879 266.348 320.961 281.266 315.965 300.372 c 354.988
 300.372 l h
354.988 261.352 m f
191.145 259.415 m 153.445 259.415 122.879 228.848 122.879 191.149 c 122.879
 153.446 153.445 122.88 191.145 122.88 c 228.848 122.88 259.414 153.446 
259.414 191.149 c 259.367 228.833 228.832 259.368 191.145 259.415 c h
191.145 150.188 m 168.523 150.188 150.188 168.524 150.188 191.149 c 150.188
 213.77 168.523 232.106 191.145 232.106 c 213.77 232.106 232.105 213.77 
232.105 191.149 c 232.105 168.524 213.77 150.188 191.145 150.188 c h
191.145 150.188 m f
Q Q
showpage
%%Trailer
end restore
%%EOF
