%!PS-Adobe-3.0 EPSF-3.0
%%Creator: cairo 1.14.2 (http://cairographics.org)
%%CreationDate: Wed May  9 09:18:00 2018
%%Pages: 1
%%DocumentData: Clean7Bit
%%LanguageLevel: 2
%%BoundingBox: 40 -1 342 383
%%EndComments
%%BeginProlog
save
50 dict begin
/q { gsave } bind def
/Q { grestore } bind def
/cm { 6 array astore concat } bind def
/w { setlinewidth } bind def
/J { setlinecap } bind def
/j { setlinejoin } bind def
/M { setmiterlimit } bind def
/d { setdash } bind def
/m { moveto } bind def
/l { lineto } bind def
/c { curveto } bind def
/h { closepath } bind def
/re { exch dup neg 3 1 roll 5 3 roll moveto 0 rlineto
      0 exch rlineto 0 rlineto closepath } bind def
/S { stroke } bind def
/f { fill } bind def
/f* { eofill } bind def
/n { newpath } bind def
/W { clip } bind def
/W* { eoclip } bind def
/BT { } bind def
/ET { } bind def
/pdfmark where { pop globaldict /?pdfmark /exec load put }
    { globaldict begin /?pdfmark /pop load def /pdfmark
    /cleartomark load def end } ifelse
/BDC { mark 3 1 roll /BDC pdfmark } bind def
/EMC { mark /EMC pdfmark } bind def
/cairo_store_point { /cairo_point_y exch def /cairo_point_x exch def } def
/Tj { show currentpoint cairo_store_point } bind def
/TJ {
  {
    dup
    type /stringtype eq
    { show } { -0.001 mul 0 cairo_font_matrix dtransform rmoveto } ifelse
  } forall
  currentpoint cairo_store_point
} bind def
/cairo_selectfont { cairo_font_matrix aload pop pop pop 0 0 6 array astore
    cairo_font exch selectfont cairo_point_x cairo_point_y moveto } bind def
/Tf { pop /cairo_font exch def /cairo_font_matrix where
      { pop cairo_selectfont } if } bind def
/Td { matrix translate cairo_font_matrix matrix concatmatrix dup
      /cairo_font_matrix exch def dup 4 get exch 5 get cairo_store_point
      /cairo_font where { pop cairo_selectfont } if } bind def
/Tm { 2 copy 8 2 roll 6 array astore /cairo_font_matrix exch def
      cairo_store_point /cairo_font where { pop cairo_selectfont } if } bind def
/g { setgray } bind def
/rg { setrgbcolor } bind def
/d1 { setcachedevice } bind def
%%EndProlog
%%BeginSetup
%%EndSetup
%%Page: 1 1
%%BeginPageSetup
%%PageBoundingBox: 40 -1 342 383
%%EndPageSetup
q 40 -1 302 384 rectclip q
0 g
337.32 310.04 m 269.055 378.305 l 266.484 380.844 263.023 382.274 259.414
 382.294 c 54.613 382.294 l 47.074 382.294 40.961 376.18 40.961 368.641 
c 40.961 13.653 l 40.961 6.114 47.074 0.001 54.613 0.001 c 327.68 0.001 
l 335.223 0.001 341.332 6.114 341.332 13.653 c 341.332 300.372 l 341.312
 303.997 339.871 307.469 337.32 310.04 c h
273.066 335.68 m 294.723 314.028 l 273.066 314.028 l h
314.027 27.305 m 68.266 27.305 l 68.266 354.989 l 245.762 354.989 l 245.762
 300.372 l 245.762 292.833 251.871 286.719 259.414 286.719 c 314.027 286.719
 l h
314.027 27.305 m f
273.066 259.415 m 109.227 259.415 l 101.688 259.415 95.574 253.301 95.574
 245.758 c 95.574 238.219 101.688 232.106 109.227 232.106 c 273.066 232.106
 l 280.605 232.106 286.719 238.219 286.719 245.758 c 286.719 253.301 280.605
 259.415 273.066 259.415 c h
273.066 259.415 m f
273.066 204.801 m 109.227 204.801 l 101.688 204.801 95.574 198.688 95.574
 191.145 c 95.574 183.606 101.688 177.493 109.227 177.493 c 273.066 177.493
 l 280.605 177.493 286.719 183.606 286.719 191.149 c 286.719 198.688 280.605
 204.801 273.066 204.801 c h
273.066 204.801 m f
273.066 150.188 m 109.227 150.188 l 101.688 150.188 95.574 144.075 95.574
 136.532 c 95.574 128.993 101.688 122.88 109.227 122.88 c 273.066 122.88
 l 280.605 122.88 286.719 128.993 286.719 136.532 c 286.719 144.075 280.605
 150.188 273.066 150.188 c h
273.066 150.188 m f
273.066 95.575 m 109.227 95.575 l 101.688 95.575 95.574 89.462 95.574 81.919
 c 95.574 74.38 101.688 68.266 109.227 68.266 c 273.066 68.266 l 280.605
 68.266 286.719 74.38 286.719 81.919 c 286.719 89.462 280.605 95.575 273.066
 95.575 c h
273.066 95.575 m f
Q Q
showpage
%%Trailer
end restore
%%EOF
