%!PS-Adobe-3.0 EPSF-3.0
%%Creator: cairo 1.14.2 (http://cairographics.org)
%%CreationDate: Wed May  9 09:18:00 2018
%%Pages: 1
%%DocumentData: Clean7Bit
%%LanguageLevel: 2
%%BoundingBox: 0 54 383 329
%%EndComments
%%BeginProlog
save
50 dict begin
/q { gsave } bind def
/Q { grestore } bind def
/cm { 6 array astore concat } bind def
/w { setlinewidth } bind def
/J { setlinecap } bind def
/j { setlinejoin } bind def
/M { setmiterlimit } bind def
/d { setdash } bind def
/m { moveto } bind def
/l { lineto } bind def
/c { curveto } bind def
/h { closepath } bind def
/re { exch dup neg 3 1 roll 5 3 roll moveto 0 rlineto
      0 exch rlineto 0 rlineto closepath } bind def
/S { stroke } bind def
/f { fill } bind def
/f* { eofill } bind def
/n { newpath } bind def
/W { clip } bind def
/W* { eoclip } bind def
/BT { } bind def
/ET { } bind def
/pdfmark where { pop globaldict /?pdfmark /exec load put }
    { globaldict begin /?pdfmark /pop load def /pdfmark
    /cleartomark load def end } ifelse
/BDC { mark 3 1 roll /BDC pdfmark } bind def
/EMC { mark /EMC pdfmark } bind def
/cairo_store_point { /cairo_point_y exch def /cairo_point_x exch def } def
/Tj { show currentpoint cairo_store_point } bind def
/TJ {
  {
    dup
    type /stringtype eq
    { show } { -0.001 mul 0 cairo_font_matrix dtransform rmoveto } ifelse
  } forall
  currentpoint cairo_store_point
} bind def
/cairo_selectfont { cairo_font_matrix aload pop pop pop 0 0 6 array astore
    cairo_font exch selectfont cairo_point_x cairo_point_y moveto } bind def
/Tf { pop /cairo_font exch def /cairo_font_matrix where
      { pop cairo_selectfont } if } bind def
/Td { matrix translate cairo_font_matrix matrix concatmatrix dup
      /cairo_font_matrix exch def dup 4 get exch 5 get cairo_store_point
      /cairo_font where { pop cairo_selectfont } if } bind def
/Tm { 2 copy 8 2 roll 6 array astore /cairo_font_matrix exch def
      cairo_store_point /cairo_font where { pop cairo_selectfont } if } bind def
/g { setgray } bind def
/rg { setrgbcolor } bind def
/d1 { setcachedevice } bind def
%%EndProlog
%%BeginSetup
%%EndSetup
%%Page: 1 1
%%BeginPageSetup
%%PageBoundingBox: 0 54 383 329
%%EndPageSetup
q 0 54 383 275 rectclip q
0 g
341.332 327.68 m 40.961 327.68 l 18.34 327.68 0 309.34 0 286.719 c 0 95.575
 l 0 72.954 18.34 54.614 40.961 54.614 c 341.332 54.614 l 363.957 54.614
 382.293 72.954 382.293 95.575 c 382.293 286.719 l 382.293 309.34 363.957
 327.68 341.332 327.68 c h
354.988 95.575 m 354.988 88.032 348.875 81.919 341.332 81.919 c 40.961 
81.919 l 33.418 81.919 27.305 88.032 27.305 95.575 c 27.305 177.493 l 354.988
 177.493 l h
354.988 204.801 m 27.305 204.801 l 27.305 232.106 l 354.988 232.106 l h
354.988 259.415 m 27.305 259.415 l 27.305 286.719 l 27.305 294.262 33.418
 300.372 40.961 300.372 c 341.332 300.372 l 348.875 300.372 354.988 294.262
 354.988 286.719 c h
354.988 259.415 m f
314.027 150.188 m 259.414 150.188 l 251.871 150.188 245.758 144.075 245.758
 136.532 c 245.758 128.993 251.871 122.88 259.414 122.88 c 314.027 122.88
 l 321.566 122.88 327.68 128.993 327.68 136.532 c 327.68 144.075 321.566
 150.188 314.027 150.188 c h
314.027 150.188 m f
Q Q
showpage
%%Trailer
end restore
%%EOF
