%!PS-Adobe-3.0 EPSF-3.0
%%Creator: cairo 1.14.2 (http://cairographics.org)
%%CreationDate: Wed May  9 09:18:00 2018
%%Pages: 1
%%DocumentData: Clean7Bit
%%LanguageLevel: 2
%%BoundingBox: 0 -1 383 383
%%EndComments
%%BeginProlog
save
50 dict begin
/q { gsave } bind def
/Q { grestore } bind def
/cm { 6 array astore concat } bind def
/w { setlinewidth } bind def
/J { setlinecap } bind def
/j { setlinejoin } bind def
/M { setmiterlimit } bind def
/d { setdash } bind def
/m { moveto } bind def
/l { lineto } bind def
/c { curveto } bind def
/h { closepath } bind def
/re { exch dup neg 3 1 roll 5 3 roll moveto 0 rlineto
      0 exch rlineto 0 rlineto closepath } bind def
/S { stroke } bind def
/f { fill } bind def
/f* { eofill } bind def
/n { newpath } bind def
/W { clip } bind def
/W* { eoclip } bind def
/BT { } bind def
/ET { } bind def
/pdfmark where { pop globaldict /?pdfmark /exec load put }
    { globaldict begin /?pdfmark /pop load def /pdfmark
    /cleartomark load def end } ifelse
/BDC { mark 3 1 roll /BDC pdfmark } bind def
/EMC { mark /EMC pdfmark } bind def
/cairo_store_point { /cairo_point_y exch def /cairo_point_x exch def } def
/Tj { show currentpoint cairo_store_point } bind def
/TJ {
  {
    dup
    type /stringtype eq
    { show } { -0.001 mul 0 cairo_font_matrix dtransform rmoveto } ifelse
  } forall
  currentpoint cairo_store_point
} bind def
/cairo_selectfont { cairo_font_matrix aload pop pop pop 0 0 6 array astore
    cairo_font exch selectfont cairo_point_x cairo_point_y moveto } bind def
/Tf { pop /cairo_font exch def /cairo_font_matrix where
      { pop cairo_selectfont } if } bind def
/Td { matrix translate cairo_font_matrix matrix concatmatrix dup
      /cairo_font_matrix exch def dup 4 get exch 5 get cairo_store_point
      /cairo_font where { pop cairo_selectfont } if } bind def
/Tm { 2 copy 8 2 roll 6 array astore /cairo_font_matrix exch def
      cairo_store_point /cairo_font where { pop cairo_selectfont } if } bind def
/g { setgray } bind def
/rg { setrgbcolor } bind def
/d1 { setcachedevice } bind def
%%EndProlog
%%BeginSetup
%%EndSetup
%%Page: 1 1
%%BeginPageSetup
%%PageBoundingBox: 0 -1 383 383
%%EndPageSetup
q 0 -1 383 384 rectclip q
0 g
191.145 382.294 m 85.578 382.294 0 296.715 0 191.149 c 0 85.579 85.578 
0.001 191.145 0.001 c 296.715 0.001 382.293 85.579 382.293 191.149 c 382.18
 296.669 296.668 382.18 191.145 382.294 c h
191.145 27.305 m 100.66 27.305 27.305 100.661 27.305 191.149 c 27.305 281.633
 100.66 354.989 191.145 354.989 c 281.633 354.989 354.988 281.633 354.988
 191.149 c 354.891 100.7 281.594 27.403 191.145 27.305 c h
191.145 27.305 m f
204.801 204.801 m 177.492 204.801 l 162.414 204.801 150.188 217.024 150.188
 232.106 c 150.188 245.758 l 150.188 260.84 162.414 273.067 177.492 273.067
 c 204.801 273.067 l 219.879 273.067 232.105 260.84 232.105 245.758 c 232.105
 238.219 238.219 232.106 245.762 232.106 c 253.301 232.106 259.414 238.219
 259.414 245.758 c 259.414 275.923 234.961 300.372 204.801 300.372 c 204.801
 314.028 l 204.801 321.567 198.688 327.68 191.145 327.68 c 183.605 327.68
 177.492 321.567 177.492 314.028 c 177.492 300.372 l 147.332 300.372 122.879
 275.923 122.879 245.758 c 122.879 232.106 l 122.879 201.946 147.332 177.493
 177.492 177.493 c 204.801 177.493 l 219.879 177.493 232.105 165.266 232.105
 150.188 c 232.105 136.532 l 232.105 121.454 219.879 109.227 204.801 109.227
 c 177.492 109.227 l 162.414 109.227 150.188 121.454 150.188 136.532 c 150.188
 144.075 144.074 150.188 136.535 150.188 c 128.992 150.188 122.879 144.075
 122.879 136.532 c 122.879 106.372 147.332 81.919 177.492 81.919 c 177.492
 68.266 l 177.492 60.727 183.605 54.614 191.148 54.614 c 198.688 54.614 
204.801 60.727 204.801 68.266 c 204.801 81.923 l 234.961 81.923 259.414 
106.372 259.414 136.536 c 259.414 150.188 l 259.414 180.348 234.961 204.801
 204.801 204.801 c h
204.801 204.801 m f
Q Q
showpage
%%Trailer
end restore
%%EOF
