%!PS-Adobe-3.0 EPSF-3.0
%%Creator: cairo 1.14.2 (http://cairographics.org)
%%CreationDate: Wed May  9 09:18:00 2018
%%Pages: 1
%%DocumentData: Clean7Bit
%%LanguageLevel: 2
%%BoundingBox: 0 -1 383 383
%%EndComments
%%BeginProlog
save
50 dict begin
/q { gsave } bind def
/Q { grestore } bind def
/cm { 6 array astore concat } bind def
/w { setlinewidth } bind def
/J { setlinecap } bind def
/j { setlinejoin } bind def
/M { setmiterlimit } bind def
/d { setdash } bind def
/m { moveto } bind def
/l { lineto } bind def
/c { curveto } bind def
/h { closepath } bind def
/re { exch dup neg 3 1 roll 5 3 roll moveto 0 rlineto
      0 exch rlineto 0 rlineto closepath } bind def
/S { stroke } bind def
/f { fill } bind def
/f* { eofill } bind def
/n { newpath } bind def
/W { clip } bind def
/W* { eoclip } bind def
/BT { } bind def
/ET { } bind def
/pdfmark where { pop globaldict /?pdfmark /exec load put }
    { globaldict begin /?pdfmark /pop load def /pdfmark
    /cleartomark load def end } ifelse
/BDC { mark 3 1 roll /BDC pdfmark } bind def
/EMC { mark /EMC pdfmark } bind def
/cairo_store_point { /cairo_point_y exch def /cairo_point_x exch def } def
/Tj { show currentpoint cairo_store_point } bind def
/TJ {
  {
    dup
    type /stringtype eq
    { show } { -0.001 mul 0 cairo_font_matrix dtransform rmoveto } ifelse
  } forall
  currentpoint cairo_store_point
} bind def
/cairo_selectfont { cairo_font_matrix aload pop pop pop 0 0 6 array astore
    cairo_font exch selectfont cairo_point_x cairo_point_y moveto } bind def
/Tf { pop /cairo_font exch def /cairo_font_matrix where
      { pop cairo_selectfont } if } bind def
/Td { matrix translate cairo_font_matrix matrix concatmatrix dup
      /cairo_font_matrix exch def dup 4 get exch 5 get cairo_store_point
      /cairo_font where { pop cairo_selectfont } if } bind def
/Tm { 2 copy 8 2 roll 6 array astore /cairo_font_matrix exch def
      cairo_store_point /cairo_font where { pop cairo_selectfont } if } bind def
/g { setgray } bind def
/rg { setrgbcolor } bind def
/d1 { setcachedevice } bind def
%%EndProlog
%%BeginSetup
%%EndSetup
%%Page: 1 1
%%BeginPageSetup
%%PageBoundingBox: 0 -1 383 383
%%EndPageSetup
q 0 -1 383 384 rectclip q
0 g
341.332 273.059 m 314.027 273.059 l 314.027 341.329 l 314.027 363.95 295.688
 382.286 273.066 382.286 c 40.961 382.286 l 18.34 382.286 0 363.95 0 341.329
 c 0 150.18 l 0 127.559 18.34 109.219 40.961 109.219 c 48.113 109.219 l 
41.082 56.411 l 40.074 48.938 45.312 42.063 52.789 41.051 c 57.023 40.481
 61.281 41.926 64.293 44.954 c 128.531 109.223 l 136.535 109.223 l 136.535
 95.567 l 136.535 72.946 154.871 54.606 177.492 54.606 c 219.219 54.606 
l 306.996 1.946 l 313.465 -1.925 321.852 0.18 325.723 6.653 c 327.387 9.43
 328.008 12.708 327.477 15.899 c 321.047 54.606 l 341.336 54.606 l 363.957
 54.606 382.293 72.946 382.293 95.567 c 382.293 232.102 l 382.293 254.723
 363.957 273.059 341.332 273.059 c h
136.535 232.102 m 136.535 136.528 l 122.879 136.528 l 119.258 136.528 115.789
 135.087 113.227 132.528 c 73.48 92.837 l 77.25 121.126 l 78.215 128.602
 72.934 135.45 65.457 136.415 c 64.879 136.489 64.301 136.528 63.719 136.528
 c 40.961 136.528 l 33.418 136.528 27.305 142.637 27.305 150.18 c 27.305
 341.329 l 27.305 348.868 33.418 354.981 40.961 354.981 c 273.066 354.981
 l 280.605 354.981 286.719 348.868 286.719 341.329 c 286.719 273.059 l 177.492
 273.059 l 154.871 273.059 136.535 254.723 136.535 232.102 c h
354.988 95.567 m 354.988 88.028 348.875 81.915 341.332 81.915 c 304.922
 81.915 l 297.379 81.911 291.27 75.798 291.27 68.255 c 291.27 67.501 291.332
 66.751 291.457 66.008 c 295.691 40.571 l 230.031 79.962 l 227.906 81.239
 225.477 81.915 223 81.915 c 177.492 81.915 l 169.953 81.915 163.84 88.028
 163.84 95.567 c 163.84 232.102 l 163.84 239.641 169.953 245.755 177.492
 245.755 c 341.332 245.755 l 348.875 245.755 354.988 239.641 354.988 232.102
 c h
354.988 95.567 m f
Q Q
showpage
%%Trailer
end restore
%%EOF
