%!PS-Adobe-3.0 EPSF-3.0
%%Creator: cairo 1.14.2 (http://cairographics.org)
%%CreationDate: Wed May  9 09:18:00 2018
%%Pages: 1
%%DocumentData: Clean7Bit
%%LanguageLevel: 2
%%BoundingBox: 0 -1 383 383
%%EndComments
%%BeginProlog
save
50 dict begin
/q { gsave } bind def
/Q { grestore } bind def
/cm { 6 array astore concat } bind def
/w { setlinewidth } bind def
/J { setlinecap } bind def
/j { setlinejoin } bind def
/M { setmiterlimit } bind def
/d { setdash } bind def
/m { moveto } bind def
/l { lineto } bind def
/c { curveto } bind def
/h { closepath } bind def
/re { exch dup neg 3 1 roll 5 3 roll moveto 0 rlineto
      0 exch rlineto 0 rlineto closepath } bind def
/S { stroke } bind def
/f { fill } bind def
/f* { eofill } bind def
/n { newpath } bind def
/W { clip } bind def
/W* { eoclip } bind def
/BT { } bind def
/ET { } bind def
/pdfmark where { pop globaldict /?pdfmark /exec load put }
    { globaldict begin /?pdfmark /pop load def /pdfmark
    /cleartomark load def end } ifelse
/BDC { mark 3 1 roll /BDC pdfmark } bind def
/EMC { mark /EMC pdfmark } bind def
/cairo_store_point { /cairo_point_y exch def /cairo_point_x exch def } def
/Tj { show currentpoint cairo_store_point } bind def
/TJ {
  {
    dup
    type /stringtype eq
    { show } { -0.001 mul 0 cairo_font_matrix dtransform rmoveto } ifelse
  } forall
  currentpoint cairo_store_point
} bind def
/cairo_selectfont { cairo_font_matrix aload pop pop pop 0 0 6 array astore
    cairo_font exch selectfont cairo_point_x cairo_point_y moveto } bind def
/Tf { pop /cairo_font exch def /cairo_font_matrix where
      { pop cairo_selectfont } if } bind def
/Td { matrix translate cairo_font_matrix matrix concatmatrix dup
      /cairo_font_matrix exch def dup 4 get exch 5 get cairo_store_point
      /cairo_font where { pop cairo_selectfont } if } bind def
/Tm { 2 copy 8 2 roll 6 array astore /cairo_font_matrix exch def
      cairo_store_point /cairo_font where { pop cairo_selectfont } if } bind def
/g { setgray } bind def
/rg { setrgbcolor } bind def
/d1 { setcachedevice } bind def
%%EndProlog
%%BeginSetup
%%EndSetup
%%Page: 1 1
%%BeginPageSetup
%%PageBoundingBox: 0 -1 383 383
%%EndPageSetup
q 0 -1 383 384 rectclip q
0 g
191.145 204.801 m 153.445 204.801 122.879 174.235 122.879 136.532 c 122.879
 98.833 153.445 68.266 191.145 68.266 c 228.848 68.266 259.414 98.833 259.414
 136.532 c 259.367 174.219 228.832 204.755 191.145 204.801 c h
191.145 95.575 m 168.523 95.575 150.188 113.911 150.188 136.532 c 150.188
 159.157 168.523 177.493 191.145 177.493 c 213.77 177.493 232.105 159.157
 232.105 136.532 c 232.105 113.911 213.77 95.575 191.145 95.575 c h
191.145 95.575 m f
368.641 382.294 m 13.652 382.294 l 6.113 382.294 0 376.18 0 368.641 c 0
 13.653 l 0 6.114 6.113 0.001 13.652 0.001 c 368.641 0.001 l 376.18 0.001
 382.293 6.114 382.293 13.653 c 382.293 368.641 l 382.293 376.18 376.18 
382.294 368.641 382.294 c h
27.305 245.758 m 66.328 245.758 l 61.332 226.653 46.41 211.735 27.305 206.739
 c h
27.305 27.305 m 27.305 66.329 l 46.41 61.333 61.332 46.415 66.328 27.305
 c h
354.988 27.305 m 315.965 27.305 l 320.961 46.415 335.879 61.333 354.988
 66.329 c h
354.988 94.344 m 320.684 88.481 293.812 61.61 287.949 27.305 c 94.344 27.305
 l 88.48 61.61 61.609 88.481 27.309 94.344 c 27.309 178.723 l 61.609 184.587
 88.48 211.458 94.344 245.758 c 287.949 245.758 l 293.812 211.458 320.684
 184.587 354.988 178.723 c h
354.988 206.739 m 335.879 211.735 320.961 226.657 315.965 245.762 c 354.988
 245.762 l h
354.988 273.067 m 27.305 273.067 l 27.305 300.372 l 354.988 300.372 l h
354.988 327.68 m 27.305 327.68 l 27.305 354.989 l 354.988 354.989 l h
354.988 327.68 m f
Q Q
showpage
%%Trailer
end restore
%%EOF
