%!PS-Adobe-3.0 EPSF-3.0
%%Creator: cairo 1.14.2 (http://cairographics.org)
%%CreationDate: Wed May  9 09:18:00 2018
%%Pages: 1
%%DocumentData: Clean7Bit
%%LanguageLevel: 2
%%BoundingBox: 0 13 383 370
%%EndComments
%%BeginProlog
save
50 dict begin
/q { gsave } bind def
/Q { grestore } bind def
/cm { 6 array astore concat } bind def
/w { setlinewidth } bind def
/J { setlinecap } bind def
/j { setlinejoin } bind def
/M { setmiterlimit } bind def
/d { setdash } bind def
/m { moveto } bind def
/l { lineto } bind def
/c { curveto } bind def
/h { closepath } bind def
/re { exch dup neg 3 1 roll 5 3 roll moveto 0 rlineto
      0 exch rlineto 0 rlineto closepath } bind def
/S { stroke } bind def
/f { fill } bind def
/f* { eofill } bind def
/n { newpath } bind def
/W { clip } bind def
/W* { eoclip } bind def
/BT { } bind def
/ET { } bind def
/pdfmark where { pop globaldict /?pdfmark /exec load put }
    { globaldict begin /?pdfmark /pop load def /pdfmark
    /cleartomark load def end } ifelse
/BDC { mark 3 1 roll /BDC pdfmark } bind def
/EMC { mark /EMC pdfmark } bind def
/cairo_store_point { /cairo_point_y exch def /cairo_point_x exch def } def
/Tj { show currentpoint cairo_store_point } bind def
/TJ {
  {
    dup
    type /stringtype eq
    { show } { -0.001 mul 0 cairo_font_matrix dtransform rmoveto } ifelse
  } forall
  currentpoint cairo_store_point
} bind def
/cairo_selectfont { cairo_font_matrix aload pop pop pop 0 0 6 array astore
    cairo_font exch selectfont cairo_point_x cairo_point_y moveto } bind def
/Tf { pop /cairo_font exch def /cairo_font_matrix where
      { pop cairo_selectfont } if } bind def
/Td { matrix translate cairo_font_matrix matrix concatmatrix dup
      /cairo_font_matrix exch def dup 4 get exch 5 get cairo_store_point
      /cairo_font where { pop cairo_selectfont } if } bind def
/Tm { 2 copy 8 2 roll 6 array astore /cairo_font_matrix exch def
      cairo_store_point /cairo_font where { pop cairo_selectfont } if } bind def
/g { setgray } bind def
/rg { setrgbcolor } bind def
/d1 { setcachedevice } bind def
%%EndProlog
%%BeginSetup
%%EndSetup
%%Page: 1 1
%%BeginPageSetup
%%PageBoundingBox: 0 13 383 370
%%EndPageSetup
q 0 13 383 357 rectclip q
0 g
341.332 232.106 m 325.223 232.106 l 306.695 324.731 l 301.539 350.227 279.16
 368.579 253.148 368.641 c 129.148 368.641 l 103.133 368.579 80.754 350.227
 75.598 324.731 c 57.07 232.106 l 40.961 232.106 l 18.34 232.106 0 213.77
 0 191.149 c 0 109.227 l 0.07 91.93 11 76.544 27.305 70.778 c 27.305 54.614
 l 27.305 31.993 45.645 13.653 68.266 13.653 c 90.887 13.653 109.227 31.993
 109.227 54.614 c 109.227 68.266 l 273.066 68.266 l 273.066 54.614 l 273.066
 31.993 291.406 13.653 314.027 13.653 c 336.648 13.653 354.988 31.993 354.988
 54.614 c 354.988 70.778 l 371.293 76.544 382.223 91.93 382.293 109.227 
c 382.293 191.149 l 382.293 213.77 363.957 232.106 341.332 232.106 c h
102.398 319.38 m 104.984 332.114 116.152 341.282 129.148 341.333 c 253.145
 341.333 l 266.141 341.282 277.309 332.114 279.895 319.38 c 297.371 232.106
 l 84.926 232.106 l h
81.922 54.614 m 81.922 47.071 75.809 40.962 68.266 40.962 c 60.727 40.962
 54.613 47.071 54.613 54.614 c 54.613 68.266 l 81.922 68.266 l h
327.68 54.614 m 327.68 47.071 321.566 40.962 314.027 40.962 c 306.484 40.962
 300.371 47.071 300.371 54.614 c 300.371 68.266 l 327.68 68.266 l h
354.988 109.227 m 354.988 101.688 348.875 95.575 341.332 95.575 c 40.961
 95.575 l 33.418 95.575 27.305 101.688 27.305 109.227 c 27.305 191.149 l
 27.305 198.688 33.418 204.801 40.961 204.801 c 341.332 204.801 l 348.875
 204.801 354.988 198.688 354.988 191.149 c h
354.988 109.227 m f
109.227 150.188 m 109.227 135.106 97 122.88 81.922 122.88 c 66.84 122.88
 54.613 135.106 54.613 150.188 c 54.613 165.266 66.84 177.493 81.922 177.493
 c 97 177.493 109.227 165.266 109.227 150.188 c h
109.227 150.188 m f
327.68 150.188 m 327.68 135.106 315.453 122.88 300.375 122.88 c 285.293
 122.88 273.066 135.106 273.066 150.188 c 273.066 165.266 285.293 177.493
 300.375 177.493 c 315.453 177.493 327.68 165.266 327.68 150.188 c h
327.68 150.188 m f
173.828 310.028 m 168.59 315.45 159.945 315.602 154.523 310.364 c 154.41
 310.255 154.297 310.141 154.188 310.028 c 113.227 269.067 l 107.805 263.829
 107.652 255.184 112.891 249.762 c 118.129 244.337 126.773 244.188 132.199
 249.426 c 132.312 249.536 132.422 249.649 132.531 249.762 c 173.492 290.719
 l 178.918 295.958 179.066 304.602 173.828 310.028 c h
173.828 310.028 m f
255.75 310.028 m 250.512 315.45 241.867 315.602 236.441 310.364 c 236.328
 310.255 236.219 310.141 236.105 310.028 c 195.148 269.067 l 189.723 263.829
 189.574 255.184 194.812 249.762 c 200.051 244.337 208.695 244.188 214.117
 249.426 c 214.23 249.536 214.344 249.649 214.453 249.762 c 255.414 290.719
 l 260.836 295.958 260.988 304.602 255.75 310.028 c h
255.75 310.028 m f
232.105 163.84 m 150.188 163.84 l 142.645 163.84 136.531 157.727 136.531
 150.188 c 136.531 142.645 142.645 136.532 150.188 136.532 c 232.105 136.532
 l 239.648 136.532 245.762 142.645 245.762 150.188 c 245.762 157.727 239.648
 163.84 232.105 163.84 c h
232.105 163.84 m f
Q Q
showpage
%%Trailer
end restore
%%EOF
