%!PS-Adobe-3.0 EPSF-3.0
%%Creator: cairo 1.14.2 (http://cairographics.org)
%%CreationDate: Wed May  9 09:18:00 2018
%%Pages: 1
%%DocumentData: Clean7Bit
%%LanguageLevel: 2
%%BoundingBox: 40 -1 342 383
%%EndComments
%%BeginProlog
save
50 dict begin
/q { gsave } bind def
/Q { grestore } bind def
/cm { 6 array astore concat } bind def
/w { setlinewidth } bind def
/J { setlinecap } bind def
/j { setlinejoin } bind def
/M { setmiterlimit } bind def
/d { setdash } bind def
/m { moveto } bind def
/l { lineto } bind def
/c { curveto } bind def
/h { closepath } bind def
/re { exch dup neg 3 1 roll 5 3 roll moveto 0 rlineto
      0 exch rlineto 0 rlineto closepath } bind def
/S { stroke } bind def
/f { fill } bind def
/f* { eofill } bind def
/n { newpath } bind def
/W { clip } bind def
/W* { eoclip } bind def
/BT { } bind def
/ET { } bind def
/pdfmark where { pop globaldict /?pdfmark /exec load put }
    { globaldict begin /?pdfmark /pop load def /pdfmark
    /cleartomark load def end } ifelse
/BDC { mark 3 1 roll /BDC pdfmark } bind def
/EMC { mark /EMC pdfmark } bind def
/cairo_store_point { /cairo_point_y exch def /cairo_point_x exch def } def
/Tj { show currentpoint cairo_store_point } bind def
/TJ {
  {
    dup
    type /stringtype eq
    { show } { -0.001 mul 0 cairo_font_matrix dtransform rmoveto } ifelse
  } forall
  currentpoint cairo_store_point
} bind def
/cairo_selectfont { cairo_font_matrix aload pop pop pop 0 0 6 array astore
    cairo_font exch selectfont cairo_point_x cairo_point_y moveto } bind def
/Tf { pop /cairo_font exch def /cairo_font_matrix where
      { pop cairo_selectfont } if } bind def
/Td { matrix translate cairo_font_matrix matrix concatmatrix dup
      /cairo_font_matrix exch def dup 4 get exch 5 get cairo_store_point
      /cairo_font where { pop cairo_selectfont } if } bind def
/Tm { 2 copy 8 2 roll 6 array astore /cairo_font_matrix exch def
      cairo_store_point /cairo_font where { pop cairo_selectfont } if } bind def
/g { setgray } bind def
/rg { setrgbcolor } bind def
/d1 { setcachedevice } bind def
%%EndProlog
%%BeginSetup
%%EndSetup
%%Page: 1 1
%%BeginPageSetup
%%PageBoundingBox: 40 -1 342 383
%%EndPageSetup
q 40 -1 302 384 rectclip q
0 g
300.375 382.294 m 81.922 382.294 l 59.297 382.294 40.961 363.954 40.961
 341.333 c 40.961 40.962 l 40.961 18.337 59.297 0.001 81.922 0.001 c 300.375
 0.001 l 322.996 0.001 341.332 18.337 341.332 40.962 c 341.332 341.333 l
 341.332 363.954 322.996 382.294 300.375 382.294 c h
314.027 40.962 m 314.027 33.419 307.914 27.305 300.371 27.305 c 81.922 
27.305 l 74.379 27.305 68.266 33.419 68.266 40.962 c 68.266 341.333 l 68.266
 348.876 74.379 354.989 81.922 354.989 c 300.375 354.989 l 307.914 354.989
 314.027 348.876 314.027 341.333 c h
314.027 40.962 m f
273.066 314.028 m 109.227 314.028 l 101.688 314.028 95.574 307.915 95.574
 300.372 c 95.574 245.758 l 95.574 238.219 101.688 232.106 109.227 232.106
 c 273.066 232.106 l 280.605 232.106 286.719 238.219 286.719 245.758 c 286.719
 300.372 l 286.719 307.915 280.605 314.028 273.066 314.028 c h
259.414 259.415 m 122.879 259.415 l 122.879 286.719 l 259.414 286.719 l
 h
259.414 259.415 m f
136.535 204.801 m 109.227 204.801 l 101.688 204.801 95.574 198.688 95.574
 191.145 c 95.574 183.606 101.688 177.493 109.227 177.493 c 136.531 177.493
 l 144.074 177.493 150.188 183.606 150.188 191.149 c 150.188 198.688 144.074
 204.801 136.535 204.801 c h
136.535 204.801 m f
204.801 204.801 m 177.492 204.801 l 169.953 204.801 163.84 198.688 163.84
 191.145 c 163.84 183.606 169.953 177.493 177.492 177.493 c 204.801 177.493
 l 212.34 177.493 218.453 183.606 218.453 191.149 c 218.453 198.688 212.34
 204.801 204.801 204.801 c h
204.801 204.801 m f
273.066 204.801 m 245.762 204.801 l 238.219 204.801 232.105 198.688 232.105
 191.145 c 232.105 183.606 238.219 177.493 245.762 177.493 c 273.066 177.493
 l 280.605 177.493 286.719 183.606 286.719 191.149 c 286.719 198.688 280.605
 204.801 273.066 204.801 c h
273.066 204.801 m f
136.535 150.188 m 109.227 150.188 l 101.688 150.188 95.574 144.075 95.574
 136.532 c 95.574 128.993 101.688 122.88 109.227 122.88 c 136.535 122.88
 l 144.074 122.88 150.188 128.993 150.188 136.532 c 150.188 144.075 144.074
 150.188 136.535 150.188 c h
136.535 150.188 m f
204.801 150.188 m 177.492 150.188 l 169.953 150.188 163.84 144.075 163.84
 136.532 c 163.84 128.993 169.953 122.88 177.492 122.88 c 204.801 122.88
 l 212.34 122.88 218.453 128.993 218.453 136.532 c 218.453 144.075 212.34
 150.188 204.801 150.188 c h
204.801 150.188 m f
273.066 150.188 m 245.762 150.188 l 238.219 150.188 232.105 144.075 232.105
 136.532 c 232.105 128.993 238.219 122.88 245.762 122.88 c 273.066 122.88
 l 280.605 122.88 286.719 128.993 286.719 136.532 c 286.719 144.075 280.605
 150.188 273.066 150.188 c h
273.066 150.188 m f
136.535 95.575 m 109.227 95.575 l 101.688 95.575 95.574 89.462 95.574 81.919
 c 95.574 74.38 101.688 68.266 109.227 68.266 c 136.535 68.266 l 144.074
 68.266 150.188 74.38 150.188 81.919 c 150.188 89.462 144.074 95.575 136.535
 95.575 c h
136.535 95.575 m f
204.801 95.575 m 177.492 95.575 l 169.953 95.575 163.84 89.462 163.84 81.919
 c 163.84 74.38 169.953 68.266 177.492 68.266 c 204.801 68.266 l 212.34 
68.266 218.453 74.38 218.453 81.919 c 218.453 89.462 212.34 95.575 204.801
 95.575 c h
204.801 95.575 m f
273.066 95.575 m 245.762 95.575 l 238.219 95.575 232.105 89.462 232.105
 81.919 c 232.105 74.38 238.219 68.266 245.762 68.266 c 273.066 68.266 l
 280.605 68.266 286.719 74.38 286.719 81.919 c 286.719 89.462 280.605 95.575
 273.066 95.575 c h
273.066 95.575 m f
Q Q
showpage
%%Trailer
end restore
%%EOF
