%!PS-Adobe-3.0 EPSF-3.0
%%Creator: cairo 1.14.2 (http://cairographics.org)
%%CreationDate: Wed May  9 09:18:00 2018
%%Pages: 1
%%DocumentData: Clean7Bit
%%LanguageLevel: 2
%%BoundingBox: 0 13 383 370
%%EndComments
%%BeginProlog
save
50 dict begin
/q { gsave } bind def
/Q { grestore } bind def
/cm { 6 array astore concat } bind def
/w { setlinewidth } bind def
/J { setlinecap } bind def
/j { setlinejoin } bind def
/M { setmiterlimit } bind def
/d { setdash } bind def
/m { moveto } bind def
/l { lineto } bind def
/c { curveto } bind def
/h { closepath } bind def
/re { exch dup neg 3 1 roll 5 3 roll moveto 0 rlineto
      0 exch rlineto 0 rlineto closepath } bind def
/S { stroke } bind def
/f { fill } bind def
/f* { eofill } bind def
/n { newpath } bind def
/W { clip } bind def
/W* { eoclip } bind def
/BT { } bind def
/ET { } bind def
/pdfmark where { pop globaldict /?pdfmark /exec load put }
    { globaldict begin /?pdfmark /pop load def /pdfmark
    /cleartomark load def end } ifelse
/BDC { mark 3 1 roll /BDC pdfmark } bind def
/EMC { mark /EMC pdfmark } bind def
/cairo_store_point { /cairo_point_y exch def /cairo_point_x exch def } def
/Tj { show currentpoint cairo_store_point } bind def
/TJ {
  {
    dup
    type /stringtype eq
    { show } { -0.001 mul 0 cairo_font_matrix dtransform rmoveto } ifelse
  } forall
  currentpoint cairo_store_point
} bind def
/cairo_selectfont { cairo_font_matrix aload pop pop pop 0 0 6 array astore
    cairo_font exch selectfont cairo_point_x cairo_point_y moveto } bind def
/Tf { pop /cairo_font exch def /cairo_font_matrix where
      { pop cairo_selectfont } if } bind def
/Td { matrix translate cairo_font_matrix matrix concatmatrix dup
      /cairo_font_matrix exch def dup 4 get exch 5 get cairo_store_point
      /cairo_font where { pop cairo_selectfont } if } bind def
/Tm { 2 copy 8 2 roll 6 array astore /cairo_font_matrix exch def
      cairo_store_point /cairo_font where { pop cairo_selectfont } if } bind def
/g { setgray } bind def
/rg { setrgbcolor } bind def
/d1 { setcachedevice } bind def
%%EndProlog
%%BeginSetup
%%EndSetup
%%Page: 1 1
%%BeginPageSetup
%%PageBoundingBox: 0 13 383 370
%%EndPageSetup
q 0 13 383 357 rectclip q
0 g
341.332 300.372 m 259.414 300.372 l 259.414 327.68 l 259.414 350.301 241.074
 368.641 218.453 368.641 c 163.84 368.641 l 141.219 368.641 122.879 350.301
 122.879 327.68 c 122.879 300.372 l 40.961 300.372 l 18.34 300.372 0 282.036
 0 259.415 c 0 54.614 l 0 31.993 18.34 13.653 40.961 13.653 c 341.332 13.653
 l 363.957 13.653 382.293 31.993 382.293 54.614 c 382.293 259.415 l 382.293
 282.036 363.957 300.372 341.332 300.372 c h
150.188 327.68 m 150.188 335.219 156.301 341.333 163.84 341.333 c 218.453
 341.333 l 225.996 341.333 232.105 335.219 232.105 327.68 c 232.105 300.372
 l 150.188 300.372 l h
40.961 40.962 m 33.418 40.962 27.305 47.071 27.305 54.614 c 27.305 79.981
 l 46.426 75.008 61.355 60.079 66.328 40.962 c h
354.988 54.614 m 354.988 47.071 348.875 40.962 341.332 40.962 c 315.965
 40.962 l 320.938 60.079 335.867 75.008 354.988 79.981 c h
354.988 107.997 m 320.684 102.137 293.812 75.266 287.949 40.962 c 94.344
 40.962 l 88.48 75.266 61.609 102.137 27.309 107.997 c 27.309 185.493 l 
44.961 167.84 l 47.52 165.282 50.992 163.84 54.613 163.84 c 177.492 163.84
 l 177.492 150.188 l 177.492 142.645 183.605 136.532 191.148 136.532 c 198.688
 136.532 204.801 142.645 204.801 150.188 c 204.801 163.84 l 327.68 163.84
 l 331.301 163.84 334.773 165.282 337.332 167.84 c 354.988 185.497 l h
354.988 224.106 m 322.027 191.149 l 204.801 191.149 l 204.801 204.801 l
 204.801 212.34 198.688 218.454 191.145 218.454 c 183.605 218.454 177.492
 212.34 177.492 204.801 c 177.492 191.149 l 60.266 191.149 l 27.305 224.106
 l 27.305 259.415 l 27.305 266.954 33.418 273.067 40.961 273.067 c 341.332
 273.067 l 348.875 273.067 354.988 266.954 354.988 259.415 c h
354.988 224.106 m f
Q Q
showpage
%%Trailer
end restore
%%EOF
