%!PS-Adobe-3.0 EPSF-3.0
%%Creator: cairo 1.14.2 (http://cairographics.org)
%%CreationDate: Wed May  9 09:18:00 2018
%%Pages: 1
%%DocumentData: Clean7Bit
%%LanguageLevel: 2
%%BoundingBox: 2 -1 382 384
%%EndComments
%%BeginProlog
save
50 dict begin
/q { gsave } bind def
/Q { grestore } bind def
/cm { 6 array astore concat } bind def
/w { setlinewidth } bind def
/J { setlinecap } bind def
/j { setlinejoin } bind def
/M { setmiterlimit } bind def
/d { setdash } bind def
/m { moveto } bind def
/l { lineto } bind def
/c { curveto } bind def
/h { closepath } bind def
/re { exch dup neg 3 1 roll 5 3 roll moveto 0 rlineto
      0 exch rlineto 0 rlineto closepath } bind def
/S { stroke } bind def
/f { fill } bind def
/f* { eofill } bind def
/n { newpath } bind def
/W { clip } bind def
/W* { eoclip } bind def
/BT { } bind def
/ET { } bind def
/pdfmark where { pop globaldict /?pdfmark /exec load put }
    { globaldict begin /?pdfmark /pop load def /pdfmark
    /cleartomark load def end } ifelse
/BDC { mark 3 1 roll /BDC pdfmark } bind def
/EMC { mark /EMC pdfmark } bind def
/cairo_store_point { /cairo_point_y exch def /cairo_point_x exch def } def
/Tj { show currentpoint cairo_store_point } bind def
/TJ {
  {
    dup
    type /stringtype eq
    { show } { -0.001 mul 0 cairo_font_matrix dtransform rmoveto } ifelse
  } forall
  currentpoint cairo_store_point
} bind def
/cairo_selectfont { cairo_font_matrix aload pop pop pop 0 0 6 array astore
    cairo_font exch selectfont cairo_point_x cairo_point_y moveto } bind def
/Tf { pop /cairo_font exch def /cairo_font_matrix where
      { pop cairo_selectfont } if } bind def
/Td { matrix translate cairo_font_matrix matrix concatmatrix dup
      /cairo_font_matrix exch def dup 4 get exch 5 get cairo_store_point
      /cairo_font where { pop cairo_selectfont } if } bind def
/Tm { 2 copy 8 2 roll 6 array astore /cairo_font_matrix exch def
      cairo_store_point /cairo_font where { pop cairo_selectfont } if } bind def
/g { setgray } bind def
/rg { setrgbcolor } bind def
/d1 { setcachedevice } bind def
%%EndProlog
%%BeginSetup
%%EndSetup
%%Page: 1 1
%%BeginPageSetup
%%PageBoundingBox: 2 -1 382 384
%%EndPageSetup
q 2 -1 380 385 rectclip q
0 g
380.684 114.594 m 380.332 116.84 379.793 119.055 379.07 121.215 c 372.172
 140.406 352.508 151.891 332.402 148.465 c 325.754 147.418 319.512 151.961
 318.465 158.609 c 308.348 223.34 l 300.043 278.109 260.477 322.961 207.176
 338.031 c 202.328 367.699 174.344 387.824 144.672 382.976 c 115.395 378.191
 95.34 350.844 99.574 321.48 c 53.629 292.406 29.375 238.789 37.875 185.086
 c 48.715 116.191 l 49.707 109.555 45.191 103.348 38.57 102.25 c 18.383 
99.336 3.191 82.371 2.512 61.988 c 2.277 39.367 20.426 20.84 43.047 20.605
 c 43.188 20.605 43.332 20.601 43.473 20.601 c 45.605 20.605 47.738 20.769
 49.848 21.094 c 91.871 27.703 l 106.492 1.605 139.5 -7.699 165.598 6.918
 c 179.383 14.641 189.105 27.996 192.227 43.484 c 346.574 67.773 l 368.922
 71.285 384.195 92.246 380.684 114.594 c h
149.422 354.644 m 150.844 354.867 152.281 354.98 153.723 354.988 c 162.875
 354.937 171.402 350.328 176.457 342.699 c 175.801 342.699 l 170.707 342.851
 165.609 342.707 160.535 342.262 c 155.191 341.75 149.879 340.93 144.629
 339.805 c 143.496 339.57 142.375 339.242 141.258 338.973 c 136.957 337.961
 132.734 336.773 128.598 335.367 c 128.191 335.242 127.766 335.176 127.355
 335.023 c 130.238 345.32 138.859 352.988 149.422 354.644 c h
139.043 27.305 m 133.258 27.301 127.625 29.156 122.977 32.605 c 161.203
 38.598 l 156.059 31.492 147.816 27.293 139.043 27.305 c h
351.859 101.129 m 349.77 97.695 346.273 95.359 342.301 94.738 c 177.848
 68.883 l 97.934 56.305 l 45.645 48.113 l 41.68 47.469 37.637 48.617 34.609
 51.254 c 31.523 53.891 29.766 57.762 29.82 61.824 c 30.41 68.824 35.84 
74.449 42.816 75.285 c 64.32 78.73 79.004 98.898 75.68 120.422 c 64.852 
189.316 l 57.762 234.769 79.832 279.805 120.094 302.051 c 120.332 302.133
 120.562 302.223 120.789 302.324 c 133.859 309.406 148.23 313.746 163.035
 315.078 c 167.52 315.473 172.027 315.558 176.523 315.336 c 178.762 315.226
 l 183.414 314.945 188.043 314.363 192.621 313.476 c 193.059 313.476 l 239.258
 303.484 274.418 265.894 281.312 219.133 c 291.5 154.402 l 294.883 132.859
 315.09 118.133 336.637 121.512 c 343.523 122.855 350.406 119.187 353.129
 112.719 c 354.461 108.863 353.996 104.609 351.859 101.129 c h
351.859 101.129 m f
Q Q
showpage
%%Trailer
end restore
%%EOF
