%!PS-Adobe-3.0 EPSF-3.0
%%Creator: cairo 1.14.2 (http://cairographics.org)
%%CreationDate: Wed May  9 09:18:00 2018
%%Pages: 1
%%DocumentData: Clean7Bit
%%LanguageLevel: 2
%%BoundingBox: 0 -1 383 383
%%EndComments
%%BeginProlog
save
50 dict begin
/q { gsave } bind def
/Q { grestore } bind def
/cm { 6 array astore concat } bind def
/w { setlinewidth } bind def
/J { setlinecap } bind def
/j { setlinejoin } bind def
/M { setmiterlimit } bind def
/d { setdash } bind def
/m { moveto } bind def
/l { lineto } bind def
/c { curveto } bind def
/h { closepath } bind def
/re { exch dup neg 3 1 roll 5 3 roll moveto 0 rlineto
      0 exch rlineto 0 rlineto closepath } bind def
/S { stroke } bind def
/f { fill } bind def
/f* { eofill } bind def
/n { newpath } bind def
/W { clip } bind def
/W* { eoclip } bind def
/BT { } bind def
/ET { } bind def
/pdfmark where { pop globaldict /?pdfmark /exec load put }
    { globaldict begin /?pdfmark /pop load def /pdfmark
    /cleartomark load def end } ifelse
/BDC { mark 3 1 roll /BDC pdfmark } bind def
/EMC { mark /EMC pdfmark } bind def
/cairo_store_point { /cairo_point_y exch def /cairo_point_x exch def } def
/Tj { show currentpoint cairo_store_point } bind def
/TJ {
  {
    dup
    type /stringtype eq
    { show } { -0.001 mul 0 cairo_font_matrix dtransform rmoveto } ifelse
  } forall
  currentpoint cairo_store_point
} bind def
/cairo_selectfont { cairo_font_matrix aload pop pop pop 0 0 6 array astore
    cairo_font exch selectfont cairo_point_x cairo_point_y moveto } bind def
/Tf { pop /cairo_font exch def /cairo_font_matrix where
      { pop cairo_selectfont } if } bind def
/Td { matrix translate cairo_font_matrix matrix concatmatrix dup
      /cairo_font_matrix exch def dup 4 get exch 5 get cairo_store_point
      /cairo_font where { pop cairo_selectfont } if } bind def
/Tm { 2 copy 8 2 roll 6 array astore /cairo_font_matrix exch def
      cairo_store_point /cairo_font where { pop cairo_selectfont } if } bind def
/g { setgray } bind def
/rg { setrgbcolor } bind def
/d1 { setcachedevice } bind def
%%EndProlog
%%BeginSetup
%%EndSetup
%%Page: 1 1
%%BeginPageSetup
%%PageBoundingBox: 0 -1 383 383
%%EndPageSetup
q 0 -1 383 384 rectclip q
0 g
327.688 245.764 m 268.664 245.764 l 217.488 373.709 l 215.418 378.897 210.395
 382.299 204.805 382.295 c 150.191 382.295 l 142.652 382.295 136.539 376.186
 136.539 368.643 c 136.539 368.19 136.562 367.733 136.605 367.28 c 148.828
 245.764 l 91.77 245.764 l 81.215 277.385 l 79.359 282.959 74.145 286.721
 68.273 286.725 c 13.66 286.725 l 6.117 286.725 0.004 280.612 0.004 273.073
 c 0.004 272.155 0.094 271.241 0.277 270.338 c 13.66 203.44 l 13.66 178.862
 l 0.277 111.959 l -1.23 104.573 3.535 97.362 10.926 95.854 c 11.824 95.67
 12.742 95.577 13.66 95.577 c 68.273 95.577 l 74.145 95.58 79.359 99.342
 81.215 104.916 c 91.77 136.537 l 148.828 136.537 l 136.676 15.022 l 136.273
 11.19 137.508 7.37 140.074 4.495 c 142.664 1.639 146.336 0.006 150.191 
0.002 c 204.805 0.002 l 210.395 0.002 215.418 3.405 217.492 8.592 c 268.664
 136.537 l 327.688 136.537 l 357.848 136.537 382.301 160.991 382.301 191.151
 c 382.301 221.315 357.848 245.764 327.688 245.764 c h
327.688 163.842 m 259.418 163.842 l 253.832 163.846 248.809 160.444 246.734
 155.256 c 195.562 27.311 l 165.277 27.311 l 177.5 148.823 l 178.254 156.327
 172.781 163.022 165.281 163.776 c 164.805 163.823 164.324 163.846 163.848
 163.842 c 81.926 163.842 l 76.051 163.838 70.84 160.077 68.984 154.502 
c 58.43 122.885 l 30.316 122.885 l 40.691 174.764 l 40.875 175.662 40.965
 176.58 40.965 177.495 c 40.965 204.803 l 40.965 205.721 40.875 206.635 
40.691 207.534 c 30.316 259.416 l 58.43 259.416 l 68.98 227.795 l 70.84 
222.221 76.051 218.459 81.926 218.455 c 163.844 218.455 l 171.387 218.42
 177.531 224.498 177.566 232.041 c 177.57 232.522 177.547 232.998 177.5 
233.475 c 165.277 354.991 l 195.562 354.991 l 246.734 227.045 l 248.809 
221.858 253.832 218.455 259.418 218.455 c 327.688 218.455 l 342.766 218.455
 354.992 206.229 354.992 191.151 c 354.992 176.069 342.766 163.842 327.688
 163.842 c h
327.688 163.842 m f
Q Q
showpage
%%Trailer
end restore
%%EOF
