%!PS-Adobe-3.0 EPSF-3.0
%%Creator: cairo 1.14.2 (http://cairographics.org)
%%CreationDate: Wed May  9 09:18:00 2018
%%Pages: 1
%%DocumentData: Clean7Bit
%%LanguageLevel: 2
%%BoundingBox: 0 -1 383 383
%%EndComments
%%BeginProlog
save
50 dict begin
/q { gsave } bind def
/Q { grestore } bind def
/cm { 6 array astore concat } bind def
/w { setlinewidth } bind def
/J { setlinecap } bind def
/j { setlinejoin } bind def
/M { setmiterlimit } bind def
/d { setdash } bind def
/m { moveto } bind def
/l { lineto } bind def
/c { curveto } bind def
/h { closepath } bind def
/re { exch dup neg 3 1 roll 5 3 roll moveto 0 rlineto
      0 exch rlineto 0 rlineto closepath } bind def
/S { stroke } bind def
/f { fill } bind def
/f* { eofill } bind def
/n { newpath } bind def
/W { clip } bind def
/W* { eoclip } bind def
/BT { } bind def
/ET { } bind def
/pdfmark where { pop globaldict /?pdfmark /exec load put }
    { globaldict begin /?pdfmark /pop load def /pdfmark
    /cleartomark load def end } ifelse
/BDC { mark 3 1 roll /BDC pdfmark } bind def
/EMC { mark /EMC pdfmark } bind def
/cairo_store_point { /cairo_point_y exch def /cairo_point_x exch def } def
/Tj { show currentpoint cairo_store_point } bind def
/TJ {
  {
    dup
    type /stringtype eq
    { show } { -0.001 mul 0 cairo_font_matrix dtransform rmoveto } ifelse
  } forall
  currentpoint cairo_store_point
} bind def
/cairo_selectfont { cairo_font_matrix aload pop pop pop 0 0 6 array astore
    cairo_font exch selectfont cairo_point_x cairo_point_y moveto } bind def
/Tf { pop /cairo_font exch def /cairo_font_matrix where
      { pop cairo_selectfont } if } bind def
/Td { matrix translate cairo_font_matrix matrix concatmatrix dup
      /cairo_font_matrix exch def dup 4 get exch 5 get cairo_store_point
      /cairo_font where { pop cairo_selectfont } if } bind def
/Tm { 2 copy 8 2 roll 6 array astore /cairo_font_matrix exch def
      cairo_store_point /cairo_font where { pop cairo_selectfont } if } bind def
/g { setgray } bind def
/rg { setrgbcolor } bind def
/d1 { setcachedevice } bind def
%%EndProlog
%%BeginSetup
%%EndSetup
%%Page: 1 1
%%BeginPageSetup
%%PageBoundingBox: 0 -1 383 383
%%EndPageSetup
q 0 -1 383 384 rectclip q
0 g
368.641 122.88 m 121.281 122.88 l 95.465 329.372 l 94.609 336.204 88.805
 341.333 81.922 341.333 c 13.652 341.333 l 6.113 341.333 0 335.219 0 327.68
 c 0 320.137 6.113 314.028 13.652 314.028 c 69.863 314.028 l 95.684 107.532
 l 96.535 100.704 102.344 95.575 109.227 95.575 c 368.641 95.575 l 376.18
 95.575 382.293 101.688 382.293 109.227 c 382.293 116.766 376.18 122.88 
368.641 122.88 c h
368.641 122.88 m f
150.188 81.919 m 127.566 81.919 109.227 63.583 109.227 40.962 c 109.227
 18.337 127.566 0.001 150.188 0.001 c 172.809 0.001 191.145 18.337 191.145
 40.962 c 191.145 63.583 172.809 81.919 150.188 81.919 c h
150.188 27.305 m 142.645 27.305 136.531 33.419 136.531 40.962 c 136.531
 48.501 142.645 54.614 150.188 54.614 c 157.727 54.614 163.84 48.501 163.84
 40.962 c 163.84 33.419 157.727 27.305 150.188 27.305 c h
150.188 27.305 m f
314.027 81.919 m 291.406 81.919 273.066 63.583 273.066 40.962 c 273.066
 18.337 291.406 0.001 314.027 0.001 c 336.648 0.001 354.988 18.337 354.988
 40.962 c 354.988 63.583 336.648 81.919 314.027 81.919 c h
314.027 27.305 m 306.484 27.305 300.371 33.419 300.371 40.962 c 300.371
 48.501 306.484 54.614 314.027 54.614 c 321.566 54.614 327.68 48.501 327.68
 40.962 c 327.68 33.419 321.566 27.305 314.027 27.305 c h
314.027 27.305 m f
368.641 341.333 m 314.027 341.333 l 306.484 341.333 300.371 335.219 300.371
 327.68 c 300.371 320.137 306.484 314.028 314.027 314.028 c 354.988 314.028
 l 354.988 177.493 l 175.402 177.493 l 152.656 314.028 l 204.801 314.028
 l 212.34 314.028 218.453 320.141 218.453 327.68 c 218.453 335.223 212.34
 341.333 204.801 341.333 c 136.535 341.333 l 128.992 341.329 122.883 335.215
 122.887 327.673 c 122.887 326.926 122.949 326.18 123.07 325.442 c 150.379
 161.602 l 151.473 155.016 157.164 150.188 163.84 150.188 c 368.641 150.188
 l 376.18 150.188 382.293 156.298 382.293 163.84 c 382.293 327.68 l 382.293
 335.219 376.18 341.333 368.641 341.333 c h
368.641 341.333 m f
309.719 269.067 m 304.426 274.176 296.039 274.176 290.746 269.067 c 273.066
 251.415 l 273.066 368.641 l 273.066 376.18 266.953 382.294 259.414 382.294
 c 251.871 382.294 245.762 376.18 245.762 368.641 c 245.762 251.415 l 228.105
 269.067 l 222.684 274.305 214.039 274.153 208.801 268.731 c 203.691 263.438
 203.691 255.051 208.801 249.762 c 249.762 208.801 l 255.086 203.462 263.73
 203.45 269.07 208.774 c 269.094 208.801 l 310.055 249.762 l 315.293 255.184
 315.141 263.829 309.719 269.067 c h
309.719 269.067 m f
Q Q
showpage
%%Trailer
end restore
%%EOF
