%!PS-Adobe-3.0 EPSF-3.0
%%Creator: cairo 1.14.2 (http://cairographics.org)
%%CreationDate: Thu Apr 12 10:00:28 2018
%%Pages: 1
%%DocumentData: Clean7Bit
%%LanguageLevel: 2
%%BoundingBox: 0 -1 410 410
%%EndComments
%%BeginProlog
save
50 dict begin
/q { gsave } bind def
/Q { grestore } bind def
/cm { 6 array astore concat } bind def
/w { setlinewidth } bind def
/J { setlinecap } bind def
/j { setlinejoin } bind def
/M { setmiterlimit } bind def
/d { setdash } bind def
/m { moveto } bind def
/l { lineto } bind def
/c { curveto } bind def
/h { closepath } bind def
/re { exch dup neg 3 1 roll 5 3 roll moveto 0 rlineto
      0 exch rlineto 0 rlineto closepath } bind def
/S { stroke } bind def
/f { fill } bind def
/f* { eofill } bind def
/n { newpath } bind def
/W { clip } bind def
/W* { eoclip } bind def
/BT { } bind def
/ET { } bind def
/pdfmark where { pop globaldict /?pdfmark /exec load put }
    { globaldict begin /?pdfmark /pop load def /pdfmark
    /cleartomark load def end } ifelse
/BDC { mark 3 1 roll /BDC pdfmark } bind def
/EMC { mark /EMC pdfmark } bind def
/cairo_store_point { /cairo_point_y exch def /cairo_point_x exch def } def
/Tj { show currentpoint cairo_store_point } bind def
/TJ {
  {
    dup
    type /stringtype eq
    { show } { -0.001 mul 0 cairo_font_matrix dtransform rmoveto } ifelse
  } forall
  currentpoint cairo_store_point
} bind def
/cairo_selectfont { cairo_font_matrix aload pop pop pop 0 0 6 array astore
    cairo_font exch selectfont cairo_point_x cairo_point_y moveto } bind def
/Tf { pop /cairo_font exch def /cairo_font_matrix where
      { pop cairo_selectfont } if } bind def
/Td { matrix translate cairo_font_matrix matrix concatmatrix dup
      /cairo_font_matrix exch def dup 4 get exch 5 get cairo_store_point
      /cairo_font where { pop cairo_selectfont } if } bind def
/Tm { 2 copy 8 2 roll 6 array astore /cairo_font_matrix exch def
      cairo_store_point /cairo_font where { pop cairo_selectfont } if } bind def
/g { setgray } bind def
/rg { setrgbcolor } bind def
/d1 { setcachedevice } bind def
%%EndProlog
%%BeginSetup
%%EndSetup
%%Page: 1 1
%%BeginPageSetup
%%PageBoundingBox: 0 -1 410 410
%%EndPageSetup
q 0 -1 410 411 rectclip q
0.94902 g
325.602 -0.002 m 84 -0.002 l 37.684 -0.002 0 37.682 0 83.998 c 0 325.6 
l 0 371.916 37.684 409.6 84 409.6 c 325.602 409.6 l 371.918 409.6 409.602
 371.916 409.602 325.6 c 409.602 83.998 l 409.602 37.682 371.918 -0.002 
325.602 -0.002 c h
325.602 -0.002 m f
0.898039 g
325.602 409.6 m 204.801 409.6 l 204.801 -0.002 l 325.602 -0.002 l 371.918
 -0.002 409.602 37.682 409.602 83.998 c 409.602 325.6 l 409.602 371.916 
371.918 409.6 325.602 409.6 c h
325.602 409.6 m f
0 0.764706 1 rg
204.801 47.998 m 118.34 47.998 48 118.338 48 204.799 c 48 291.26 118.34
 361.6 204.801 361.6 c 291.262 361.6 361.602 291.26 361.602 204.799 c 361.602
 118.338 291.262 47.998 204.801 47.998 c h
204.801 47.998 m f
0 0.666667 0.941176 rg
204.801 361.6 m 204.801 47.998 l 291.262 47.998 361.602 118.338 361.602
 204.799 c 361.602 291.26 291.262 361.6 204.801 361.6 c h
204.801 361.6 m f
1 g
137.812 137.815 m 188.055 221.545 l 271.785 271.788 l 221.547 188.053 l
 h
137.812 137.815 m f
110.637 298.35 m 125.672 280.432 l 144.059 295.858 l 129.012 313.788 l 
122.43 309.198 116.277 304.03 110.637 298.35 c h
110.637 298.35 m f
104.578 248.807 m 116.578 269.592 l 96.305 281.295 l 91.699 274.78 87.668
 267.83 84.277 260.53 c h
104.578 248.807 m f
95.57 211.873 m 99.738 235.51 l 76.633 239.584 l 74.559 231.955 73.148 
224.053 72.473 215.948 c h
95.57 211.873 m f
216.801 337.053 m 212.844 337.409 208.844 337.6 204.801 337.6 c 200.754
 337.6 196.754 337.409 192.801 337.053 c 192.801 313.6 l 216.801 313.6 l
 h
216.801 337.053 m f
0.94902 g
325.324 260.53 m 321.934 267.83 317.902 274.78 313.297 281.295 c 293.023
 269.592 l 305.023 248.807 l h
325.324 260.53 m f
280.586 313.788 m 265.543 295.858 l 283.926 280.432 l 298.961 298.35 l 
293.32 304.03 287.168 309.198 280.586 313.788 c h
280.586 313.788 m f
1 g
99.738 174.088 m 95.57 197.725 l 72.473 193.651 l 73.148 185.545 74.559
 177.647 76.633 170.014 c h
99.738 174.088 m f
0.94902 g
261.305 324.959 m 254.117 328.354 246.578 331.123 238.762 333.194 c 230.734
 311.143 l 253.289 302.936 l h
261.305 324.959 m f
1 g
156.312 302.936 m 178.863 311.143 l 170.84 333.194 l 163.02 331.123 155.48
 328.354 148.297 324.959 c h
156.312 302.936 m f
0.94902 g
314.031 197.725 m 309.863 174.088 l 332.969 170.014 l 335.043 177.647 336.449
 185.545 337.129 193.651 c h
314.031 197.725 m f
305.023 160.791 m 293.023 140.006 l 313.293 128.303 l 317.902 134.819 321.934
 141.768 325.324 149.073 c h
305.023 160.791 m f
1 g
116.578 140.006 m 104.578 160.791 l 84.277 149.073 l 87.668 141.768 91.699
 134.819 96.305 128.303 c h
116.578 140.006 m f
0.94902 g
309.863 235.51 m 314.031 211.873 l 337.129 215.948 l 336.453 224.053 335.043
 231.955 332.969 239.584 c h
309.863 235.51 m f
298.961 111.248 m 283.926 129.166 l 265.543 113.741 l 280.586 95.811 l 
287.168 100.405 293.32 105.573 298.961 111.248 c h
298.961 111.248 m f
253.289 106.666 m 230.734 98.455 l 238.762 76.409 l 246.578 78.479 254.117
 81.245 261.305 84.639 c h
253.289 106.666 m f
1 g
178.863 98.455 m 156.312 106.666 l 148.297 84.639 l 155.484 81.245 163.02
 78.479 170.84 76.409 c h
178.863 98.455 m f
129.012 95.811 m 144.059 113.741 l 125.672 129.166 l 110.637 111.252 l 
116.277 105.573 122.43 100.405 129.012 95.811 c h
129.012 95.811 m f
216.801 72.549 m 216.801 95.998 l 192.801 95.998 l 192.801 72.549 l 196.754
 72.194 200.754 71.998 204.801 71.998 c 208.844 71.998 212.844 72.194 216.801
 72.549 c h
216.801 72.549 m f
0.94902 g
204.801 71.998 m 208.844 71.998 212.844 72.194 216.801 72.549 c 216.801
 95.998 l 204.801 95.998 l h
204.801 71.998 m f
204.801 337.6 m 204.801 313.6 l 216.801 313.6 l 216.801 337.053 l 212.844
 337.409 208.844 337.6 204.801 337.6 c h
204.801 337.6 m f
0.866667 0.180392 0.266667 rg
188.055 221.545 m 271.785 271.788 l 221.547 188.053 l h
188.055 221.545 m f
Q Q
showpage
%%Trailer
end restore
%%EOF
