%!PS-Adobe-3.0 EPSF-3.0
%%Creator: cairo 1.14.2 (http://cairographics.org)
%%CreationDate: Thu Apr 12 10:00:28 2018
%%Pages: 1
%%DocumentData: Clean7Bit
%%LanguageLevel: 2
%%BoundingBox: 0 -1 410 410
%%EndComments
%%BeginProlog
save
50 dict begin
/q { gsave } bind def
/Q { grestore } bind def
/cm { 6 array astore concat } bind def
/w { setlinewidth } bind def
/J { setlinecap } bind def
/j { setlinejoin } bind def
/M { setmiterlimit } bind def
/d { setdash } bind def
/m { moveto } bind def
/l { lineto } bind def
/c { curveto } bind def
/h { closepath } bind def
/re { exch dup neg 3 1 roll 5 3 roll moveto 0 rlineto
      0 exch rlineto 0 rlineto closepath } bind def
/S { stroke } bind def
/f { fill } bind def
/f* { eofill } bind def
/n { newpath } bind def
/W { clip } bind def
/W* { eoclip } bind def
/BT { } bind def
/ET { } bind def
/pdfmark where { pop globaldict /?pdfmark /exec load put }
    { globaldict begin /?pdfmark /pop load def /pdfmark
    /cleartomark load def end } ifelse
/BDC { mark 3 1 roll /BDC pdfmark } bind def
/EMC { mark /EMC pdfmark } bind def
/cairo_store_point { /cairo_point_y exch def /cairo_point_x exch def } def
/Tj { show currentpoint cairo_store_point } bind def
/TJ {
  {
    dup
    type /stringtype eq
    { show } { -0.001 mul 0 cairo_font_matrix dtransform rmoveto } ifelse
  } forall
  currentpoint cairo_store_point
} bind def
/cairo_selectfont { cairo_font_matrix aload pop pop pop 0 0 6 array astore
    cairo_font exch selectfont cairo_point_x cairo_point_y moveto } bind def
/Tf { pop /cairo_font exch def /cairo_font_matrix where
      { pop cairo_selectfont } if } bind def
/Td { matrix translate cairo_font_matrix matrix concatmatrix dup
      /cairo_font_matrix exch def dup 4 get exch 5 get cairo_store_point
      /cairo_font where { pop cairo_selectfont } if } bind def
/Tm { 2 copy 8 2 roll 6 array astore /cairo_font_matrix exch def
      cairo_store_point /cairo_font where { pop cairo_selectfont } if } bind def
/g { setgray } bind def
/rg { setrgbcolor } bind def
/d1 { setcachedevice } bind def
%%EndProlog
%%BeginSetup
%%EndSetup
%%Page: 1 1
%%BeginPageSetup
%%PageBoundingBox: 0 -1 410 410
%%EndPageSetup
q 0 -1 410 411 rectclip q
0.341176 0.337255 0.360784 rg
325.602 -0.002 m 84 -0.002 l 37.684 -0.002 0 37.682 0 83.998 c 0 325.6 
l 0 371.916 37.684 409.6 84 409.6 c 325.602 409.6 l 371.918 409.6 409.602
 371.916 409.602 325.6 c 409.602 83.998 l 409.602 37.682 371.918 -0.002 
325.602 -0.002 c h
325.602 -0.002 m f
0.243137 0.239216 0.258824 rg
325.602 409.6 m 204.801 409.6 l 204.801 -0.002 l 325.602 -0.002 l 371.918
 -0.002 409.602 37.682 409.602 83.998 c 409.602 325.6 l 409.602 371.916 
371.918 409.6 325.602 409.6 c h
325.602 409.6 m f
0 0.764706 1 rg
72.801 296.799 264 -35.199 re f
0 0.666667 0.941176 rg
204.801 296.799 132 -35.199 re f
1 0.862745 0.25098 rg
72.801 268.799 264 -35.199 re f
1 0.670588 0.0823529 rg
204.801 268.799 132 -35.199 re f
0.529412 0.901961 0.580392 rg
72.801 244.799 264 -35.199 re f
0.4 0.8 0.439216 rg
204.801 244.799 132 -35.199 re f
0.94902 g
336.801 104.799 m 336.801 98.174 331.426 92.799 324.801 92.799 c 84.801
 92.799 l 78.172 92.799 72.801 98.174 72.801 104.799 c 72.801 172.799 l 
144.797 172.799 l 152.246 172.799 158.949 168.85 162.293 162.491 c 170.621
 146.643 186.91 136.799 204.801 136.799 c 222.691 136.799 238.977 146.643
 247.309 162.491 c 250.652 168.85 257.355 172.799 264.801 172.799 c 336.801
 172.799 l h
336.801 104.799 m f
1 0.407843 0.286275 rg
336.801 196.799 m 264.801 196.799 l 248.414 196.799 233.57 187.932 226.062
 173.659 c 221.895 165.725 213.746 160.799 204.801 160.799 c 195.852 160.799
 187.703 165.725 183.535 173.659 c 176.031 187.932 161.188 196.799 144.797
 196.799 c 72.801 196.799 l 72.801 220.799 l 336.801 220.799 l h
336.801 196.799 m f
0.94902 g
336.801 292.799 m 72.801 292.799 l 72.801 304.799 l 72.801 311.428 78.172
 316.799 84.801 316.799 c 324.801 316.799 l 331.426 316.799 336.801 311.428
 336.801 304.799 c h
336.801 292.799 m f
0.898039 g
264.801 172.799 m 257.355 172.799 250.652 168.85 247.309 162.491 c 238.977
 146.643 222.691 136.799 204.801 136.799 c 204.801 92.799 l 324.801 92.799
 l 331.426 92.799 336.801 98.174 336.801 104.799 c 336.801 172.799 l h
264.801 172.799 m f
0.992157 0.294118 0.176471 rg
204.801 220.799 m 204.801 160.799 l 213.746 160.799 221.895 165.725 226.062
 173.659 c 233.57 187.932 248.414 196.799 264.801 196.799 c 336.801 196.799
 l 336.801 220.799 l h
204.801 220.799 m f
0.898039 g
324.801 316.799 m 204.801 316.799 l 204.801 292.799 l 336.801 292.799 l
 336.801 304.799 l 336.801 311.428 331.426 316.799 324.801 316.799 c h
324.801 316.799 m f
Q Q
showpage
%%Trailer
end restore
%%EOF
