%!PS-Adobe-3.0 EPSF-3.0
%%Creator: cairo 1.14.2 (http://cairographics.org)
%%CreationDate: Thu Apr 12 10:00:28 2018
%%Pages: 1
%%DocumentData: Clean7Bit
%%LanguageLevel: 2
%%BoundingBox: 0 -1 410 410
%%EndComments
%%BeginProlog
save
50 dict begin
/q { gsave } bind def
/Q { grestore } bind def
/cm { 6 array astore concat } bind def
/w { setlinewidth } bind def
/J { setlinecap } bind def
/j { setlinejoin } bind def
/M { setmiterlimit } bind def
/d { setdash } bind def
/m { moveto } bind def
/l { lineto } bind def
/c { curveto } bind def
/h { closepath } bind def
/re { exch dup neg 3 1 roll 5 3 roll moveto 0 rlineto
      0 exch rlineto 0 rlineto closepath } bind def
/S { stroke } bind def
/f { fill } bind def
/f* { eofill } bind def
/n { newpath } bind def
/W { clip } bind def
/W* { eoclip } bind def
/BT { } bind def
/ET { } bind def
/pdfmark where { pop globaldict /?pdfmark /exec load put }
    { globaldict begin /?pdfmark /pop load def /pdfmark
    /cleartomark load def end } ifelse
/BDC { mark 3 1 roll /BDC pdfmark } bind def
/EMC { mark /EMC pdfmark } bind def
/cairo_store_point { /cairo_point_y exch def /cairo_point_x exch def } def
/Tj { show currentpoint cairo_store_point } bind def
/TJ {
  {
    dup
    type /stringtype eq
    { show } { -0.001 mul 0 cairo_font_matrix dtransform rmoveto } ifelse
  } forall
  currentpoint cairo_store_point
} bind def
/cairo_selectfont { cairo_font_matrix aload pop pop pop 0 0 6 array astore
    cairo_font exch selectfont cairo_point_x cairo_point_y moveto } bind def
/Tf { pop /cairo_font exch def /cairo_font_matrix where
      { pop cairo_selectfont } if } bind def
/Td { matrix translate cairo_font_matrix matrix concatmatrix dup
      /cairo_font_matrix exch def dup 4 get exch 5 get cairo_store_point
      /cairo_font where { pop cairo_selectfont } if } bind def
/Tm { 2 copy 8 2 roll 6 array astore /cairo_font_matrix exch def
      cairo_store_point /cairo_font where { pop cairo_selectfont } if } bind def
/g { setgray } bind def
/rg { setrgbcolor } bind def
/d1 { setcachedevice } bind def
%%EndProlog
%%BeginSetup
%%EndSetup
%%Page: 1 1
%%BeginPageSetup
%%PageBoundingBox: 0 -1 410 410
%%EndPageSetup
q 0 -1 410 411 rectclip q
0.341176 0.337255 0.360784 rg
325.602 -0.002 m 84 -0.002 l 37.684 -0.002 0 37.682 0 83.998 c 0 325.6 
l 0 371.916 37.684 409.6 84 409.6 c 325.602 409.6 l 371.918 409.6 409.602
 371.916 409.602 325.6 c 409.602 83.998 l 409.602 37.682 371.918 -0.002 
325.602 -0.002 c h
325.602 -0.002 m f
0.243137 0.239216 0.258824 rg
325.602 409.6 m 204.801 409.6 l 204.801 -0.002 l 325.602 -0.002 l 371.918
 -0.002 409.602 37.682 409.602 83.998 c 409.602 325.6 l 409.602 371.916 
371.918 409.6 325.602 409.6 c h
325.602 409.6 m f
1 0.407843 0.286275 rg
340.801 324.799 m 356.801 372.799 l 308.801 356.799 l h
340.801 324.799 m f
1 g
192.801 361.6 24 -40 re f
153.566 310.455 m 139.887 348.045 l 162.441 356.252 l 176.121 318.666 l
 h
153.566 310.455 m f
120.531 286.561 m 94.82 317.202 l 113.203 332.627 l 138.914 301.987 l h
120.531 286.561 m f
97.648 252.807 m 63.008 272.807 l 75.008 293.588 l 109.648 273.592 l h
97.648 252.807 m f
87.684 213.256 m 48.289 220.205 l 52.461 243.842 l 91.852 236.893 l h
87.684 213.256 m f
91.871 172.709 m 52.477 165.76 l 48.309 189.397 l 87.703 196.346 l h
91.871 172.709 m f
109.652 136.006 m 75.012 116.01 l 63.012 136.791 l 97.652 156.791 l h
109.652 136.006 m f
120.539 123.03 m 138.922 107.604 l 113.211 76.963 l 94.828 92.389 l h
120.539 123.03 m f
153.57 99.147 m 176.121 90.94 l 162.441 53.35 l 139.891 61.561 l h
153.57 99.147 m f
192.801 87.998 24 -40 re f
0.94902 g
256.035 99.143 m 269.719 61.553 l 247.164 53.346 l 233.484 90.932 l h
256.035 99.143 m f
289.051 123.038 m 314.762 92.397 l 296.379 76.971 l 270.668 107.612 l h
289.051 123.038 m f
311.965 156.795 m 346.602 136.795 l 334.605 116.014 l 299.965 136.014 l
 h
311.965 156.795 m f
321.93 196.342 m 361.32 189.397 l 357.152 165.76 l 317.762 172.709 l h
321.93 196.342 m f
317.742 236.881 m 357.133 243.83 l 361.301 220.194 l 321.91 213.245 l h
317.742 236.881 m f
299.953 273.588 m 334.59 293.588 l 346.59 272.807 l 311.949 252.807 l h
299.953 273.588 m f
289.066 286.553 m 270.684 301.979 l 296.395 332.616 l 314.777 317.19 l 
h
289.066 286.553 m f
256.031 310.455 m 233.48 318.663 l 247.16 356.252 l 269.711 348.041 l h
256.031 310.455 m f
1 g
204.801 272.799 m 167.305 272.799 136.801 242.295 136.801 204.799 c 136.801
 167.303 167.305 136.799 204.801 136.799 c 242.297 136.799 272.801 167.303
 272.801 204.799 c 272.801 242.295 242.297 272.799 204.801 272.799 c h
247.125 216.799 m 216.801 216.799 l 216.801 247.123 l 231.43 242.967 242.969
 231.428 247.125 216.799 c h
192.801 247.123 m 192.801 216.799 l 162.477 216.799 l 166.633 231.428 178.172
 242.967 192.801 247.123 c h
162.477 192.799 m 192.801 192.799 l 192.801 162.475 l 178.172 166.631 166.633
 178.17 162.477 192.799 c h
216.801 162.475 m 216.801 192.799 l 247.125 192.799 l 242.969 178.17 231.43
 166.631 216.801 162.475 c h
216.801 162.475 m f
0.94902 g
204.801 361.6 12 -40 re f
204.801 272.799 m 204.801 136.799 l 242.297 136.799 272.801 167.303 272.801
 204.799 c 272.801 242.295 242.297 272.799 204.801 272.799 c h
216.801 162.475 m 216.801 192.799 l 247.125 192.799 l 242.969 178.17 231.43
 166.631 216.801 162.475 c h
216.801 216.799 m 216.801 247.123 l 231.43 242.971 242.969 231.428 247.125
 216.799 c h
216.801 216.799 m f
204.801 87.998 12 -40 re f
Q Q
showpage
%%Trailer
end restore
%%EOF
