%!PS-Adobe-3.0 EPSF-3.0
%%Creator: cairo 1.14.2 (http://cairographics.org)
%%CreationDate: Thu Apr 12 10:00:28 2018
%%Pages: 1
%%DocumentData: Clean7Bit
%%LanguageLevel: 2
%%BoundingBox: 0 -1 410 410
%%EndComments
%%BeginProlog
save
50 dict begin
/q { gsave } bind def
/Q { grestore } bind def
/cm { 6 array astore concat } bind def
/w { setlinewidth } bind def
/J { setlinecap } bind def
/j { setlinejoin } bind def
/M { setmiterlimit } bind def
/d { setdash } bind def
/m { moveto } bind def
/l { lineto } bind def
/c { curveto } bind def
/h { closepath } bind def
/re { exch dup neg 3 1 roll 5 3 roll moveto 0 rlineto
      0 exch rlineto 0 rlineto closepath } bind def
/S { stroke } bind def
/f { fill } bind def
/f* { eofill } bind def
/n { newpath } bind def
/W { clip } bind def
/W* { eoclip } bind def
/BT { } bind def
/ET { } bind def
/pdfmark where { pop globaldict /?pdfmark /exec load put }
    { globaldict begin /?pdfmark /pop load def /pdfmark
    /cleartomark load def end } ifelse
/BDC { mark 3 1 roll /BDC pdfmark } bind def
/EMC { mark /EMC pdfmark } bind def
/cairo_store_point { /cairo_point_y exch def /cairo_point_x exch def } def
/Tj { show currentpoint cairo_store_point } bind def
/TJ {
  {
    dup
    type /stringtype eq
    { show } { -0.001 mul 0 cairo_font_matrix dtransform rmoveto } ifelse
  } forall
  currentpoint cairo_store_point
} bind def
/cairo_selectfont { cairo_font_matrix aload pop pop pop 0 0 6 array astore
    cairo_font exch selectfont cairo_point_x cairo_point_y moveto } bind def
/Tf { pop /cairo_font exch def /cairo_font_matrix where
      { pop cairo_selectfont } if } bind def
/Td { matrix translate cairo_font_matrix matrix concatmatrix dup
      /cairo_font_matrix exch def dup 4 get exch 5 get cairo_store_point
      /cairo_font where { pop cairo_selectfont } if } bind def
/Tm { 2 copy 8 2 roll 6 array astore /cairo_font_matrix exch def
      cairo_store_point /cairo_font where { pop cairo_selectfont } if } bind def
/g { setgray } bind def
/rg { setrgbcolor } bind def
/d1 { setcachedevice } bind def
%%EndProlog
%%BeginSetup
%%EndSetup
%%Page: 1 1
%%BeginPageSetup
%%PageBoundingBox: 0 -1 410 410
%%EndPageSetup
q 0 -1 410 411 rectclip q
0.94902 g
325.602 -0.002 m 84 -0.002 l 37.684 -0.002 0 37.682 0 83.998 c 0 325.6 
l 0 371.916 37.684 409.6 84 409.6 c 325.602 409.6 l 371.918 409.6 409.602
 371.916 409.602 325.6 c 409.602 83.998 l 409.602 37.682 371.918 -0.002 
325.602 -0.002 c h
325.602 -0.002 m f
0.898039 g
325.602 409.6 m 204.801 409.6 l 204.801 -0.002 l 325.602 -0.002 l 371.918
 -0.002 409.602 37.682 409.602 83.998 c 409.602 325.6 l 409.602 371.916 
371.918 409.6 325.602 409.6 c h
325.602 409.6 m f
0.341176 0.337255 0.360784 rg
308.801 337.6 m 308.801 71.998 l 308.801 65.373 303.426 59.998 296.801 
59.998 c 112.801 59.998 l 106.172 59.998 100.801 65.373 100.801 71.998 c
 100.801 337.6 l 100.801 344.229 106.172 349.6 112.801 349.6 c 296.801 349.6
 l 303.426 349.6 308.801 344.229 308.801 337.6 c h
308.801 337.6 m f
0.243137 0.239216 0.258824 rg
296.801 349.6 m 204.801 349.6 l 204.801 59.998 l 296.801 59.998 l 303.426
 59.998 308.801 65.373 308.801 71.998 c 308.801 337.6 l 308.801 344.229 
303.426 349.6 296.801 349.6 c h
296.801 349.6 m f
1 0.670588 0.0823529 rg
276.801 111.998 m 276.801 103.163 269.637 95.998 260.801 95.998 c 251.965
 95.998 244.801 103.163 244.801 111.998 c 244.801 120.838 251.965 127.998
 260.801 127.998 c 269.637 127.998 276.801 120.838 276.801 111.998 c h
276.801 111.998 m f
0.94902 g
164.801 167.998 m 164.801 159.163 157.637 151.998 148.801 151.998 c 139.965
 151.998 132.801 159.163 132.801 167.998 c 132.801 176.838 139.965 183.998
 148.801 183.998 c 157.637 183.998 164.801 176.838 164.801 167.998 c h
164.801 167.998 m f
220.801 167.998 m 220.801 159.163 213.637 151.998 204.801 151.998 c 195.965
 151.998 188.801 159.163 188.801 167.998 c 188.801 176.838 195.965 183.998
 204.801 183.998 c 213.637 183.998 220.801 176.838 220.801 167.998 c h
220.801 167.998 m f
1 0.670588 0.0823529 rg
276.801 167.998 m 276.801 159.163 269.637 151.998 260.801 151.998 c 251.965
 151.998 244.801 159.163 244.801 167.998 c 244.801 176.838 251.965 183.998
 260.801 183.998 c 269.637 183.998 276.801 176.838 276.801 167.998 c h
276.801 167.998 m f
0.94902 g
164.801 223.998 m 164.801 215.163 157.637 207.998 148.801 207.998 c 139.965
 207.998 132.801 215.163 132.801 223.998 c 132.801 232.838 139.965 239.998
 148.801 239.998 c 157.637 239.998 164.801 232.838 164.801 223.998 c h
164.801 223.998 m f
220.801 223.998 m 220.801 215.163 213.637 207.998 204.801 207.998 c 195.965
 207.998 188.801 215.163 188.801 223.998 c 188.801 232.838 195.965 239.998
 204.801 239.998 c 213.637 239.998 220.801 232.838 220.801 223.998 c h
220.801 223.998 m f
1 0.670588 0.0823529 rg
276.801 223.998 m 276.801 215.163 269.637 207.998 260.801 207.998 c 251.965
 207.998 244.801 215.163 244.801 223.998 c 244.801 232.838 251.965 239.998
 260.801 239.998 c 269.637 239.998 276.801 232.838 276.801 223.998 c h
276.801 223.998 m f
0.94902 g
204.801 127.998 m 148.801 127.998 l 139.965 127.998 132.801 120.838 132.801
 111.998 c 132.801 103.163 139.965 95.998 148.801 95.998 c 204.801 95.998
 l 213.637 95.998 220.801 103.163 220.801 111.998 c 220.801 120.838 213.637
 127.998 204.801 127.998 c h
204.801 127.998 m f
0.423529 0.419608 0.447059 rg
134.398 313.6 142.402 -48 re f
0.341176 0.337255 0.360784 rg
204.801 313.6 72 -48 re f
0.898039 g
204.801 207.998 m 213.637 207.998 220.801 215.163 220.801 223.998 c 220.801
 232.838 213.637 239.998 204.801 239.998 c h
204.801 207.998 m f
204.801 183.998 m 204.801 151.998 l 213.637 151.998 220.801 159.163 220.801
 167.998 c 220.801 176.838 213.637 183.998 204.801 183.998 c h
204.801 183.998 m f
Q Q
showpage
%%Trailer
end restore
%%EOF
