%!PS-Adobe-3.0 EPSF-3.0
%%Creator: cairo 1.14.2 (http://cairographics.org)
%%CreationDate: Thu Apr 12 10:00:28 2018
%%Pages: 1
%%DocumentData: Clean7Bit
%%LanguageLevel: 2
%%BoundingBox: 0 -1 410 410
%%EndComments
%%BeginProlog
save
50 dict begin
/q { gsave } bind def
/Q { grestore } bind def
/cm { 6 array astore concat } bind def
/w { setlinewidth } bind def
/J { setlinecap } bind def
/j { setlinejoin } bind def
/M { setmiterlimit } bind def
/d { setdash } bind def
/m { moveto } bind def
/l { lineto } bind def
/c { curveto } bind def
/h { closepath } bind def
/re { exch dup neg 3 1 roll 5 3 roll moveto 0 rlineto
      0 exch rlineto 0 rlineto closepath } bind def
/S { stroke } bind def
/f { fill } bind def
/f* { eofill } bind def
/n { newpath } bind def
/W { clip } bind def
/W* { eoclip } bind def
/BT { } bind def
/ET { } bind def
/pdfmark where { pop globaldict /?pdfmark /exec load put }
    { globaldict begin /?pdfmark /pop load def /pdfmark
    /cleartomark load def end } ifelse
/BDC { mark 3 1 roll /BDC pdfmark } bind def
/EMC { mark /EMC pdfmark } bind def
/cairo_store_point { /cairo_point_y exch def /cairo_point_x exch def } def
/Tj { show currentpoint cairo_store_point } bind def
/TJ {
  {
    dup
    type /stringtype eq
    { show } { -0.001 mul 0 cairo_font_matrix dtransform rmoveto } ifelse
  } forall
  currentpoint cairo_store_point
} bind def
/cairo_selectfont { cairo_font_matrix aload pop pop pop 0 0 6 array astore
    cairo_font exch selectfont cairo_point_x cairo_point_y moveto } bind def
/Tf { pop /cairo_font exch def /cairo_font_matrix where
      { pop cairo_selectfont } if } bind def
/Td { matrix translate cairo_font_matrix matrix concatmatrix dup
      /cairo_font_matrix exch def dup 4 get exch 5 get cairo_store_point
      /cairo_font where { pop cairo_selectfont } if } bind def
/Tm { 2 copy 8 2 roll 6 array astore /cairo_font_matrix exch def
      cairo_store_point /cairo_font where { pop cairo_selectfont } if } bind def
/g { setgray } bind def
/rg { setrgbcolor } bind def
/d1 { setcachedevice } bind def
%%EndProlog
%%BeginSetup
%%EndSetup
%%Page: 1 1
%%BeginPageSetup
%%PageBoundingBox: 0 -1 410 410
%%EndPageSetup
q 0 -1 410 411 rectclip q
0.866667 0.52549 0.94902 rg
325.602 -0.002 m 84 -0.002 l 37.684 -0.002 0 37.682 0 83.998 c 0 325.6 
l 0 371.916 37.684 409.6 84 409.6 c 325.602 409.6 l 371.918 409.6 409.602
 371.916 409.602 325.6 c 409.602 83.998 l 409.602 37.682 371.918 -0.002 
325.602 -0.002 c h
325.602 -0.002 m f
0.803922 0.403922 0.898039 rg
325.602 409.6 m 204.801 409.6 l 204.801 -0.002 l 325.602 -0.002 l 371.918
 -0.002 409.602 37.682 409.602 83.998 c 409.602 325.6 l 409.602 371.916 
371.918 409.6 325.602 409.6 c h
325.602 409.6 m f
1 g
246.848 137.17 m 239.43 77.823 l 237.926 65.811 227.719 56.799 215.613 
56.799 c 193.988 56.799 l 181.883 56.799 171.672 65.811 170.172 77.823 c
 162.754 137.17 l 159.594 162.463 179.312 184.799 204.801 184.799 c 184.949
 184.799 168.801 200.948 168.801 220.799 c 168.801 240.651 184.949 256.799
 204.801 256.799 c 224.652 256.799 240.801 240.651 240.801 220.799 c 240.801
 200.948 224.652 184.799 204.801 184.799 c 230.289 184.799 250.008 162.463
 246.848 137.17 c h
204.801 280.799 m 167.305 280.799 136.801 250.295 136.801 212.799 c 136.801
 199.288 140.777 186.69 147.605 176.092 c 142.699 167.756 139.676 158.448
 138.742 148.834 c 122.695 165.405 112.801 187.967 112.801 212.799 c 112.801
 263.53 154.07 304.799 204.801 304.799 c 255.527 304.799 296.801 263.53 
296.801 212.799 c 296.801 187.967 286.906 165.405 270.859 148.834 c 269.922
 158.448 266.902 167.756 261.996 176.092 c 268.82 186.69 272.801 199.288
 272.801 212.799 c 272.801 250.295 242.297 280.799 204.801 280.799 c h
264.672 86.264 m 268.363 115.815 l 299.922 136.569 320.801 172.288 320.801
 212.799 c 320.801 276.764 268.762 328.799 204.801 328.799 c 140.836 328.799
 88.801 276.764 88.801 212.799 c 88.801 172.288 109.68 136.569 141.234 115.815
 c 144.93 86.264 l 97.602 108.748 64.801 157.014 64.801 212.799 c 64.801
 289.995 127.605 352.799 204.801 352.799 c 281.996 352.799 344.801 289.995
 344.801 212.799 c 344.801 157.014 311.996 108.748 264.672 86.264 c h
264.672 86.264 m f
0.94902 g
204.801 184.799 m 204.801 56.799 l 215.613 56.799 l 227.719 56.799 237.926
 65.811 239.43 77.823 c 246.848 137.17 l 250.008 162.463 230.289 184.799
 204.801 184.799 c h
204.801 184.799 m f
240.801 220.799 m 240.801 240.651 224.652 256.799 204.801 256.799 c 204.801
 184.799 l 224.652 184.799 240.801 200.948 240.801 220.799 c h
240.801 220.799 m f
204.801 352.799 m 204.801 328.799 l 268.762 328.799 320.801 276.764 320.801
 212.799 c 320.801 172.288 299.922 136.569 268.363 115.815 c 264.672 86.264
 l 311.996 108.748 344.801 157.014 344.801 212.799 c 344.801 289.995 281.996
 352.799 204.801 352.799 c h
204.801 352.799 m f
270.859 148.834 m 286.906 165.405 296.801 187.967 296.801 212.799 c 296.801
 263.53 255.527 304.799 204.801 304.799 c 204.801 280.799 l 242.297 280.799
 272.801 250.295 272.801 212.799 c 272.801 199.288 268.82 186.69 261.996
 176.092 c 266.902 167.756 269.922 158.448 270.859 148.834 c h
270.859 148.834 m f
Q Q
showpage
%%Trailer
end restore
%%EOF
