%!PS-Adobe-3.0 EPSF-3.0
%%Creator: cairo 1.14.2 (http://cairographics.org)
%%CreationDate: Thu Apr 12 10:00:28 2018
%%Pages: 1
%%DocumentData: Clean7Bit
%%LanguageLevel: 2
%%BoundingBox: 0 -1 410 410
%%EndComments
%%BeginProlog
save
50 dict begin
/q { gsave } bind def
/Q { grestore } bind def
/cm { 6 array astore concat } bind def
/w { setlinewidth } bind def
/J { setlinecap } bind def
/j { setlinejoin } bind def
/M { setmiterlimit } bind def
/d { setdash } bind def
/m { moveto } bind def
/l { lineto } bind def
/c { curveto } bind def
/h { closepath } bind def
/re { exch dup neg 3 1 roll 5 3 roll moveto 0 rlineto
      0 exch rlineto 0 rlineto closepath } bind def
/S { stroke } bind def
/f { fill } bind def
/f* { eofill } bind def
/n { newpath } bind def
/W { clip } bind def
/W* { eoclip } bind def
/BT { } bind def
/ET { } bind def
/pdfmark where { pop globaldict /?pdfmark /exec load put }
    { globaldict begin /?pdfmark /pop load def /pdfmark
    /cleartomark load def end } ifelse
/BDC { mark 3 1 roll /BDC pdfmark } bind def
/EMC { mark /EMC pdfmark } bind def
/cairo_store_point { /cairo_point_y exch def /cairo_point_x exch def } def
/Tj { show currentpoint cairo_store_point } bind def
/TJ {
  {
    dup
    type /stringtype eq
    { show } { -0.001 mul 0 cairo_font_matrix dtransform rmoveto } ifelse
  } forall
  currentpoint cairo_store_point
} bind def
/cairo_selectfont { cairo_font_matrix aload pop pop pop 0 0 6 array astore
    cairo_font exch selectfont cairo_point_x cairo_point_y moveto } bind def
/Tf { pop /cairo_font exch def /cairo_font_matrix where
      { pop cairo_selectfont } if } bind def
/Td { matrix translate cairo_font_matrix matrix concatmatrix dup
      /cairo_font_matrix exch def dup 4 get exch 5 get cairo_store_point
      /cairo_font where { pop cairo_selectfont } if } bind def
/Tm { 2 copy 8 2 roll 6 array astore /cairo_font_matrix exch def
      cairo_store_point /cairo_font where { pop cairo_selectfont } if } bind def
/g { setgray } bind def
/rg { setrgbcolor } bind def
/d1 { setcachedevice } bind def
%%EndProlog
%%BeginSetup
%%EndSetup
%%Page: 1 1
%%BeginPageSetup
%%PageBoundingBox: 0 -1 410 410
%%EndPageSetup
q 0 -1 410 411 rectclip q
0.341176 0.337255 0.360784 rg
325.602 -0.002 m 84 -0.002 l 37.684 -0.002 0 37.682 0 83.998 c 0 325.6 
l 0 371.916 37.684 409.6 84 409.6 c 325.602 409.6 l 371.918 409.6 409.602
 371.916 409.602 325.6 c 409.602 83.998 l 409.602 37.682 371.918 -0.002 
325.602 -0.002 c h
325.602 -0.002 m f
0.243137 0.239216 0.258824 rg
325.602 409.6 m 204.801 409.6 l 204.801 -0.002 l 325.602 -0.002 l 371.918
 -0.002 409.602 37.682 409.602 83.998 c 409.602 325.6 l 409.602 371.916 
371.918 409.6 325.602 409.6 c h
325.602 409.6 m f
0.94902 g
132.801 132.799 m 108.801 132.799 l 102.172 132.799 96.801 138.174 96.801
 144.799 c 96.801 264.799 l 96.801 271.428 102.172 276.799 108.801 276.799
 c 132.801 276.799 l 139.426 276.799 144.801 271.428 144.801 264.799 c 144.801
 144.799 l 144.801 138.174 139.426 132.799 132.801 132.799 c h
132.801 132.799 m f
208.801 338.401 m 189.004 338.401 169.324 333.19 151.887 323.327 c 141.383
 317.389 131.664 309.756 123.125 300.799 c 132.801 300.799 l 140.004 300.799
 146.711 298.666 152.344 295.006 c 168.676 307.553 188.176 314.401 208.801
 314.401 c 263.5 314.401 308 265.233 308 204.799 c 308 144.366 263.5 95.202
 208.801 95.202 c 188.273 95.202 168.742 102.069 152.379 114.616 c 146.738
 110.944 140.02 108.799 132.801 108.799 c 123.07 108.799 l 145.906 84.705
 176.297 71.202 208.801 71.202 c 276.734 71.202 332 131.131 332 204.799 
c 332 278.467 276.734 338.401 208.801 338.401 c h
208.801 338.401 m f
0.898039 g
208.801 338.401 m 207.465 338.401 206.133 338.373 204.801 338.327 c 204.801
 314.311 l 206.129 314.37 207.461 314.401 208.801 314.401 c 263.5 314.401
 308 265.233 308 204.799 c 308 144.366 263.5 95.202 208.801 95.202 c 207.461
 95.202 206.129 95.233 204.801 95.291 c 204.801 71.276 l 206.129 71.233 
207.461 71.202 208.801 71.202 c 276.734 71.202 332 131.131 332 204.799 c
 332 278.467 276.734 338.401 208.801 338.401 c h
208.801 338.401 m f
Q Q
showpage
%%Trailer
end restore
%%EOF
