%!PS-Adobe-3.0 EPSF-3.0
%%Creator: cairo 1.14.2 (http://cairographics.org)
%%CreationDate: Thu Apr 12 10:00:28 2018
%%Pages: 1
%%DocumentData: Clean7Bit
%%LanguageLevel: 2
%%BoundingBox: 0 -1 410 410
%%EndComments
%%BeginProlog
save
50 dict begin
/q { gsave } bind def
/Q { grestore } bind def
/cm { 6 array astore concat } bind def
/w { setlinewidth } bind def
/J { setlinecap } bind def
/j { setlinejoin } bind def
/M { setmiterlimit } bind def
/d { setdash } bind def
/m { moveto } bind def
/l { lineto } bind def
/c { curveto } bind def
/h { closepath } bind def
/re { exch dup neg 3 1 roll 5 3 roll moveto 0 rlineto
      0 exch rlineto 0 rlineto closepath } bind def
/S { stroke } bind def
/f { fill } bind def
/f* { eofill } bind def
/n { newpath } bind def
/W { clip } bind def
/W* { eoclip } bind def
/BT { } bind def
/ET { } bind def
/pdfmark where { pop globaldict /?pdfmark /exec load put }
    { globaldict begin /?pdfmark /pop load def /pdfmark
    /cleartomark load def end } ifelse
/BDC { mark 3 1 roll /BDC pdfmark } bind def
/EMC { mark /EMC pdfmark } bind def
/cairo_store_point { /cairo_point_y exch def /cairo_point_x exch def } def
/Tj { show currentpoint cairo_store_point } bind def
/TJ {
  {
    dup
    type /stringtype eq
    { show } { -0.001 mul 0 cairo_font_matrix dtransform rmoveto } ifelse
  } forall
  currentpoint cairo_store_point
} bind def
/cairo_selectfont { cairo_font_matrix aload pop pop pop 0 0 6 array astore
    cairo_font exch selectfont cairo_point_x cairo_point_y moveto } bind def
/Tf { pop /cairo_font exch def /cairo_font_matrix where
      { pop cairo_selectfont } if } bind def
/Td { matrix translate cairo_font_matrix matrix concatmatrix dup
      /cairo_font_matrix exch def dup 4 get exch 5 get cairo_store_point
      /cairo_font where { pop cairo_selectfont } if } bind def
/Tm { 2 copy 8 2 roll 6 array astore /cairo_font_matrix exch def
      cairo_store_point /cairo_font where { pop cairo_selectfont } if } bind def
/g { setgray } bind def
/rg { setrgbcolor } bind def
/d1 { setcachedevice } bind def
%%EndProlog
%%BeginSetup
%%EndSetup
%%Page: 1 1
%%BeginPageSetup
%%PageBoundingBox: 0 -1 410 410
%%EndPageSetup
q 0 -1 410 411 rectclip q
0.94902 g
325.602 -0.002 m 84 -0.002 l 37.684 -0.002 0 37.682 0 83.998 c 0 325.6 
l 0 371.916 37.684 409.6 84 409.6 c 325.602 409.6 l 371.918 409.6 409.602
 371.916 409.602 325.6 c 409.602 83.998 l 409.602 37.682 371.918 -0.002 
325.602 -0.002 c h
325.602 -0.002 m f
0.698039 g
409.602 325.6 m 409.602 371.916 371.918 409.6 325.602 409.6 c 312.266 409.6
 l 312.266 286.854 l 409.602 286.854 l h
409.602 325.6 m f
0.4 0.8 0.439216 rg
312.266 124.534 m 312.266 -0.002 l 325.602 -0.002 l 371.918 -0.002 409.602
 37.682 409.602 83.998 c 409.602 124.534 l h
312.266 124.534 m f
1 0.670588 0.0823529 rg
312.266 261.065 97.336 -158.664 re f
0 0.666667 0.941176 rg
312.266 307.202 97.336 -102.402 re f
0.898039 g
204.801 409.6 120.801 -409.602 re f
0.8 g
168.801 325.6 m 102.191 325.6 48 271.409 48 204.799 c 48 138.19 102.191
 83.998 168.801 83.998 c 235.41 83.998 289.602 138.19 289.602 204.799 c 
289.602 271.409 235.41 325.6 168.801 325.6 c h
224.801 125.881 m 224.801 150.401 l 224.801 163.655 214.055 174.401 200.801
 174.401 c 136.801 174.401 l 123.543 174.401 112.801 163.655 112.801 150.401
 c 112.801 125.881 l 88.125 143.444 72 172.276 72 204.799 c 72 258.174 115.426
 301.6 168.801 301.6 c 222.176 301.6 265.602 258.174 265.602 204.799 c 265.602
 172.276 249.477 143.444 224.801 125.881 c h
224.801 125.881 m f
204.801 210.401 m 204.801 190.518 188.684 174.401 168.801 174.401 c 148.918
 174.401 132.801 190.518 132.801 210.401 c 132.801 230.284 148.918 246.401
 168.801 246.401 c 188.684 246.401 204.801 230.284 204.801 210.401 c h
204.801 210.401 m f
0.698039 g
204.801 320.123 m 204.801 294.655 l 240.398 280.338 265.602 245.459 265.602
 204.799 c 265.602 172.276 249.477 143.444 224.801 125.881 c 224.801 150.401
 l 224.801 162.291 216.148 172.159 204.801 174.061 c 204.801 89.479 l 253.883
 104.834 289.602 150.725 289.602 204.799 c 289.602 258.877 253.883 304.768
 204.801 320.123 c h
204.801 320.123 m f
Q Q
showpage
%%Trailer
end restore
%%EOF
