%!PS-Adobe-3.0 EPSF-3.0
%%Creator: cairo 1.14.2 (http://cairographics.org)
%%CreationDate: Thu Apr 12 10:00:28 2018
%%Pages: 1
%%DocumentData: Clean7Bit
%%LanguageLevel: 2
%%BoundingBox: 0 -1 410 410
%%EndComments
%%BeginProlog
save
50 dict begin
/q { gsave } bind def
/Q { grestore } bind def
/cm { 6 array astore concat } bind def
/w { setlinewidth } bind def
/J { setlinecap } bind def
/j { setlinejoin } bind def
/M { setmiterlimit } bind def
/d { setdash } bind def
/m { moveto } bind def
/l { lineto } bind def
/c { curveto } bind def
/h { closepath } bind def
/re { exch dup neg 3 1 roll 5 3 roll moveto 0 rlineto
      0 exch rlineto 0 rlineto closepath } bind def
/S { stroke } bind def
/f { fill } bind def
/f* { eofill } bind def
/n { newpath } bind def
/W { clip } bind def
/W* { eoclip } bind def
/BT { } bind def
/ET { } bind def
/pdfmark where { pop globaldict /?pdfmark /exec load put }
    { globaldict begin /?pdfmark /pop load def /pdfmark
    /cleartomark load def end } ifelse
/BDC { mark 3 1 roll /BDC pdfmark } bind def
/EMC { mark /EMC pdfmark } bind def
/cairo_store_point { /cairo_point_y exch def /cairo_point_x exch def } def
/Tj { show currentpoint cairo_store_point } bind def
/TJ {
  {
    dup
    type /stringtype eq
    { show } { -0.001 mul 0 cairo_font_matrix dtransform rmoveto } ifelse
  } forall
  currentpoint cairo_store_point
} bind def
/cairo_selectfont { cairo_font_matrix aload pop pop pop 0 0 6 array astore
    cairo_font exch selectfont cairo_point_x cairo_point_y moveto } bind def
/Tf { pop /cairo_font exch def /cairo_font_matrix where
      { pop cairo_selectfont } if } bind def
/Td { matrix translate cairo_font_matrix matrix concatmatrix dup
      /cairo_font_matrix exch def dup 4 get exch 5 get cairo_store_point
      /cairo_font where { pop cairo_selectfont } if } bind def
/Tm { 2 copy 8 2 roll 6 array astore /cairo_font_matrix exch def
      cairo_store_point /cairo_font where { pop cairo_selectfont } if } bind def
/g { setgray } bind def
/rg { setrgbcolor } bind def
/d1 { setcachedevice } bind def
%%EndProlog
%%BeginSetup
%%EndSetup
%%Page: 1 1
%%BeginPageSetup
%%PageBoundingBox: 0 -1 410 410
%%EndPageSetup
q 0 -1 410 411 rectclip q
0.94902 g
325.602 -0.002 m 84 -0.002 l 37.684 -0.002 0 37.682 0 83.998 c 0 325.6 
l 0 371.916 37.684 409.6 84 409.6 c 325.602 409.6 l 371.918 409.6 409.602
 371.916 409.602 325.6 c 409.602 83.998 l 409.602 37.682 371.918 -0.002 
325.602 -0.002 c h
325.602 -0.002 m f
0.898039 g
325.602 409.6 m 204.801 409.6 l 204.801 -0.002 l 325.602 -0.002 l 371.918
 -0.002 409.602 37.682 409.602 83.998 c 409.602 325.6 l 409.602 371.916 
371.918 409.6 325.602 409.6 c h
325.602 409.6 m f
0.529412 0.901961 0.580392 rg
325.602 409.6 m 104 409.6 l 104 291.202 l 389.145 29.12 l 401.883 43.85
 409.602 63.041 409.602 83.998 c 409.602 325.6 l 409.602 371.916 371.918
 409.6 325.602 409.6 c h
325.602 409.6 m f
0.4 0.8 0.439216 rg
325.602 409.6 m 204.801 409.6 l 204.801 198.553 l 389.145 29.12 l 401.883
 43.85 409.602 63.041 409.602 83.998 c 409.602 325.6 l 409.602 371.916 371.918
 409.6 325.602 409.6 c h
325.602 409.6 m f
0.976471 0.752941 0.752941 rg
0 325.6 m 0 83.998 l 0 37.682 37.684 -0.002 84 -0.002 c 108 -0.002 l 108
 363.998 l 9.305 363.998 l 3.359 352.483 0 339.428 0 325.6 c h
0 325.6 m f
1 0.862745 0.25098 rg
55.789 404.721 m 32.129 396.26 13.34 377.471 4.879 353.811 c 353.809 4.877
 l 377.469 13.338 396.258 32.127 404.723 55.791 c h
55.789 404.721 m f
1 0.670588 0.0823529 rg
204.801 255.709 m 204.801 153.889 l 353.809 4.877 l 377.469 13.338 396.258
 32.127 404.723 55.791 c h
204.801 255.709 m f
1 g
277.602 31.998 m 222.461 31.998 177.602 76.862 177.602 131.998 c 177.602
 152.405 183.719 172.045 195.293 188.799 c 205.297 203.276 l 222.68 200.541
 l 224.961 200.182 227.289 199.998 229.602 199.998 c 240.441 199.998 250.855
 203.979 258.926 211.202 c 277.602 227.92 l 296.273 211.202 l 304.344 203.979
 314.758 199.998 325.602 199.998 c 327.91 199.998 330.238 200.182 332.52
 200.541 c 349.902 203.276 l 359.906 188.799 l 371.48 172.045 377.602 152.405
 377.602 131.998 c 377.602 76.862 332.738 31.998 277.602 31.998 c h
277.602 31.998 m f
0.94902 g
359.906 188.799 m 349.902 203.276 l 332.52 200.541 l 330.238 200.182 327.91
 199.998 325.602 199.998 c 314.758 199.998 304.344 203.979 296.273 211.202
 c 277.602 227.92 l 258.926 211.202 l 250.855 203.979 240.441 199.998 229.602
 199.998 c 227.289 199.998 224.961 200.182 222.68 200.541 c 205.297 203.276
 l 204.801 202.553 l 204.801 63.518 l 223.051 44.127 248.934 31.998 277.602
 31.998 c 332.738 31.998 377.602 76.862 377.602 131.998 c 377.602 152.405
 371.48 172.045 359.906 188.799 c h
359.906 188.799 m f
280.801 409.6 m 280.801 338.467 338.465 280.799 409.602 280.799 c 409.602
 220.799 l 305.328 220.799 220.801 305.33 220.801 409.6 c f
1 g
84 409.6 m 79.926 409.6 75.922 409.303 72 408.741 c 72 0.862 l 75.922 0.299
 79.926 -0.002 84 -0.002 c 144 -0.002 l 144 409.6 l h
84 409.6 m f
0 0.666667 0.941176 rg
96 409.6 24 -196.801 re f
0 0.764706 1 rg
108 96.799 m 74.914 96.799 48 123.717 48 156.799 c 48 189.885 74.914 216.799
 108 216.799 c 141.086 216.799 168 189.885 168 156.799 c 168 123.717 141.086
 96.799 108 96.799 c h
108 96.799 m f
1 g
84 132.799 m 108 189.6 l 132 132.799 l 108 140.799 l h
84 132.799 m f
0 0.764706 1 rg
346.742 179.702 m 342.457 185.905 l 335.004 184.733 l 331.906 184.248 328.742
 183.998 325.602 183.998 c 310.816 183.998 296.613 189.428 285.602 199.28
 c 277.602 206.444 l 269.598 199.28 l 258.59 189.428 244.383 183.998 229.602
 183.998 c 226.457 183.998 223.293 184.248 220.195 184.733 c 212.742 185.905
 l 208.457 179.702 l 198.738 165.635 193.602 149.143 193.602 131.998 c 193.602
 85.682 231.281 47.998 277.602 47.998 c 323.918 47.998 361.602 85.682 361.602
 131.998 c 361.602 149.143 356.461 165.635 346.742 179.702 c h
277.602 71.998 m 244.516 71.998 217.602 98.916 217.602 131.998 c 217.602
 135.791 217.953 139.538 218.645 143.202 c 336.555 143.202 l 337.246 139.538
 337.602 135.791 337.602 131.998 c 337.602 98.916 310.684 71.998 277.602
 71.998 c h
277.602 71.998 m f
0 0.666667 0.941176 rg
346.742 179.702 m 342.457 185.905 l 335.004 184.733 l 331.906 184.248 328.742
 183.998 325.602 183.998 c 310.816 183.998 296.613 189.428 285.602 199.28
 c 277.602 206.444 l 269.598 199.28 l 258.59 189.428 244.383 183.998 229.602
 183.998 c 226.457 183.998 223.293 184.248 220.195 184.733 c 212.742 185.905
 l 208.457 179.702 l 207.152 177.815 205.938 175.881 204.801 173.909 c 204.801
 90.127 l 219.328 64.967 246.52 47.998 277.602 47.998 c 323.918 47.998 361.602
 85.682 361.602 131.998 c 361.602 149.143 356.461 165.635 346.742 179.702
 c h
277.602 71.998 m 244.516 71.998 217.602 98.916 217.602 131.998 c 217.602
 135.791 217.953 139.538 218.645 143.202 c 336.555 143.202 l 337.246 139.538
 337.602 135.791 337.602 131.998 c 337.602 98.916 310.684 71.998 277.602
 71.998 c h
277.602 71.998 m f
Q Q
showpage
%%Trailer
end restore
%%EOF
