%!PS-Adobe-3.0 EPSF-3.0
%%Creator: cairo 1.14.2 (http://cairographics.org)
%%CreationDate: Thu Apr 12 10:00:28 2018
%%Pages: 1
%%DocumentData: Clean7Bit
%%LanguageLevel: 2
%%BoundingBox: 0 -1 410 410
%%EndComments
%%BeginProlog
save
50 dict begin
/q { gsave } bind def
/Q { grestore } bind def
/cm { 6 array astore concat } bind def
/w { setlinewidth } bind def
/J { setlinecap } bind def
/j { setlinejoin } bind def
/M { setmiterlimit } bind def
/d { setdash } bind def
/m { moveto } bind def
/l { lineto } bind def
/c { curveto } bind def
/h { closepath } bind def
/re { exch dup neg 3 1 roll 5 3 roll moveto 0 rlineto
      0 exch rlineto 0 rlineto closepath } bind def
/S { stroke } bind def
/f { fill } bind def
/f* { eofill } bind def
/n { newpath } bind def
/W { clip } bind def
/W* { eoclip } bind def
/BT { } bind def
/ET { } bind def
/pdfmark where { pop globaldict /?pdfmark /exec load put }
    { globaldict begin /?pdfmark /pop load def /pdfmark
    /cleartomark load def end } ifelse
/BDC { mark 3 1 roll /BDC pdfmark } bind def
/EMC { mark /EMC pdfmark } bind def
/cairo_store_point { /cairo_point_y exch def /cairo_point_x exch def } def
/Tj { show currentpoint cairo_store_point } bind def
/TJ {
  {
    dup
    type /stringtype eq
    { show } { -0.001 mul 0 cairo_font_matrix dtransform rmoveto } ifelse
  } forall
  currentpoint cairo_store_point
} bind def
/cairo_selectfont { cairo_font_matrix aload pop pop pop 0 0 6 array astore
    cairo_font exch selectfont cairo_point_x cairo_point_y moveto } bind def
/Tf { pop /cairo_font exch def /cairo_font_matrix where
      { pop cairo_selectfont } if } bind def
/Td { matrix translate cairo_font_matrix matrix concatmatrix dup
      /cairo_font_matrix exch def dup 4 get exch 5 get cairo_store_point
      /cairo_font where { pop cairo_selectfont } if } bind def
/Tm { 2 copy 8 2 roll 6 array astore /cairo_font_matrix exch def
      cairo_store_point /cairo_font where { pop cairo_selectfont } if } bind def
/g { setgray } bind def
/rg { setrgbcolor } bind def
/d1 { setcachedevice } bind def
%%EndProlog
%%BeginSetup
%%EndSetup
%%Page: 1 1
%%BeginPageSetup
%%PageBoundingBox: 0 -1 410 410
%%EndPageSetup
q 0 -1 410 411 rectclip q
0.94902 g
325.602 -0.002 m 84 -0.002 l 37.684 -0.002 0 37.682 0 83.998 c 0 325.6 
l 0 371.916 37.684 409.6 84 409.6 c 325.602 409.6 l 371.918 409.6 409.602
 371.916 409.602 325.6 c 409.602 83.998 l 409.602 37.682 371.918 -0.002 
325.602 -0.002 c h
325.602 -0.002 m f
0.898039 g
325.602 409.6 m 204.801 409.6 l 204.801 -0.002 l 325.602 -0.002 l 371.918
 -0.002 409.602 37.682 409.602 83.998 c 409.602 325.6 l 409.602 371.916 
371.918 409.6 325.602 409.6 c h
325.602 409.6 m f
0 0.764706 1 rg
204.801 349.6 m 124.828 349.6 60 284.772 60 204.799 c 60 124.83 124.828
 59.998 204.801 59.998 c 284.77 59.998 349.602 124.83 349.602 204.799 c 
349.602 284.772 284.77 349.6 204.801 349.6 c h
204.801 349.6 m f
0 0.666667 0.941176 rg
204.801 349.6 m 204.801 59.998 l 284.77 59.998 349.602 124.83 349.602 204.799
 c 349.602 284.772 284.77 349.6 204.801 349.6 c h
204.801 349.6 m f
1 g
248.801 236.799 m 248.801 250.034 238.035 260.799 224.801 260.799 c 140.801
 260.799 l 128.93 260.799 119.051 252.135 117.141 240.799 c 100.801 240.799
 l 100.801 216.799 l 116.801 216.799 l 116.801 172.799 l 116.801 159.565
 127.566 148.799 140.801 148.799 c 224.801 148.799 l 238.035 148.799 248.801
 159.565 248.801 172.799 c 248.801 185.186 l 295.199 161.022 l 295.199 248.58
 l 248.801 224.413 l h
248.801 236.799 m f
0.94902 g
248.801 224.413 m 248.801 236.799 l 248.801 250.034 238.035 260.799 224.801
 260.799 c 204.801 260.799 l 204.801 148.799 l 224.801 148.799 l 238.035
 148.799 248.801 159.565 248.801 172.799 c 248.801 185.186 l 295.199 161.022
 l 295.199 248.58 l h
248.801 224.413 m f
Q Q
showpage
%%Trailer
end restore
%%EOF
