%!PS-Adobe-3.0 EPSF-3.0
%%Creator: cairo 1.14.2 (http://cairographics.org)
%%CreationDate: Thu Apr 12 10:00:28 2018
%%Pages: 1
%%DocumentData: Clean7Bit
%%LanguageLevel: 2
%%BoundingBox: 0 -1 410 410
%%EndComments
%%BeginProlog
save
50 dict begin
/q { gsave } bind def
/Q { grestore } bind def
/cm { 6 array astore concat } bind def
/w { setlinewidth } bind def
/J { setlinecap } bind def
/j { setlinejoin } bind def
/M { setmiterlimit } bind def
/d { setdash } bind def
/m { moveto } bind def
/l { lineto } bind def
/c { curveto } bind def
/h { closepath } bind def
/re { exch dup neg 3 1 roll 5 3 roll moveto 0 rlineto
      0 exch rlineto 0 rlineto closepath } bind def
/S { stroke } bind def
/f { fill } bind def
/f* { eofill } bind def
/n { newpath } bind def
/W { clip } bind def
/W* { eoclip } bind def
/BT { } bind def
/ET { } bind def
/pdfmark where { pop globaldict /?pdfmark /exec load put }
    { globaldict begin /?pdfmark /pop load def /pdfmark
    /cleartomark load def end } ifelse
/BDC { mark 3 1 roll /BDC pdfmark } bind def
/EMC { mark /EMC pdfmark } bind def
/cairo_store_point { /cairo_point_y exch def /cairo_point_x exch def } def
/Tj { show currentpoint cairo_store_point } bind def
/TJ {
  {
    dup
    type /stringtype eq
    { show } { -0.001 mul 0 cairo_font_matrix dtransform rmoveto } ifelse
  } forall
  currentpoint cairo_store_point
} bind def
/cairo_selectfont { cairo_font_matrix aload pop pop pop 0 0 6 array astore
    cairo_font exch selectfont cairo_point_x cairo_point_y moveto } bind def
/Tf { pop /cairo_font exch def /cairo_font_matrix where
      { pop cairo_selectfont } if } bind def
/Td { matrix translate cairo_font_matrix matrix concatmatrix dup
      /cairo_font_matrix exch def dup 4 get exch 5 get cairo_store_point
      /cairo_font where { pop cairo_selectfont } if } bind def
/Tm { 2 copy 8 2 roll 6 array astore /cairo_font_matrix exch def
      cairo_store_point /cairo_font where { pop cairo_selectfont } if } bind def
/g { setgray } bind def
/rg { setrgbcolor } bind def
/d1 { setcachedevice } bind def
%%EndProlog
%%BeginSetup
%%EndSetup
%%Page: 1 1
%%BeginPageSetup
%%PageBoundingBox: 0 -1 410 410
%%EndPageSetup
q 0 -1 410 411 rectclip q
0.341176 0.337255 0.360784 rg
325.602 -0.002 m 84 -0.002 l 37.684 -0.002 0 37.682 0 83.998 c 0 325.6 
l 0 371.916 37.684 409.6 84 409.6 c 325.602 409.6 l 371.918 409.6 409.602
 371.916 409.602 325.6 c 409.602 83.998 l 409.602 37.682 371.918 -0.002 
325.602 -0.002 c h
325.602 -0.002 m f
0.243137 0.239216 0.258824 rg
325.602 409.6 m 204.801 409.6 l 204.801 -0.002 l 325.602 -0.002 l 371.918
 -0.002 409.602 37.682 409.602 83.998 c 409.602 325.6 l 409.602 371.916 
371.918 409.6 325.602 409.6 c h
325.602 409.6 m f
1 g
204.801 108.799 m 151.781 108.799 108.801 151.78 108.801 204.799 c 108.801
 240.334 128.105 271.354 156.801 287.955 c 156.801 204.799 l 156.801 178.334
 178.332 156.799 204.801 156.799 c 231.266 156.799 252.801 178.334 252.801
 204.799 c 252.801 231.268 231.266 252.799 204.801 252.799 c 196.059 252.799
 187.867 250.44 180.801 246.342 c 180.801 297.776 l 188.473 299.748 196.512
 300.799 204.801 300.799 c 257.82 300.799 300.801 257.819 300.801 204.799
 c 300.801 151.78 257.82 108.799 204.801 108.799 c h
180.801 204.799 m 180.801 218.034 191.566 228.799 204.801 228.799 c 218.035
 228.799 228.801 218.034 228.801 204.799 c 228.801 191.565 218.035 180.799
 204.801 180.799 c 191.566 180.799 180.801 191.565 180.801 204.799 c h
180.801 204.799 m f
0.94902 g
228.801 204.799 m 228.801 218.034 218.035 228.799 204.801 228.799 c 204.801
 180.799 l 218.035 180.799 228.801 191.565 228.801 204.799 c h
228.801 204.799 m f
204.801 300.799 m 204.801 252.799 l 231.266 252.799 252.801 231.268 252.801
 204.799 c 252.801 178.334 231.266 156.799 204.801 156.799 c 204.801 108.799
 l 257.82 108.799 300.801 151.78 300.801 204.799 c 300.801 257.819 257.82
 300.799 204.801 300.799 c h
204.801 300.799 m f
Q Q
showpage
%%Trailer
end restore
%%EOF
