%!PS-Adobe-3.0 EPSF-3.0
%%Creator: cairo 1.14.2 (http://cairographics.org)
%%CreationDate: Thu Apr 12 10:00:28 2018
%%Pages: 1
%%DocumentData: Clean7Bit
%%LanguageLevel: 2
%%BoundingBox: 0 -1 410 410
%%EndComments
%%BeginProlog
save
50 dict begin
/q { gsave } bind def
/Q { grestore } bind def
/cm { 6 array astore concat } bind def
/w { setlinewidth } bind def
/J { setlinecap } bind def
/j { setlinejoin } bind def
/M { setmiterlimit } bind def
/d { setdash } bind def
/m { moveto } bind def
/l { lineto } bind def
/c { curveto } bind def
/h { closepath } bind def
/re { exch dup neg 3 1 roll 5 3 roll moveto 0 rlineto
      0 exch rlineto 0 rlineto closepath } bind def
/S { stroke } bind def
/f { fill } bind def
/f* { eofill } bind def
/n { newpath } bind def
/W { clip } bind def
/W* { eoclip } bind def
/BT { } bind def
/ET { } bind def
/pdfmark where { pop globaldict /?pdfmark /exec load put }
    { globaldict begin /?pdfmark /pop load def /pdfmark
    /cleartomark load def end } ifelse
/BDC { mark 3 1 roll /BDC pdfmark } bind def
/EMC { mark /EMC pdfmark } bind def
/cairo_store_point { /cairo_point_y exch def /cairo_point_x exch def } def
/Tj { show currentpoint cairo_store_point } bind def
/TJ {
  {
    dup
    type /stringtype eq
    { show } { -0.001 mul 0 cairo_font_matrix dtransform rmoveto } ifelse
  } forall
  currentpoint cairo_store_point
} bind def
/cairo_selectfont { cairo_font_matrix aload pop pop pop 0 0 6 array astore
    cairo_font exch selectfont cairo_point_x cairo_point_y moveto } bind def
/Tf { pop /cairo_font exch def /cairo_font_matrix where
      { pop cairo_selectfont } if } bind def
/Td { matrix translate cairo_font_matrix matrix concatmatrix dup
      /cairo_font_matrix exch def dup 4 get exch 5 get cairo_store_point
      /cairo_font where { pop cairo_selectfont } if } bind def
/Tm { 2 copy 8 2 roll 6 array astore /cairo_font_matrix exch def
      cairo_store_point /cairo_font where { pop cairo_selectfont } if } bind def
/g { setgray } bind def
/rg { setrgbcolor } bind def
/d1 { setcachedevice } bind def
%%EndProlog
%%BeginSetup
%%EndSetup
%%Page: 1 1
%%BeginPageSetup
%%PageBoundingBox: 0 -1 410 410
%%EndPageSetup
q 0 -1 410 411 rectclip q
0.341176 0.337255 0.360784 rg
325.602 -0.002 m 84 -0.002 l 37.684 -0.002 0 37.682 0 83.998 c 0 325.6 
l 0 371.916 37.684 409.6 84 409.6 c 325.602 409.6 l 371.918 409.6 409.602
 371.916 409.602 325.6 c 409.602 83.998 l 409.602 37.682 371.918 -0.002 
325.602 -0.002 c h
325.602 -0.002 m f
0.243137 0.239216 0.258824 rg
325.602 409.6 m 204.801 409.6 l 204.801 -0.002 l 325.602 -0.002 l 371.918
 -0.002 409.602 37.682 409.602 83.998 c 409.602 325.6 l 409.602 371.916 
371.918 409.6 325.602 409.6 c h
325.602 409.6 m f
1 g
204.801 47.998 m 118.34 47.998 48 118.338 48 204.799 c 48 291.26 118.34
 361.6 204.801 361.6 c 291.262 361.6 361.602 291.26 361.602 204.799 c 361.602
 118.338 291.262 47.998 204.801 47.998 c h
204.801 47.998 m f
0.898039 g
204.801 361.6 m 204.801 47.998 l 291.262 47.998 361.602 118.338 361.602
 204.799 c 361.602 291.26 291.262 361.6 204.801 361.6 c h
204.801 361.6 m f
0 g
220.801 204.799 m 220.801 195.963 213.637 188.799 204.801 188.799 c 195.965
 188.799 188.801 195.963 188.801 204.799 c 188.801 213.635 195.965 220.799
 204.801 220.799 c 213.637 220.799 220.801 213.635 220.801 204.799 c h
220.801 204.799 m f
0.8 g
315.621 315.623 m 287.23 344.014 248.031 361.6 204.801 361.6 c 204.801 
204.799 l h
315.621 315.623 m f
0.94902 g
93.977 93.979 m 122.371 65.584 161.57 47.998 204.801 47.998 c 204.801 204.799
 l h
93.977 93.979 m f
0.8 g
256.801 204.799 m 256.801 176.08 233.52 152.799 204.801 152.799 c 176.082
 152.799 152.801 176.08 152.801 204.799 c 152.801 233.518 176.082 256.799
 204.801 256.799 c 233.52 256.799 256.801 233.518 256.801 204.799 c h
256.801 204.799 m f
0.74902 g
204.801 256.799 m 204.801 152.799 l 233.52 152.799 256.801 176.08 256.801
 204.799 c 256.801 233.518 233.52 256.799 204.801 256.799 c h
204.801 256.799 m f
0.341176 0.337255 0.360784 rg
220.801 204.799 m 220.801 195.963 213.637 188.799 204.801 188.799 c 195.965
 188.799 188.801 195.963 188.801 204.799 c 188.801 213.635 195.965 220.799
 204.801 220.799 c 213.637 220.799 220.801 213.635 220.801 204.799 c h
220.801 204.799 m f
Q Q
showpage
%%Trailer
end restore
%%EOF
