%!PS-Adobe-3.0 EPSF-3.0
%%Creator: cairo 1.14.2 (http://cairographics.org)
%%CreationDate: Thu Apr 12 10:00:28 2018
%%Pages: 1
%%DocumentData: Clean7Bit
%%LanguageLevel: 2
%%BoundingBox: 0 -1 410 410
%%EndComments
%%BeginProlog
save
50 dict begin
/q { gsave } bind def
/Q { grestore } bind def
/cm { 6 array astore concat } bind def
/w { setlinewidth } bind def
/J { setlinecap } bind def
/j { setlinejoin } bind def
/M { setmiterlimit } bind def
/d { setdash } bind def
/m { moveto } bind def
/l { lineto } bind def
/c { curveto } bind def
/h { closepath } bind def
/re { exch dup neg 3 1 roll 5 3 roll moveto 0 rlineto
      0 exch rlineto 0 rlineto closepath } bind def
/S { stroke } bind def
/f { fill } bind def
/f* { eofill } bind def
/n { newpath } bind def
/W { clip } bind def
/W* { eoclip } bind def
/BT { } bind def
/ET { } bind def
/pdfmark where { pop globaldict /?pdfmark /exec load put }
    { globaldict begin /?pdfmark /pop load def /pdfmark
    /cleartomark load def end } ifelse
/BDC { mark 3 1 roll /BDC pdfmark } bind def
/EMC { mark /EMC pdfmark } bind def
/cairo_store_point { /cairo_point_y exch def /cairo_point_x exch def } def
/Tj { show currentpoint cairo_store_point } bind def
/TJ {
  {
    dup
    type /stringtype eq
    { show } { -0.001 mul 0 cairo_font_matrix dtransform rmoveto } ifelse
  } forall
  currentpoint cairo_store_point
} bind def
/cairo_selectfont { cairo_font_matrix aload pop pop pop 0 0 6 array astore
    cairo_font exch selectfont cairo_point_x cairo_point_y moveto } bind def
/Tf { pop /cairo_font exch def /cairo_font_matrix where
      { pop cairo_selectfont } if } bind def
/Td { matrix translate cairo_font_matrix matrix concatmatrix dup
      /cairo_font_matrix exch def dup 4 get exch 5 get cairo_store_point
      /cairo_font where { pop cairo_selectfont } if } bind def
/Tm { 2 copy 8 2 roll 6 array astore /cairo_font_matrix exch def
      cairo_store_point /cairo_font where { pop cairo_selectfont } if } bind def
/g { setgray } bind def
/rg { setrgbcolor } bind def
/d1 { setcachedevice } bind def
%%EndProlog
%%BeginSetup
%%EndSetup
%%Page: 1 1
%%BeginPageSetup
%%PageBoundingBox: 0 -1 410 410
%%EndPageSetup
q 0 -1 410 411 rectclip q
1 0.580392 0 rg
325.602 -0.002 m 84 -0.002 l 37.684 -0.002 0 37.682 0 83.998 c 0 325.6 
l 0 371.916 37.684 409.6 84 409.6 c 325.602 409.6 l 371.918 409.6 409.602
 371.916 409.602 325.6 c 409.602 83.998 l 409.602 37.682 371.918 -0.002 
325.602 -0.002 c h
325.602 -0.002 m f
1 0.407843 0.286275 rg
325.602 409.6 m 204.801 409.6 l 204.801 -0.002 l 325.602 -0.002 l 371.918
 -0.002 409.602 37.682 409.602 83.998 c 409.602 325.6 l 409.602 371.916 
371.918 409.6 325.602 409.6 c h
325.602 409.6 m f
1 g
204.801 361.6 m 118.34 361.6 48 291.26 48 204.799 c 48 118.338 118.34 47.998
 204.801 47.998 c 291.262 47.998 361.602 118.338 361.602 204.799 c 361.602
 291.26 291.262 361.6 204.801 361.6 c h
72 204.799 m 72 278.026 131.574 337.6 204.801 337.6 c 209.355 337.6 213.855
 337.37 218.293 336.92 c 173.969 292.6 l 162.656 292.6 l 117.402 247.342
 l 117.402 236.03 l 72.68 191.307 l 72.23 195.745 72 200.245 72 204.799 
c h
89.039 139.788 m 84.848 147.221 81.352 155.096 78.641 163.327 c 134.938
 219.627 l 145.121 219.627 l 190.375 264.881 l 190.375 275.065 l 246.273
 330.963 l 254.504 328.248 262.379 324.752 269.812 320.561 c 236.195 286.944
 l 224.883 286.944 l 123.059 185.12 l 123.059 173.803 l h
102.914 119.721 m 140.027 156.834 l 151.344 156.834 l 253.164 258.659 l
 253.164 269.971 l 289.879 306.686 l 296.027 301.541 301.703 295.858 306.836
 289.698 c 270.137 253.002 l 258.824 253.002 l 157 151.178 l 157 139.862
 l 119.902 102.764 l 113.742 107.897 108.059 113.573 102.914 119.721 c h
140 88.92 m 173.969 122.893 l 185.285 122.893 l 287.105 224.717 l 287.105
 236.03 l 320.68 269.6 l 324.859 262.155 328.344 254.264 331.043 246.022
 c 275.793 190.776 l 264.48 190.776 l 219.227 145.522 l 219.227 134.205 
l 163.578 78.557 l 155.336 81.256 147.445 84.741 140 88.92 c h
204.801 71.998 m 200.352 71.998 195.953 72.225 191.613 72.655 c 236.762
 117.803 l 246.941 117.803 l 292.199 163.057 l 292.199 173.241 l 336.945
 217.987 l 337.375 213.647 337.602 209.248 337.602 204.799 c 337.602 131.573
 278.027 71.998 204.801 71.998 c h
204.801 71.998 m f
0.94902 g
204.801 361.6 m 204.801 337.6 l 209.355 337.6 213.855 337.37 218.293 336.92
 c 204.801 323.428 l 204.801 289.487 l 246.273 330.959 l 254.504 328.248
 262.379 324.752 269.812 320.561 c 236.195 286.94 l 224.883 286.94 l 204.801
 266.862 l 204.801 210.291 l 253.168 258.659 l 253.168 269.971 l 289.879
 306.686 l 296.027 301.541 301.703 295.858 306.836 289.698 c 270.137 253.002
 l 258.824 253.002 l 204.801 198.979 l 204.801 142.409 l 287.105 224.717
 l 287.105 236.03 l 320.68 269.604 l 324.859 262.155 328.344 254.268 331.043
 246.026 c 275.793 190.776 l 264.48 190.776 l 219.227 145.522 l 219.227 
134.205 l 204.801 119.78 l 204.801 85.842 l 236.762 117.803 l 246.941 117.803
 l 292.199 163.057 l 292.199 173.241 l 336.945 217.987 l 337.375 213.647
 337.602 209.248 337.602 204.799 c 337.602 131.573 278.027 71.998 204.801
 71.998 c 204.801 47.998 l 291.262 47.998 361.602 118.338 361.602 204.799
 c 361.602 291.26 291.262 361.6 204.801 361.6 c h
204.801 361.6 m f
Q Q
showpage
%%Trailer
end restore
%%EOF
