%!PS-Adobe-3.0 EPSF-3.0
%%Creator: cairo 1.14.2 (http://cairographics.org)
%%CreationDate: Thu Apr 12 10:00:28 2018
%%Pages: 1
%%DocumentData: Clean7Bit
%%LanguageLevel: 2
%%BoundingBox: 0 -1 410 410
%%EndComments
%%BeginProlog
save
50 dict begin
/q { gsave } bind def
/Q { grestore } bind def
/cm { 6 array astore concat } bind def
/w { setlinewidth } bind def
/J { setlinecap } bind def
/j { setlinejoin } bind def
/M { setmiterlimit } bind def
/d { setdash } bind def
/m { moveto } bind def
/l { lineto } bind def
/c { curveto } bind def
/h { closepath } bind def
/re { exch dup neg 3 1 roll 5 3 roll moveto 0 rlineto
      0 exch rlineto 0 rlineto closepath } bind def
/S { stroke } bind def
/f { fill } bind def
/f* { eofill } bind def
/n { newpath } bind def
/W { clip } bind def
/W* { eoclip } bind def
/BT { } bind def
/ET { } bind def
/pdfmark where { pop globaldict /?pdfmark /exec load put }
    { globaldict begin /?pdfmark /pop load def /pdfmark
    /cleartomark load def end } ifelse
/BDC { mark 3 1 roll /BDC pdfmark } bind def
/EMC { mark /EMC pdfmark } bind def
/cairo_store_point { /cairo_point_y exch def /cairo_point_x exch def } def
/Tj { show currentpoint cairo_store_point } bind def
/TJ {
  {
    dup
    type /stringtype eq
    { show } { -0.001 mul 0 cairo_font_matrix dtransform rmoveto } ifelse
  } forall
  currentpoint cairo_store_point
} bind def
/cairo_selectfont { cairo_font_matrix aload pop pop pop 0 0 6 array astore
    cairo_font exch selectfont cairo_point_x cairo_point_y moveto } bind def
/Tf { pop /cairo_font exch def /cairo_font_matrix where
      { pop cairo_selectfont } if } bind def
/Td { matrix translate cairo_font_matrix matrix concatmatrix dup
      /cairo_font_matrix exch def dup 4 get exch 5 get cairo_store_point
      /cairo_font where { pop cairo_selectfont } if } bind def
/Tm { 2 copy 8 2 roll 6 array astore /cairo_font_matrix exch def
      cairo_store_point /cairo_font where { pop cairo_selectfont } if } bind def
/g { setgray } bind def
/rg { setrgbcolor } bind def
/d1 { setcachedevice } bind def
%%EndProlog
%%BeginSetup
%%EndSetup
%%Page: 1 1
%%BeginPageSetup
%%PageBoundingBox: 0 -1 410 410
%%EndPageSetup
q 0 -1 410 411 rectclip q
0 0.764706 1 rg
325.602 -0.002 m 84 -0.002 l 37.684 -0.002 0 37.682 0 83.998 c 0 325.6 
l 0 371.916 37.684 409.6 84 409.6 c 325.602 409.6 l 371.918 409.6 409.602
 371.916 409.602 325.6 c 409.602 83.998 l 409.602 37.682 371.918 -0.002 
325.602 -0.002 c h
325.602 -0.002 m f
0 0.666667 0.941176 rg
325.602 409.6 m 204.801 409.6 l 204.801 -0.002 l 325.602 -0.002 l 371.918
 -0.002 409.602 37.682 409.602 83.998 c 409.602 325.6 l 409.602 371.916 
371.918 409.6 325.602 409.6 c h
325.602 409.6 m f
1 g
315.57 315.78 m 285.957 345.334 246.633 361.6 204.805 361.6 c 204.496 361.6
 l 118.074 361.436 47.867 290.987 48 204.557 c 48.055 169.788 59.25 136.866
 80.387 109.358 c 100.844 82.725 129.812 63.041 161.953 53.928 c 168.5 77.018
 l 111.773 93.1 72.09 145.561 72 204.592 c 71.891 277.795 131.348 337.463
 204.543 337.6 c 204.801 337.6 l 240.227 337.6 273.535 323.823 298.613 298.791
 c 323.754 273.702 337.602 240.319 337.602 204.799 c 337.602 141.709 292.777
 86.948 231.02 74.584 c 226.273 73.635 222.84 75.721 221.223 77.053 c 218.41
 79.354 216.801 82.756 216.801 86.385 c 216.801 129.026 l 234.773 131.026
 248.801 146.303 248.801 164.799 c 248.801 212.799 l 264.801 212.799 l 264.801
 236.799 l 240.801 236.799 l 240.801 292.799 l 216.801 292.799 l 216.801
 236.799 l 192.801 236.799 l 192.801 292.799 l 168.801 292.799 l 168.801
 236.799 l 144.801 236.799 l 144.801 212.799 l 160.801 212.799 l 160.801
 164.799 l 160.801 146.303 174.824 131.026 192.801 129.026 c 192.801 86.385
 l 192.801 75.538 197.613 65.37 206.008 58.491 c 212.492 53.174 220.484 
50.35 228.68 50.35 c 231.023 50.35 233.387 50.58 235.73 51.053 c 270.758
 58.065 302.668 77.155 325.586 104.807 c 348.809 132.834 361.602 168.342
 361.602 204.799 c 361.602 246.737 345.254 286.151 315.57 315.78 c h
315.57 315.78 m f
0.94902 g
315.57 315.78 m 285.957 345.334 246.633 361.6 204.805 361.6 c 204.801 361.6
 l 204.801 337.6 l 240.227 337.6 273.535 323.823 298.613 298.791 c 323.754
 273.702 337.602 240.319 337.602 204.799 c 337.602 141.709 292.777 86.948
 231.02 74.584 c 226.273 73.635 222.84 75.721 221.223 77.053 c 218.41 79.354
 216.801 82.756 216.801 86.385 c 216.801 129.026 l 234.773 131.026 248.801
 146.303 248.801 164.799 c 248.801 212.799 l 264.801 212.799 l 264.801 236.799
 l 240.801 236.799 l 240.801 292.799 l 216.801 292.799 l 216.801 236.799
 l 204.801 236.799 l 204.801 59.538 l 205.195 59.182 205.594 58.827 206.008
 58.491 c 212.492 53.174 220.484 50.35 228.68 50.35 c 231.023 50.35 233.387
 50.58 235.73 51.053 c 270.758 58.065 302.668 77.155 325.586 104.807 c 348.809
 132.834 361.602 168.342 361.602 204.799 c 361.602 246.737 345.254 286.151
 315.57 315.78 c h
315.57 315.78 m f
Q Q
showpage
%%Trailer
end restore
%%EOF
