%!PS-Adobe-3.0 EPSF-3.0
%%Creator: cairo 1.14.2 (http://cairographics.org)
%%CreationDate: Thu Apr 12 10:00:28 2018
%%Pages: 1
%%DocumentData: Clean7Bit
%%LanguageLevel: 2
%%BoundingBox: 0 -1 410 410
%%EndComments
%%BeginProlog
save
50 dict begin
/q { gsave } bind def
/Q { grestore } bind def
/cm { 6 array astore concat } bind def
/w { setlinewidth } bind def
/J { setlinecap } bind def
/j { setlinejoin } bind def
/M { setmiterlimit } bind def
/d { setdash } bind def
/m { moveto } bind def
/l { lineto } bind def
/c { curveto } bind def
/h { closepath } bind def
/re { exch dup neg 3 1 roll 5 3 roll moveto 0 rlineto
      0 exch rlineto 0 rlineto closepath } bind def
/S { stroke } bind def
/f { fill } bind def
/f* { eofill } bind def
/n { newpath } bind def
/W { clip } bind def
/W* { eoclip } bind def
/BT { } bind def
/ET { } bind def
/pdfmark where { pop globaldict /?pdfmark /exec load put }
    { globaldict begin /?pdfmark /pop load def /pdfmark
    /cleartomark load def end } ifelse
/BDC { mark 3 1 roll /BDC pdfmark } bind def
/EMC { mark /EMC pdfmark } bind def
/cairo_store_point { /cairo_point_y exch def /cairo_point_x exch def } def
/Tj { show currentpoint cairo_store_point } bind def
/TJ {
  {
    dup
    type /stringtype eq
    { show } { -0.001 mul 0 cairo_font_matrix dtransform rmoveto } ifelse
  } forall
  currentpoint cairo_store_point
} bind def
/cairo_selectfont { cairo_font_matrix aload pop pop pop 0 0 6 array astore
    cairo_font exch selectfont cairo_point_x cairo_point_y moveto } bind def
/Tf { pop /cairo_font exch def /cairo_font_matrix where
      { pop cairo_selectfont } if } bind def
/Td { matrix translate cairo_font_matrix matrix concatmatrix dup
      /cairo_font_matrix exch def dup 4 get exch 5 get cairo_store_point
      /cairo_font where { pop cairo_selectfont } if } bind def
/Tm { 2 copy 8 2 roll 6 array astore /cairo_font_matrix exch def
      cairo_store_point /cairo_font where { pop cairo_selectfont } if } bind def
/g { setgray } bind def
/rg { setrgbcolor } bind def
/d1 { setcachedevice } bind def
%%EndProlog
%%BeginSetup
%%EndSetup
%%Page: 1 1
%%BeginPageSetup
%%PageBoundingBox: 0 -1 410 410
%%EndPageSetup
q 0 -1 410 411 rectclip q
1 0.670588 0.0823529 rg
325.602 -0.002 m 84 -0.002 l 37.684 -0.002 0 37.682 0 83.998 c 0 325.6 
l 0 371.916 37.684 409.6 84 409.6 c 325.602 409.6 l 371.918 409.6 409.602
 371.916 409.602 325.6 c 409.602 83.998 l 409.602 37.682 371.918 -0.002 
325.602 -0.002 c h
325.602 -0.002 m f
1 0.580392 0 rg
325.602 409.6 m 204.801 409.6 l 204.801 -0.002 l 325.602 -0.002 l 371.918
 -0.002 409.602 37.682 409.602 83.998 c 409.602 325.6 l 409.602 371.916 
371.918 409.6 325.602 409.6 c h
325.602 409.6 m f
1 g
136.801 84.799 m 112.801 84.799 l 112.801 124.799 l 136.801 124.799 l h
276.801 152.799 m 249.383 152.799 224.27 142.94 204.801 126.584 c 185.332
 142.94 160.219 152.799 132.801 152.799 c 123.559 152.799 114.578 151.674
 105.988 149.561 c 114.52 165.502 126.805 179.12 141.648 189.276 c 204.816
 161.428 l 267.879 189.327 l 282.754 179.166 295.07 165.53 303.613 149.561
 c 295.02 151.674 286.043 152.799 276.801 152.799 c h
204.801 187.663 m 154.871 209.674 l 199.859 229.506 l 201.348 229.049 202.93
 228.799 204.57 228.799 c 213.406 228.799 220.57 235.963 220.57 244.799 
c 220.57 253.635 213.406 260.799 204.57 260.799 c 198.086 260.799 192.512
 256.936 190 251.389 c 125.125 222.788 l 75.199 244.799 l 204.801 301.936
 l 333.938 244.799 l h
204.801 187.663 m f
0.94902 g
204.57 260.799 m 213.406 260.799 220.57 253.635 220.57 244.799 c 220.57
 235.963 213.406 228.799 204.57 228.799 c 204.57 187.764 l 204.801 187.663
 l 333.938 244.799 l 204.801 301.936 l 204.57 301.834 l h
204.57 260.799 m f
267.879 189.327 m 204.816 161.428 l 204.566 161.538 l 204.566 126.776 l
 204.645 126.709 204.723 126.647 204.801 126.584 c 224.27 142.94 249.379
 152.799 276.801 152.799 c 286.043 152.799 295.02 151.674 303.609 149.561
 c 295.066 165.53 282.754 179.166 267.879 189.327 c h
267.879 189.327 m f
Q Q
showpage
%%Trailer
end restore
%%EOF
