%!PS-Adobe-3.0 EPSF-3.0
%%Creator: cairo 1.14.2 (http://cairographics.org)
%%CreationDate: Thu Apr 12 10:00:28 2018
%%Pages: 1
%%DocumentData: Clean7Bit
%%LanguageLevel: 2
%%BoundingBox: 0 -1 410 410
%%EndComments
%%BeginProlog
save
50 dict begin
/q { gsave } bind def
/Q { grestore } bind def
/cm { 6 array astore concat } bind def
/w { setlinewidth } bind def
/J { setlinecap } bind def
/j { setlinejoin } bind def
/M { setmiterlimit } bind def
/d { setdash } bind def
/m { moveto } bind def
/l { lineto } bind def
/c { curveto } bind def
/h { closepath } bind def
/re { exch dup neg 3 1 roll 5 3 roll moveto 0 rlineto
      0 exch rlineto 0 rlineto closepath } bind def
/S { stroke } bind def
/f { fill } bind def
/f* { eofill } bind def
/n { newpath } bind def
/W { clip } bind def
/W* { eoclip } bind def
/BT { } bind def
/ET { } bind def
/pdfmark where { pop globaldict /?pdfmark /exec load put }
    { globaldict begin /?pdfmark /pop load def /pdfmark
    /cleartomark load def end } ifelse
/BDC { mark 3 1 roll /BDC pdfmark } bind def
/EMC { mark /EMC pdfmark } bind def
/cairo_store_point { /cairo_point_y exch def /cairo_point_x exch def } def
/Tj { show currentpoint cairo_store_point } bind def
/TJ {
  {
    dup
    type /stringtype eq
    { show } { -0.001 mul 0 cairo_font_matrix dtransform rmoveto } ifelse
  } forall
  currentpoint cairo_store_point
} bind def
/cairo_selectfont { cairo_font_matrix aload pop pop pop 0 0 6 array astore
    cairo_font exch selectfont cairo_point_x cairo_point_y moveto } bind def
/Tf { pop /cairo_font exch def /cairo_font_matrix where
      { pop cairo_selectfont } if } bind def
/Td { matrix translate cairo_font_matrix matrix concatmatrix dup
      /cairo_font_matrix exch def dup 4 get exch 5 get cairo_store_point
      /cairo_font where { pop cairo_selectfont } if } bind def
/Tm { 2 copy 8 2 roll 6 array astore /cairo_font_matrix exch def
      cairo_store_point /cairo_font where { pop cairo_selectfont } if } bind def
/g { setgray } bind def
/rg { setrgbcolor } bind def
/d1 { setcachedevice } bind def
%%EndProlog
%%BeginSetup
%%EndSetup
%%Page: 1 1
%%BeginPageSetup
%%PageBoundingBox: 0 -1 410 410
%%EndPageSetup
q 0 -1 410 411 rectclip q
0 0.764706 1 rg
325.602 -0.002 m 84 -0.002 l 37.684 -0.002 0 37.682 0 83.998 c 0 325.6 
l 0 371.916 37.684 409.6 84 409.6 c 325.602 409.6 l 371.918 409.6 409.602
 371.916 409.602 325.6 c 409.602 83.998 l 409.602 37.682 371.918 -0.002 
325.602 -0.002 c h
325.602 -0.002 m f
0 0.666667 0.941176 rg
325.602 409.6 m 204.801 409.6 l 204.801 -0.002 l 325.602 -0.002 l 371.918
 -0.002 409.602 37.682 409.602 83.998 c 409.602 325.6 l 409.602 371.916 
371.918 409.6 325.602 409.6 c h
325.602 409.6 m f
1 g
316.402 196.799 m 311.262 255.92 l 309.633 274.663 294.215 288.799 275.398
 288.799 c 152.801 288.799 l 152.801 308.799 l 152.801 311.006 154.594 312.799
 156.801 312.799 c 176.801 312.799 l 176.801 304.799 l 224.801 304.799 l
 224.801 344.799 l 176.801 344.799 l 176.801 336.799 l 156.801 336.799 l
 141.359 336.799 128.801 324.241 128.801 308.799 c 128.801 288.401 l 112.508
 285.995 99.809 272.834 98.336 255.92 c 93.195 196.799 l 72.199 196.799 
l 72.199 172.799 l 337.402 172.799 l 337.402 196.799 l h
316.402 196.799 m f
216.801 148.799 m 192.801 148.799 l 192.801 88.799 l 148.801 88.799 l 148.801
 64.799 l 260.801 64.799 l 260.801 88.799 l 216.801 88.799 l h
216.801 148.799 m f
0.94902 g
204.801 344.799 20 -40 re f
316.402 196.799 m 311.262 255.92 l 309.633 274.663 294.215 288.799 275.398
 288.799 c 204.801 288.799 l 204.801 172.799 l 337.402 172.799 l 337.402
 196.799 l h
316.402 196.799 m f
216.801 148.799 m 204.801 148.799 l 204.801 64.799 l 260.801 64.799 l 260.801
 88.799 l 216.801 88.799 l h
216.801 148.799 m f
Q Q
showpage
%%Trailer
end restore
%%EOF
