%!PS-Adobe-3.0 EPSF-3.0
%%Creator: cairo 1.14.2 (http://cairographics.org)
%%CreationDate: Thu Apr 12 10:00:28 2018
%%Pages: 1
%%DocumentData: Clean7Bit
%%LanguageLevel: 2
%%BoundingBox: 0 -1 410 410
%%EndComments
%%BeginProlog
save
50 dict begin
/q { gsave } bind def
/Q { grestore } bind def
/cm { 6 array astore concat } bind def
/w { setlinewidth } bind def
/J { setlinecap } bind def
/j { setlinejoin } bind def
/M { setmiterlimit } bind def
/d { setdash } bind def
/m { moveto } bind def
/l { lineto } bind def
/c { curveto } bind def
/h { closepath } bind def
/re { exch dup neg 3 1 roll 5 3 roll moveto 0 rlineto
      0 exch rlineto 0 rlineto closepath } bind def
/S { stroke } bind def
/f { fill } bind def
/f* { eofill } bind def
/n { newpath } bind def
/W { clip } bind def
/W* { eoclip } bind def
/BT { } bind def
/ET { } bind def
/pdfmark where { pop globaldict /?pdfmark /exec load put }
    { globaldict begin /?pdfmark /pop load def /pdfmark
    /cleartomark load def end } ifelse
/BDC { mark 3 1 roll /BDC pdfmark } bind def
/EMC { mark /EMC pdfmark } bind def
/cairo_store_point { /cairo_point_y exch def /cairo_point_x exch def } def
/Tj { show currentpoint cairo_store_point } bind def
/TJ {
  {
    dup
    type /stringtype eq
    { show } { -0.001 mul 0 cairo_font_matrix dtransform rmoveto } ifelse
  } forall
  currentpoint cairo_store_point
} bind def
/cairo_selectfont { cairo_font_matrix aload pop pop pop 0 0 6 array astore
    cairo_font exch selectfont cairo_point_x cairo_point_y moveto } bind def
/Tf { pop /cairo_font exch def /cairo_font_matrix where
      { pop cairo_selectfont } if } bind def
/Td { matrix translate cairo_font_matrix matrix concatmatrix dup
      /cairo_font_matrix exch def dup 4 get exch 5 get cairo_store_point
      /cairo_font where { pop cairo_selectfont } if } bind def
/Tm { 2 copy 8 2 roll 6 array astore /cairo_font_matrix exch def
      cairo_store_point /cairo_font where { pop cairo_selectfont } if } bind def
/g { setgray } bind def
/rg { setrgbcolor } bind def
/d1 { setcachedevice } bind def
%%EndProlog
%%BeginSetup
%%EndSetup
%%Page: 1 1
%%BeginPageSetup
%%PageBoundingBox: 0 -1 410 410
%%EndPageSetup
q 0 -1 410 411 rectclip q
1 g
325.602 -0.002 m 84 -0.002 l 37.684 -0.002 0 37.682 0 83.998 c 0 325.6 
l 0 371.916 37.684 409.6 84 409.6 c 325.602 409.6 l 371.918 409.6 409.602
 371.916 409.602 325.6 c 409.602 83.998 l 409.602 37.682 371.918 -0.002 
325.602 -0.002 c h
325.602 -0.002 m f
0.94902 g
325.602 409.6 m 204.801 409.6 l 204.801 -0.002 l 325.602 -0.002 l 371.918
 -0.002 409.602 37.682 409.602 83.998 c 409.602 325.6 l 409.602 371.916 
371.918 409.6 325.602 409.6 c h
325.602 409.6 m f
1 0.670588 0.0823529 rg
84.801 68.799 m 84.801 92.799 l 409.602 92.799 l 409.602 325.6 l 409.602
 371.916 371.918 409.6 325.602 409.6 c 84 409.6 l 37.684 409.6 0 371.916
 0 325.6 c 0 83.998 l 0 37.682 37.684 -0.002 84 -0.002 c 325.602 -0.002 
l 366.73 -0.002 401.043 29.713 408.219 68.799 c h
298.137 338.424 m 305.934 346.221 318.625 346.221 326.422 338.424 c 334.219
 330.623 334.219 317.936 326.422 310.139 c 317.938 301.655 l 322.469 297.12
 324.965 291.092 324.965 284.682 c 324.965 278.272 322.469 272.245 317.938
 267.713 c 253.449 203.225 l 236.477 220.194 l 218.941 202.659 l 190.656
 230.944 l h
173.078 214.58 m 202.578 185.08 l 105.805 100.834 l 88.836 117.803 l h
173.078 214.58 m f
1 0.580392 0 rg
325.602 409.6 m 204.801 409.6 l 204.801 245.084 l 298.137 338.424 l 305.934
 346.221 318.625 346.221 326.422 338.424 c 334.219 330.623 334.219 317.936
 326.422 310.139 c 317.938 301.655 l 322.469 297.12 324.965 291.092 324.965
 284.682 c 324.965 278.272 322.469 272.245 317.938 267.713 c 253.449 203.225
 l 236.477 220.194 l 218.941 202.659 l 204.801 216.799 l 204.801 92.799 
l 409.602 92.799 l 409.602 325.6 l 409.602 371.916 371.918 409.6 325.602
 409.6 c h
325.602 409.6 m f
204.801 -0.002 m 325.602 -0.002 l 366.73 -0.002 401.043 29.713 408.219 
68.799 c 204.801 68.799 l h
204.801 -0.002 m f
Q Q
showpage
%%Trailer
end restore
%%EOF
