%!PS-Adobe-3.0 EPSF-3.0
%%Creator: cairo 1.14.2 (http://cairographics.org)
%%CreationDate: Thu Apr 12 10:00:28 2018
%%Pages: 1
%%DocumentData: Clean7Bit
%%LanguageLevel: 2
%%BoundingBox: 0 -1 410 410
%%EndComments
%%BeginProlog
save
50 dict begin
/q { gsave } bind def
/Q { grestore } bind def
/cm { 6 array astore concat } bind def
/w { setlinewidth } bind def
/J { setlinecap } bind def
/j { setlinejoin } bind def
/M { setmiterlimit } bind def
/d { setdash } bind def
/m { moveto } bind def
/l { lineto } bind def
/c { curveto } bind def
/h { closepath } bind def
/re { exch dup neg 3 1 roll 5 3 roll moveto 0 rlineto
      0 exch rlineto 0 rlineto closepath } bind def
/S { stroke } bind def
/f { fill } bind def
/f* { eofill } bind def
/n { newpath } bind def
/W { clip } bind def
/W* { eoclip } bind def
/BT { } bind def
/ET { } bind def
/pdfmark where { pop globaldict /?pdfmark /exec load put }
    { globaldict begin /?pdfmark /pop load def /pdfmark
    /cleartomark load def end } ifelse
/BDC { mark 3 1 roll /BDC pdfmark } bind def
/EMC { mark /EMC pdfmark } bind def
/cairo_store_point { /cairo_point_y exch def /cairo_point_x exch def } def
/Tj { show currentpoint cairo_store_point } bind def
/TJ {
  {
    dup
    type /stringtype eq
    { show } { -0.001 mul 0 cairo_font_matrix dtransform rmoveto } ifelse
  } forall
  currentpoint cairo_store_point
} bind def
/cairo_selectfont { cairo_font_matrix aload pop pop pop 0 0 6 array astore
    cairo_font exch selectfont cairo_point_x cairo_point_y moveto } bind def
/Tf { pop /cairo_font exch def /cairo_font_matrix where
      { pop cairo_selectfont } if } bind def
/Td { matrix translate cairo_font_matrix matrix concatmatrix dup
      /cairo_font_matrix exch def dup 4 get exch 5 get cairo_store_point
      /cairo_font where { pop cairo_selectfont } if } bind def
/Tm { 2 copy 8 2 roll 6 array astore /cairo_font_matrix exch def
      cairo_store_point /cairo_font where { pop cairo_selectfont } if } bind def
/g { setgray } bind def
/rg { setrgbcolor } bind def
/d1 { setcachedevice } bind def
%%EndProlog
%%BeginSetup
%%EndSetup
%%Page: 1 1
%%BeginPageSetup
%%PageBoundingBox: 0 -1 410 410
%%EndPageSetup
q 0 -1 410 411 rectclip q
1 g
325.602 -0.002 m 84 -0.002 l 37.684 -0.002 0 37.682 0 83.998 c 0 325.6 
l 0 371.916 37.684 409.6 84 409.6 c 325.602 409.6 l 371.918 409.6 409.602
 371.916 409.602 325.6 c 409.602 83.998 l 409.602 37.682 371.918 -0.002 
325.602 -0.002 c h
325.602 -0.002 m f
0.94902 g
325.602 409.6 m 204.801 409.6 l 204.801 -0.002 l 325.602 -0.002 l 371.918
 -0.002 409.602 37.682 409.602 83.998 c 409.602 325.6 l 409.602 371.916 
371.918 409.6 325.602 409.6 c h
325.602 409.6 m f
1 0.580392 0 rg
399.48 365.541 m 272.684 238.741 l 278.34 233.084 l 333.039 247.264 l 337
 248.291 341.211 247.147 344.105 244.252 c 347.973 240.381 348.598 234.33
 345.598 229.752 c 334.938 213.479 319.711 200.713 301.832 193.049 c 300.727
 192.573 l 277.512 182.627 262.441 160.12 261.379 134.885 c 260.5 113.983
 252.875 94.487 238.176 79.784 c 202.246 43.858 137.664 50.186 93.926 93.928
 c 50.188 137.666 43.855 202.248 79.781 238.174 c 94.484 252.877 113.98 
260.498 134.887 261.377 c 160.117 262.44 182.625 277.514 192.574 300.725
 c 193.047 301.83 l 200.711 319.713 213.48 334.94 229.754 345.6 c 234.328
 348.6 240.383 347.975 244.254 344.104 c 247.145 341.209 248.293 337.002
 247.266 333.038 c 233.086 278.338 l 238.742 272.682 l 365.539 399.483 l
 353.656 405.932 340.047 409.6 325.602 409.6 c 84 409.6 l 37.684 409.6 0
 371.916 0 325.6 c 0 83.998 l 0 37.682 37.684 -0.002 84 -0.002 c 325.602
 -0.002 l 371.918 -0.002 409.602 37.682 409.602 83.998 c 409.602 325.6 l
 409.602 340.049 405.934 353.655 399.48 365.541 c h
399.48 365.541 m f
191.219 145.967 m 145.965 191.221 l 162.938 208.194 l 208.191 162.94 l 
h
191.219 145.967 m f
225.168 179.913 m 179.914 225.166 l 196.883 242.135 l 242.137 196.885 l
 h
225.168 179.913 m f
1 0.407843 0.286275 rg
204.801 322.143 m 211.66 331.303 220.082 339.264 229.754 345.6 c 234.328
 348.596 240.383 347.975 244.254 344.104 c 247.145 341.209 248.293 336.998
 247.266 333.038 c 233.086 278.338 l 238.742 272.682 l 365.539 399.483 l
 353.656 405.932 340.047 409.6 325.602 409.6 c 204.801 409.6 l h
204.801 322.143 m f
399.48 365.541 m 272.684 238.741 l 278.34 233.084 l 333.039 247.264 l 337
 248.291 341.211 247.147 344.105 244.252 c 347.973 240.381 348.598 234.33
 345.598 229.752 c 334.938 213.479 319.711 200.713 301.832 193.049 c 300.727
 192.573 l 277.512 182.627 262.441 160.12 261.379 134.885 c 260.5 113.983
 252.875 94.487 238.176 79.784 c 228.73 70.338 217.305 63.819 204.801 60.127
 c 204.801 -0.002 l 325.602 -0.002 l 371.918 -0.002 409.602 37.682 409.602
 83.998 c 409.602 325.6 l 409.602 340.049 405.934 353.655 399.48 365.541
 c h
399.48 365.541 m f
204.801 159.545 m 208.195 162.94 l 204.801 166.334 l h
204.801 159.545 m f
204.801 234.217 m 204.801 200.276 l 225.164 179.909 l 242.137 196.881 l
 h
204.801 234.217 m f
Q Q
showpage
%%Trailer
end restore
%%EOF
