%!PS-Adobe-3.0 EPSF-3.0
%%Creator: cairo 1.14.2 (http://cairographics.org)
%%CreationDate: Thu Apr 12 10:00:28 2018
%%Pages: 1
%%DocumentData: Clean7Bit
%%LanguageLevel: 2
%%BoundingBox: 0 -1 410 410
%%EndComments
%%BeginProlog
save
50 dict begin
/q { gsave } bind def
/Q { grestore } bind def
/cm { 6 array astore concat } bind def
/w { setlinewidth } bind def
/J { setlinecap } bind def
/j { setlinejoin } bind def
/M { setmiterlimit } bind def
/d { setdash } bind def
/m { moveto } bind def
/l { lineto } bind def
/c { curveto } bind def
/h { closepath } bind def
/re { exch dup neg 3 1 roll 5 3 roll moveto 0 rlineto
      0 exch rlineto 0 rlineto closepath } bind def
/S { stroke } bind def
/f { fill } bind def
/f* { eofill } bind def
/n { newpath } bind def
/W { clip } bind def
/W* { eoclip } bind def
/BT { } bind def
/ET { } bind def
/pdfmark where { pop globaldict /?pdfmark /exec load put }
    { globaldict begin /?pdfmark /pop load def /pdfmark
    /cleartomark load def end } ifelse
/BDC { mark 3 1 roll /BDC pdfmark } bind def
/EMC { mark /EMC pdfmark } bind def
/cairo_store_point { /cairo_point_y exch def /cairo_point_x exch def } def
/Tj { show currentpoint cairo_store_point } bind def
/TJ {
  {
    dup
    type /stringtype eq
    { show } { -0.001 mul 0 cairo_font_matrix dtransform rmoveto } ifelse
  } forall
  currentpoint cairo_store_point
} bind def
/cairo_selectfont { cairo_font_matrix aload pop pop pop 0 0 6 array astore
    cairo_font exch selectfont cairo_point_x cairo_point_y moveto } bind def
/Tf { pop /cairo_font exch def /cairo_font_matrix where
      { pop cairo_selectfont } if } bind def
/Td { matrix translate cairo_font_matrix matrix concatmatrix dup
      /cairo_font_matrix exch def dup 4 get exch 5 get cairo_store_point
      /cairo_font where { pop cairo_selectfont } if } bind def
/Tm { 2 copy 8 2 roll 6 array astore /cairo_font_matrix exch def
      cairo_store_point /cairo_font where { pop cairo_selectfont } if } bind def
/g { setgray } bind def
/rg { setrgbcolor } bind def
/d1 { setcachedevice } bind def
%%EndProlog
%%BeginSetup
%%EndSetup
%%Page: 1 1
%%BeginPageSetup
%%PageBoundingBox: 0 -1 410 410
%%EndPageSetup
q 0 -1 410 411 rectclip q
0.917647 0.34902 0.431373 rg
325.602 -0.002 m 84 -0.002 l 37.684 -0.002 0 37.682 0 83.998 c 0 325.6 
l 0 371.916 37.684 409.6 84 409.6 c 325.602 409.6 l 371.918 409.6 409.602
 371.916 409.602 325.6 c 409.602 83.998 l 409.602 37.682 371.918 -0.002 
325.602 -0.002 c h
325.602 -0.002 m f
0.866667 0.180392 0.266667 rg
325.602 409.6 m 204.801 409.6 l 204.801 -0.002 l 325.602 -0.002 l 371.918
 -0.002 409.602 37.682 409.602 83.998 c 409.602 325.6 l 409.602 371.916 
371.918 409.6 325.602 409.6 c h
325.602 409.6 m f
0.94902 g
217.395 328.573 m 235.688 352.682 261.121 352.799 261.121 352.799 c 261.121
 352.799 264.902 330.135 246.73 308.299 c 227.328 284.983 205.27 288.799
 205.27 288.799 c 205.27 288.799 201.129 307.135 217.395 328.573 c h
217.395 328.573 m f
1 g
256.648 74.807 m 240.379 74.807 227.734 85.772 210.598 85.772 c 193.133
 85.772 175.801 74.401 164.512 74.401 c 132.176 74.401 91.32 144.405 91.32
 200.674 c 91.32 256.038 125.902 285.08 158.336 285.08 c 179.422 285.08 
195.785 272.92 206.746 272.92 c 216.16 272.92 233.625 285.854 256.355 285.854
 c 295.488 285.854 310.883 258.01 310.883 258.01 c 310.883 258.01 280.773
 242.616 280.773 205.264 c 280.773 163.127 318.281 148.604 318.281 148.604
 c 318.281 148.604 292.062 74.807 256.648 74.807 c h
256.648 74.807 m f
0.94902 g
280.773 205.264 m 280.773 242.616 310.883 258.01 310.883 258.01 c 310.883
 258.01 295.488 285.854 256.355 285.854 c 233.621 285.854 216.16 272.92 
206.746 272.92 c 206.117 272.92 205.465 272.963 204.801 273.041 c 204.801
 85.377 l 206.727 85.623 208.66 85.772 210.598 85.772 c 227.734 85.772 240.379
 74.811 256.648 74.811 c 292.062 74.811 318.277 148.608 318.277 148.608 
c 318.277 148.608 280.773 163.127 280.773 205.264 c h
280.773 205.264 m f
Q Q
showpage
%%Trailer
end restore
%%EOF
