%!PS-Adobe-3.0 EPSF-3.0
%%Creator: cairo 1.14.2 (http://cairographics.org)
%%CreationDate: Thu Apr 12 10:00:28 2018
%%Pages: 1
%%DocumentData: Clean7Bit
%%LanguageLevel: 2
%%BoundingBox: 0 -1 410 410
%%EndComments
%%BeginProlog
save
50 dict begin
/q { gsave } bind def
/Q { grestore } bind def
/cm { 6 array astore concat } bind def
/w { setlinewidth } bind def
/J { setlinecap } bind def
/j { setlinejoin } bind def
/M { setmiterlimit } bind def
/d { setdash } bind def
/m { moveto } bind def
/l { lineto } bind def
/c { curveto } bind def
/h { closepath } bind def
/re { exch dup neg 3 1 roll 5 3 roll moveto 0 rlineto
      0 exch rlineto 0 rlineto closepath } bind def
/S { stroke } bind def
/f { fill } bind def
/f* { eofill } bind def
/n { newpath } bind def
/W { clip } bind def
/W* { eoclip } bind def
/BT { } bind def
/ET { } bind def
/pdfmark where { pop globaldict /?pdfmark /exec load put }
    { globaldict begin /?pdfmark /pop load def /pdfmark
    /cleartomark load def end } ifelse
/BDC { mark 3 1 roll /BDC pdfmark } bind def
/EMC { mark /EMC pdfmark } bind def
/cairo_store_point { /cairo_point_y exch def /cairo_point_x exch def } def
/Tj { show currentpoint cairo_store_point } bind def
/TJ {
  {
    dup
    type /stringtype eq
    { show } { -0.001 mul 0 cairo_font_matrix dtransform rmoveto } ifelse
  } forall
  currentpoint cairo_store_point
} bind def
/cairo_selectfont { cairo_font_matrix aload pop pop pop 0 0 6 array astore
    cairo_font exch selectfont cairo_point_x cairo_point_y moveto } bind def
/Tf { pop /cairo_font exch def /cairo_font_matrix where
      { pop cairo_selectfont } if } bind def
/Td { matrix translate cairo_font_matrix matrix concatmatrix dup
      /cairo_font_matrix exch def dup 4 get exch 5 get cairo_store_point
      /cairo_font where { pop cairo_selectfont } if } bind def
/Tm { 2 copy 8 2 roll 6 array astore /cairo_font_matrix exch def
      cairo_store_point /cairo_font where { pop cairo_selectfont } if } bind def
/g { setgray } bind def
/rg { setrgbcolor } bind def
/d1 { setcachedevice } bind def
%%EndProlog
%%BeginSetup
%%EndSetup
%%Page: 1 1
%%BeginPageSetup
%%PageBoundingBox: 0 -1 410 410
%%EndPageSetup
q 0 -1 410 411 rectclip q
1 g
325.602 -0.002 m 84 -0.002 l 37.684 -0.002 0 37.682 0 83.998 c 0 325.6 
l 0 371.916 37.684 409.6 84 409.6 c 325.602 409.6 l 371.918 409.6 409.602
 371.916 409.602 325.6 c 409.602 83.998 l 409.602 37.682 371.918 -0.002 
325.602 -0.002 c h
325.602 -0.002 m f
0.94902 g
325.602 409.6 m 204.801 409.6 l 204.801 -0.002 l 325.602 -0.002 l 371.918
 -0.002 409.602 37.682 409.602 83.998 c 409.602 325.6 l 409.602 371.916 
371.918 409.6 325.602 409.6 c h
325.602 409.6 m f
0.341176 0.337255 0.360784 rg
326.988 223.116 m 300.414 199.034 l 276.664 254.221 l 205.234 114.569 l
 163.438 215.842 l 133.391 159.241 l 104 188.631 l 83.824 159.998 l 0 159.998
 l 0 83.998 l 0 37.682 37.684 -0.002 84 -0.002 c 325.602 -0.002 l 371.918
 -0.002 409.602 37.682 409.602 83.998 c 409.602 169.6 l 355.156 169.6 l 
h
326.988 223.116 m f
325.602 409.6 m 84 409.6 l 37.684 409.6 0 371.916 0 325.6 c 0 183.998 l
 71.375 183.998 l 100.801 225.768 l 127.41 199.163 l 166.16 272.159 l 207.566
 171.83 l 278.535 310.58 l 309.184 239.37 l 333.809 261.686 l 369.645 193.6
 l 409.602 193.6 l 409.602 325.6 l 409.602 371.916 371.918 409.6 325.602
 409.6 c h
325.602 409.6 m f
0.243137 0.239216 0.258824 rg
326.988 223.116 m 300.414 199.034 l 276.664 254.221 l 205.234 114.569 l
 204.801 115.623 l 204.801 -0.002 l 325.602 -0.002 l 371.918 -0.002 409.602
 37.682 409.602 83.998 c 409.602 169.6 l 355.156 169.6 l h
326.988 223.116 m f
325.602 409.6 m 204.801 409.6 l 204.801 178.534 l 207.566 171.83 l 278.535
 310.58 l 309.184 239.37 l 333.809 261.686 l 369.645 193.6 l 409.602 193.6
 l 409.602 325.6 l 409.602 371.916 371.918 409.6 325.602 409.6 c h
325.602 409.6 m f
0 0.666667 0.941176 rg
265.602 409.6 24 -409.602 re f
0 0.764706 1 rg
301.602 294.401 m 301.602 281.147 290.855 270.401 277.602 270.401 c 264.344
 270.401 253.602 281.147 253.602 294.401 c 253.602 307.655 264.344 318.401
 277.602 318.401 c 290.855 318.401 301.602 307.655 301.602 294.401 c h
301.602 294.401 m f
Q Q
showpage
%%Trailer
end restore
%%EOF
