%!PS-Adobe-3.0 EPSF-3.0
%%Creator: cairo 1.14.2 (http://cairographics.org)
%%CreationDate: Thu Apr 12 10:00:28 2018
%%Pages: 1
%%DocumentData: Clean7Bit
%%LanguageLevel: 2
%%BoundingBox: 0 -1 410 410
%%EndComments
%%BeginProlog
save
50 dict begin
/q { gsave } bind def
/Q { grestore } bind def
/cm { 6 array astore concat } bind def
/w { setlinewidth } bind def
/J { setlinecap } bind def
/j { setlinejoin } bind def
/M { setmiterlimit } bind def
/d { setdash } bind def
/m { moveto } bind def
/l { lineto } bind def
/c { curveto } bind def
/h { closepath } bind def
/re { exch dup neg 3 1 roll 5 3 roll moveto 0 rlineto
      0 exch rlineto 0 rlineto closepath } bind def
/S { stroke } bind def
/f { fill } bind def
/f* { eofill } bind def
/n { newpath } bind def
/W { clip } bind def
/W* { eoclip } bind def
/BT { } bind def
/ET { } bind def
/pdfmark where { pop globaldict /?pdfmark /exec load put }
    { globaldict begin /?pdfmark /pop load def /pdfmark
    /cleartomark load def end } ifelse
/BDC { mark 3 1 roll /BDC pdfmark } bind def
/EMC { mark /EMC pdfmark } bind def
/cairo_store_point { /cairo_point_y exch def /cairo_point_x exch def } def
/Tj { show currentpoint cairo_store_point } bind def
/TJ {
  {
    dup
    type /stringtype eq
    { show } { -0.001 mul 0 cairo_font_matrix dtransform rmoveto } ifelse
  } forall
  currentpoint cairo_store_point
} bind def
/cairo_selectfont { cairo_font_matrix aload pop pop pop 0 0 6 array astore
    cairo_font exch selectfont cairo_point_x cairo_point_y moveto } bind def
/Tf { pop /cairo_font exch def /cairo_font_matrix where
      { pop cairo_selectfont } if } bind def
/Td { matrix translate cairo_font_matrix matrix concatmatrix dup
      /cairo_font_matrix exch def dup 4 get exch 5 get cairo_store_point
      /cairo_font where { pop cairo_selectfont } if } bind def
/Tm { 2 copy 8 2 roll 6 array astore /cairo_font_matrix exch def
      cairo_store_point /cairo_font where { pop cairo_selectfont } if } bind def
/g { setgray } bind def
/rg { setrgbcolor } bind def
/d1 { setcachedevice } bind def
%%EndProlog
%%BeginSetup
%%EndSetup
%%Page: 1 1
%%BeginPageSetup
%%PageBoundingBox: 0 -1 410 410
%%EndPageSetup
q 0 -1 410 411 rectclip q
0.94902 g
325.602 -0.002 m 84 -0.002 l 37.684 -0.002 0 37.682 0 83.998 c 0 325.6 
l 0 371.916 37.684 409.6 84 409.6 c 325.602 409.6 l 371.918 409.6 409.602
 371.916 409.602 325.6 c 409.602 83.998 l 409.602 37.682 371.918 -0.002 
325.602 -0.002 c h
325.602 -0.002 m f
0.898039 g
325.602 409.6 m 204.801 409.6 l 204.801 -0.002 l 325.602 -0.002 l 371.918
 -0.002 409.602 37.682 409.602 83.998 c 409.602 325.6 l 409.602 371.916 
371.918 409.6 325.602 409.6 c h
325.602 409.6 m f
0 0.764706 1 rg
76 168.799 m 56.148 168.799 40 184.948 40 204.799 c 40 224.651 56.148 240.799
 76 240.799 c 95.852 240.799 112 224.651 112 204.799 c 112 184.948 95.852
 168.799 76 168.799 c h
76 216.799 m 69.383 216.799 64 211.416 64 204.799 c 64 198.182 69.383 192.799
 76 192.799 c 82.617 192.799 88 198.182 88 204.799 c 88 211.416 82.617 216.799
 76 216.799 c h
76 216.799 m f
0.529412 0.901961 0.580392 rg
76 72.799 m 56.148 72.799 40 88.948 40 108.799 c 40 128.651 56.148 144.799
 76 144.799 c 95.852 144.799 112 128.651 112 108.799 c 112 88.948 95.852
 72.799 76 72.799 c h
76 120.799 m 69.383 120.799 64 115.416 64 108.799 c 64 102.182 69.383 96.799
 76 96.799 c 82.617 96.799 88 102.182 88 108.799 c 88 115.416 82.617 120.799
 76 120.799 c h
76 120.799 m f
1 0.670588 0.0823529 rg
76 264.799 m 56.148 264.799 40 280.948 40 300.799 c 40 320.651 56.148 336.799
 76 336.799 c 95.852 336.799 112 320.651 112 300.799 c 112 280.948 95.852
 264.799 76 264.799 c h
76 312.799 m 69.383 312.799 64 307.416 64 300.799 c 64 294.182 69.383 288.799
 76 288.799 c 82.617 288.799 88 294.182 88 300.799 c 88 307.416 82.617 312.799
 76 312.799 c h
76 312.799 m f
0.898039 g
136 168.799 273.602 -24 re f
408.738 71.998 m 136 71.998 l 136 47.998 l 401.484 47.998 l 405.039 55.463
 407.523 63.53 408.738 71.998 c h
408.738 71.998 m f
136 361.6 m 136 337.6 l 408.738 337.6 l 407.523 346.069 405.039 354.135
 401.484 361.6 c h
136 361.6 m f
136 264.799 273.602 -24 re f
0.8 g
204.801 47.998 m 401.484 47.998 l 405.039 55.463 407.523 63.53 408.738 
71.998 c 204.801 71.998 l h
204.801 47.998 m f
204.801 337.6 m 408.738 337.6 l 407.523 346.069 405.039 354.135 401.484
 361.6 c 204.801 361.6 l h
204.801 337.6 m f
204.801 168.799 204.801 -24 re f
204.801 264.799 204.801 -24 re f
Q Q
showpage
%%Trailer
end restore
%%EOF
