%!PS-Adobe-3.0 EPSF-3.0
%%Creator: cairo 1.14.2 (http://cairographics.org)
%%CreationDate: Thu Apr 12 10:00:28 2018
%%Pages: 1
%%DocumentData: Clean7Bit
%%LanguageLevel: 2
%%BoundingBox: 0 -1 410 410
%%EndComments
%%BeginProlog
save
50 dict begin
/q { gsave } bind def
/Q { grestore } bind def
/cm { 6 array astore concat } bind def
/w { setlinewidth } bind def
/J { setlinecap } bind def
/j { setlinejoin } bind def
/M { setmiterlimit } bind def
/d { setdash } bind def
/m { moveto } bind def
/l { lineto } bind def
/c { curveto } bind def
/h { closepath } bind def
/re { exch dup neg 3 1 roll 5 3 roll moveto 0 rlineto
      0 exch rlineto 0 rlineto closepath } bind def
/S { stroke } bind def
/f { fill } bind def
/f* { eofill } bind def
/n { newpath } bind def
/W { clip } bind def
/W* { eoclip } bind def
/BT { } bind def
/ET { } bind def
/pdfmark where { pop globaldict /?pdfmark /exec load put }
    { globaldict begin /?pdfmark /pop load def /pdfmark
    /cleartomark load def end } ifelse
/BDC { mark 3 1 roll /BDC pdfmark } bind def
/EMC { mark /EMC pdfmark } bind def
/cairo_store_point { /cairo_point_y exch def /cairo_point_x exch def } def
/Tj { show currentpoint cairo_store_point } bind def
/TJ {
  {
    dup
    type /stringtype eq
    { show } { -0.001 mul 0 cairo_font_matrix dtransform rmoveto } ifelse
  } forall
  currentpoint cairo_store_point
} bind def
/cairo_selectfont { cairo_font_matrix aload pop pop pop 0 0 6 array astore
    cairo_font exch selectfont cairo_point_x cairo_point_y moveto } bind def
/Tf { pop /cairo_font exch def /cairo_font_matrix where
      { pop cairo_selectfont } if } bind def
/Td { matrix translate cairo_font_matrix matrix concatmatrix dup
      /cairo_font_matrix exch def dup 4 get exch 5 get cairo_store_point
      /cairo_font where { pop cairo_selectfont } if } bind def
/Tm { 2 copy 8 2 roll 6 array astore /cairo_font_matrix exch def
      cairo_store_point /cairo_font where { pop cairo_selectfont } if } bind def
/g { setgray } bind def
/rg { setrgbcolor } bind def
/d1 { setcachedevice } bind def
%%EndProlog
%%BeginSetup
%%EndSetup
%%Page: 1 1
%%BeginPageSetup
%%PageBoundingBox: 0 -1 410 410
%%EndPageSetup
q 0 -1 410 411 rectclip q
0.94902 g
325.602 -0.002 m 84 -0.002 l 37.684 -0.002 0 37.682 0 83.998 c 0 325.6 
l 0 371.916 37.684 409.6 84 409.6 c 325.602 409.6 l 371.918 409.6 409.602
 371.916 409.602 325.6 c 409.602 83.998 l 409.602 37.682 371.918 -0.002 
325.602 -0.002 c h
325.602 -0.002 m f
0.898039 g
325.602 409.6 m 204.801 409.6 l 204.801 -0.002 l 325.602 -0.002 l 371.918
 -0.002 409.602 37.682 409.602 83.998 c 409.602 325.6 l 409.602 371.916 
371.918 409.6 325.602 409.6 c h
325.602 409.6 m f
0.8 g
236.801 257.6 m 236.801 250.971 231.426 245.6 224.801 245.6 c 218.172 245.6
 212.801 250.971 212.801 257.6 c 212.801 264.229 218.172 269.6 224.801 269.6
 c 231.426 269.6 236.801 264.229 236.801 257.6 c h
236.801 257.6 m f
276.801 257.6 m 276.801 250.971 271.426 245.6 264.801 245.6 c 258.172 245.6
 252.801 250.971 252.801 257.6 c 252.801 264.229 258.172 269.6 264.801 269.6
 c 271.426 269.6 276.801 264.229 276.801 257.6 c h
276.801 257.6 m f
316.801 257.6 m 316.801 250.971 311.426 245.6 304.801 245.6 c 298.172 245.6
 292.801 250.971 292.801 257.6 c 292.801 264.229 298.172 269.6 304.801 269.6
 c 311.426 269.6 316.801 264.229 316.801 257.6 c h
316.801 257.6 m f
356.801 257.6 m 356.801 250.971 351.426 245.6 344.801 245.6 c 338.172 245.6
 332.801 250.971 332.801 257.6 c 332.801 264.229 338.172 269.6 344.801 269.6
 c 351.426 269.6 356.801 264.229 356.801 257.6 c h
356.801 257.6 m f
396.801 257.6 m 396.801 250.971 391.426 245.6 384.801 245.6 c 378.172 245.6
 372.801 250.971 372.801 257.6 c 372.801 264.229 378.172 269.6 384.801 269.6
 c 391.426 269.6 396.801 264.229 396.801 257.6 c h
396.801 257.6 m f
0.898039 g
196.801 257.6 m 196.801 250.971 191.426 245.6 184.801 245.6 c 178.172 245.6
 172.801 250.971 172.801 257.6 c 172.801 264.229 178.172 269.6 184.801 269.6
 c 191.426 269.6 196.801 264.229 196.801 257.6 c h
196.801 257.6 m f
156.801 257.6 m 156.801 250.971 151.426 245.6 144.801 245.6 c 138.172 245.6
 132.801 250.971 132.801 257.6 c 132.801 264.229 138.172 269.6 144.801 269.6
 c 151.426 269.6 156.801 264.229 156.801 257.6 c h
156.801 257.6 m f
116.801 257.6 m 116.801 250.971 111.426 245.6 104.801 245.6 c 98.172 245.6
 92.801 250.971 92.801 257.6 c 92.801 264.229 98.172 269.6 104.801 269.6
 c 111.426 269.6 116.801 264.229 116.801 257.6 c h
116.801 257.6 m f
76.801 257.6 m 76.801 250.971 71.426 245.6 64.801 245.6 c 58.172 245.6 
52.801 250.971 52.801 257.6 c 52.801 264.229 58.172 269.6 64.801 269.6 c
 71.426 269.6 76.801 264.229 76.801 257.6 c h
76.801 257.6 m f
36.801 257.6 m 36.801 250.971 31.426 245.6 24.801 245.6 c 18.172 245.6 
12.801 250.971 12.801 257.6 c 12.801 264.229 18.172 269.6 24.801 269.6 c
 31.426 269.6 36.801 264.229 36.801 257.6 c h
36.801 257.6 m f
1 0.862745 0.25098 rg
409.602 325.6 m 409.602 371.916 371.918 409.6 325.602 409.6 c 84 409.6 
l 37.684 409.6 0 371.916 0 325.6 c 0 293.6 l 409.602 293.6 l h
409.602 325.6 m f
1 0.670588 0.0823529 rg
325.602 409.6 m 204.801 409.6 l 204.801 293.6 l 409.602 293.6 l 409.602
 325.6 l 409.602 371.916 371.918 409.6 325.602 409.6 c h
325.602 409.6 m f
0.898039 g
409.289 76.799 m 0.312 76.799 l 1.031 68.389 2.988 60.327 6.012 52.799 
c 403.59 52.799 l 406.609 60.327 408.57 68.389 409.289 76.799 c h
409.289 76.799 m f
0 172.799 409.602 -24 re f
0.8 g
204.801 52.799 m 403.59 52.799 l 406.609 60.327 408.57 68.389 409.289 76.799
 c 204.801 76.799 l h
204.801 52.799 m f
204.801 172.799 204.801 -24 re f
Q Q
showpage
%%Trailer
end restore
%%EOF
