%!PS-Adobe-3.0 EPSF-3.0
%%Creator: cairo 1.14.2 (http://cairographics.org)
%%CreationDate: Thu Apr 12 10:00:28 2018
%%Pages: 1
%%DocumentData: Clean7Bit
%%LanguageLevel: 2
%%BoundingBox: 0 -1 410 410
%%EndComments
%%BeginProlog
save
50 dict begin
/q { gsave } bind def
/Q { grestore } bind def
/cm { 6 array astore concat } bind def
/w { setlinewidth } bind def
/J { setlinecap } bind def
/j { setlinejoin } bind def
/M { setmiterlimit } bind def
/d { setdash } bind def
/m { moveto } bind def
/l { lineto } bind def
/c { curveto } bind def
/h { closepath } bind def
/re { exch dup neg 3 1 roll 5 3 roll moveto 0 rlineto
      0 exch rlineto 0 rlineto closepath } bind def
/S { stroke } bind def
/f { fill } bind def
/f* { eofill } bind def
/n { newpath } bind def
/W { clip } bind def
/W* { eoclip } bind def
/BT { } bind def
/ET { } bind def
/pdfmark where { pop globaldict /?pdfmark /exec load put }
    { globaldict begin /?pdfmark /pop load def /pdfmark
    /cleartomark load def end } ifelse
/BDC { mark 3 1 roll /BDC pdfmark } bind def
/EMC { mark /EMC pdfmark } bind def
/cairo_store_point { /cairo_point_y exch def /cairo_point_x exch def } def
/Tj { show currentpoint cairo_store_point } bind def
/TJ {
  {
    dup
    type /stringtype eq
    { show } { -0.001 mul 0 cairo_font_matrix dtransform rmoveto } ifelse
  } forall
  currentpoint cairo_store_point
} bind def
/cairo_selectfont { cairo_font_matrix aload pop pop pop 0 0 6 array astore
    cairo_font exch selectfont cairo_point_x cairo_point_y moveto } bind def
/Tf { pop /cairo_font exch def /cairo_font_matrix where
      { pop cairo_selectfont } if } bind def
/Td { matrix translate cairo_font_matrix matrix concatmatrix dup
      /cairo_font_matrix exch def dup 4 get exch 5 get cairo_store_point
      /cairo_font where { pop cairo_selectfont } if } bind def
/Tm { 2 copy 8 2 roll 6 array astore /cairo_font_matrix exch def
      cairo_store_point /cairo_font where { pop cairo_selectfont } if } bind def
/g { setgray } bind def
/rg { setrgbcolor } bind def
/d1 { setcachedevice } bind def
%%EndProlog
%%BeginSetup
%%EndSetup
%%Page: 1 1
%%BeginPageSetup
%%PageBoundingBox: 0 -1 410 410
%%EndPageSetup
q 0 -1 410 411 rectclip q
0.94902 g
325.602 -0.002 m 84 -0.002 l 37.684 -0.002 0 37.682 0 83.998 c 0 325.6 
l 0 371.916 37.684 409.6 84 409.6 c 325.602 409.6 l 371.918 409.6 409.602
 371.916 409.602 325.6 c 409.602 83.998 l 409.602 37.682 371.918 -0.002 
325.602 -0.002 c h
325.602 -0.002 m f
0.898039 g
325.602 409.6 m 204.801 409.6 l 204.801 -0.002 l 325.602 -0.002 l 371.918
 -0.002 409.602 37.682 409.602 83.998 c 409.602 325.6 l 409.602 371.916 
371.918 409.6 325.602 409.6 c h
325.602 409.6 m f
0.301961 1 0.898039 rg
0 257.6 m 0 83.998 l 0 37.682 37.684 -0.002 84 -0.002 c 325.602 -0.002 
l 371.918 -0.002 409.602 37.682 409.602 83.998 c 409.602 257.6 l h
0 257.6 m f
0.223529 0.898039 0.815686 rg
204.801 257.6 m 204.801 -0.002 l 325.602 -0.002 l 371.918 -0.002 409.602
 37.682 409.602 83.998 c 409.602 257.6 l h
204.801 257.6 m f
0.341176 0.337255 0.360784 rg
353.305 404.901 m 397.039 345.6 l 319.66 345.6 l 272.461 409.6 l 213.039
 409.6 l 260.238 345.6 l 185.258 345.6 l 138.059 409.6 l 84 409.6 l 82.242
 409.6 80.496 409.538 78.762 409.432 c 125.84 345.6 l 50.062 345.6 l 22.59
 382.846 l 8.586 367.834 0 347.702 0 325.6 c 0 257.6 l 2.859 257.6 l 50.062
 321.6 l 125.84 321.6 l 78.641 257.6 l 138.062 257.6 l 185.262 321.6 l 260.242
 321.6 l 213.039 257.6 l 272.461 257.6 l 319.66 321.6 l 397.039 321.6 l 
349.84 257.6 l 379.66 257.6 l 409.602 298.198 l 409.602 325.6 l 409.602 
362.213 386.051 393.424 353.305 404.901 c h
353.305 404.901 m f
0.243137 0.239216 0.258824 rg
353.305 404.901 m 397.039 345.6 l 319.66 345.6 l 272.461 409.6 l 213.039
 409.6 l 260.238 345.6 l 204.801 345.6 l 204.801 321.6 l 260.238 321.6 l
 213.039 257.6 l 272.461 257.6 l 319.66 321.6 l 397.039 321.6 l 349.84 257.6
 l 379.66 257.6 l 409.602 298.198 l 409.602 325.6 l 409.602 362.213 386.051
 393.424 353.305 404.901 c h
353.305 404.901 m f
Q Q
showpage
%%Trailer
end restore
%%EOF
