%!PS-Adobe-3.0 EPSF-3.0
%%Creator: cairo 1.14.2 (http://cairographics.org)
%%CreationDate: Thu Apr 12 10:00:28 2018
%%Pages: 1
%%DocumentData: Clean7Bit
%%LanguageLevel: 2
%%BoundingBox: 0 -1 410 410
%%EndComments
%%BeginProlog
save
50 dict begin
/q { gsave } bind def
/Q { grestore } bind def
/cm { 6 array astore concat } bind def
/w { setlinewidth } bind def
/J { setlinecap } bind def
/j { setlinejoin } bind def
/M { setmiterlimit } bind def
/d { setdash } bind def
/m { moveto } bind def
/l { lineto } bind def
/c { curveto } bind def
/h { closepath } bind def
/re { exch dup neg 3 1 roll 5 3 roll moveto 0 rlineto
      0 exch rlineto 0 rlineto closepath } bind def
/S { stroke } bind def
/f { fill } bind def
/f* { eofill } bind def
/n { newpath } bind def
/W { clip } bind def
/W* { eoclip } bind def
/BT { } bind def
/ET { } bind def
/pdfmark where { pop globaldict /?pdfmark /exec load put }
    { globaldict begin /?pdfmark /pop load def /pdfmark
    /cleartomark load def end } ifelse
/BDC { mark 3 1 roll /BDC pdfmark } bind def
/EMC { mark /EMC pdfmark } bind def
/cairo_store_point { /cairo_point_y exch def /cairo_point_x exch def } def
/Tj { show currentpoint cairo_store_point } bind def
/TJ {
  {
    dup
    type /stringtype eq
    { show } { -0.001 mul 0 cairo_font_matrix dtransform rmoveto } ifelse
  } forall
  currentpoint cairo_store_point
} bind def
/cairo_selectfont { cairo_font_matrix aload pop pop pop 0 0 6 array astore
    cairo_font exch selectfont cairo_point_x cairo_point_y moveto } bind def
/Tf { pop /cairo_font exch def /cairo_font_matrix where
      { pop cairo_selectfont } if } bind def
/Td { matrix translate cairo_font_matrix matrix concatmatrix dup
      /cairo_font_matrix exch def dup 4 get exch 5 get cairo_store_point
      /cairo_font where { pop cairo_selectfont } if } bind def
/Tm { 2 copy 8 2 roll 6 array astore /cairo_font_matrix exch def
      cairo_store_point /cairo_font where { pop cairo_selectfont } if } bind def
/g { setgray } bind def
/rg { setrgbcolor } bind def
/d1 { setcachedevice } bind def
%%EndProlog
%%BeginSetup
%%EndSetup
%%Page: 1 1
%%BeginPageSetup
%%PageBoundingBox: 0 -1 410 410
%%EndPageSetup
q 0 -1 410 411 rectclip q
0.94902 g
325.602 -0.002 m 84 -0.002 l 37.684 -0.002 0 37.682 0 83.998 c 0 325.6 
l 0 371.916 37.684 409.6 84 409.6 c 325.602 409.6 l 371.918 409.6 409.602
 371.916 409.602 325.6 c 409.602 83.998 l 409.602 37.682 371.918 -0.002 
325.602 -0.002 c h
325.602 -0.002 m f
0.898039 g
325.602 409.6 m 204.801 409.6 l 204.801 -0.002 l 325.602 -0.002 l 371.918
 -0.002 409.602 37.682 409.602 83.998 c 409.602 325.6 l 409.602 371.916 
371.918 409.6 325.602 409.6 c h
325.602 409.6 m f
1 0.670588 0.0823529 rg
207.008 230.127 m 202.59 230.127 l 180.5 230.127 162.59 248.034 162.59 
270.127 c 162.59 317.6 l 162.59 339.69 180.5 357.6 202.59 357.6 c 207.008
 357.6 l 229.102 357.6 247.008 339.69 247.008 317.6 c 247.008 270.127 l 
247.008 248.034 229.102 230.127 207.008 230.127 c h
207.008 230.127 m f
1 0.407843 0.286275 rg
188.453 224.272 m 185.328 221.147 l 169.707 205.526 144.383 205.526 128.762
 221.147 c 95.191 254.713 l 79.57 270.334 79.57 295.663 95.191 311.284 c
 98.316 314.409 l 113.938 330.03 139.262 330.03 154.887 314.409 c 188.453
 280.838 l 204.074 265.217 204.074 239.893 188.453 224.272 c h
188.453 224.272 m f
1 0.352941 0.831373 rg
179.473 207.01 m 179.473 202.588 l 179.473 180.498 161.566 162.588 139.473
 162.588 c 92 162.588 l 69.91 162.588 52 180.498 52 202.588 c 52 207.01 
l 52 229.1 69.91 247.01 92 247.01 c 139.473 247.01 l 161.566 247.01 179.473
 229.1 179.473 207.01 c h
179.473 207.01 m f
0.803922 0.403922 0.898039 rg
185.328 188.455 m 188.453 185.33 l 204.074 169.709 204.074 144.381 188.453
 128.76 c 154.887 95.19 l 139.266 79.569 113.938 79.569 98.316 95.19 c 95.191
 98.315 l 79.57 113.936 79.57 139.264 95.191 154.885 c 128.762 188.455 l
 144.383 204.077 169.707 204.077 185.328 188.455 c h
185.328 188.455 m f
0 0.764706 1 rg
202.59 179.475 m 207.012 179.475 l 229.102 179.475 247.012 161.565 247.012
 139.475 c 247.012 91.998 l 247.012 69.909 229.102 51.998 207.012 51.998
 c 202.59 51.998 l 180.5 51.998 162.59 69.909 162.59 91.998 c 162.59 139.475
 l 162.59 161.565 180.5 179.475 202.59 179.475 c h
202.59 179.475 m f
0.223529 0.898039 0.815686 rg
221.145 185.33 m 224.27 188.455 l 239.891 204.077 265.219 204.077 280.84
 188.455 c 314.41 154.885 l 330.031 139.264 330.031 113.936 314.41 98.315
 c 311.285 95.19 l 295.664 79.569 270.336 79.569 254.715 95.19 c 221.145
 128.76 l 205.523 144.381 205.523 169.709 221.145 185.33 c h
221.145 185.33 m f
0.745098 0.898039 0.282353 rg
230.125 202.592 m 230.125 207.01 l 230.125 229.1 248.035 247.01 270.125
 247.01 c 317.602 247.01 l 339.691 247.01 357.602 229.1 357.602 207.01 c
 357.602 202.592 l 357.602 180.498 339.691 162.592 317.602 162.592 c 270.125
 162.592 l 248.035 162.592 230.125 180.498 230.125 202.592 c h
230.125 202.592 m f
1 0.862745 0.25098 rg
224.27 221.147 m 221.145 224.272 l 205.523 239.893 205.523 265.217 221.145
 280.838 c 254.715 314.409 l 270.336 330.03 295.664 330.03 311.285 314.409
 c 314.41 311.284 l 330.031 295.663 330.031 270.338 314.41 254.713 c 280.84
 221.147 l 265.219 205.526 239.891 205.526 224.27 221.147 c h
224.27 221.147 m f
1 0.580392 0 rg
207.008 357.6 m 204.801 357.6 l 204.801 230.127 l 207.008 230.127 l 229.102
 230.127 247.008 248.034 247.008 270.127 c 247.008 317.6 l 247.008 339.69
 229.102 357.6 207.008 357.6 c h
207.008 357.6 m f
0 0.666667 0.941176 rg
207.008 179.475 m 204.801 179.475 l 204.801 51.998 l 207.008 51.998 l 229.102
 51.998 247.008 69.909 247.008 91.998 c 247.008 139.475 l 247.008 161.565
 229.102 179.475 207.008 179.475 c h
207.008 179.475 m f
0.992157 0.294118 0.176471 rg
162.59 306.705 m 162.59 270.127 l 162.59 251.014 175.996 235.045 193.914
 231.08 c 203.781 246.553 201.969 267.327 188.453 280.838 c h
162.59 306.705 m f
0.878431 0.513726 0.266667 rg
221.145 280.838 m 207.633 267.327 205.82 246.553 215.688 231.08 c 233.605
 235.045 247.008 251.014 247.008 270.127 c 247.008 306.705 l h
221.145 280.838 m f
0.509804 0.705882 0.0823529 rg
231.082 215.686 m 246.555 205.819 267.328 207.631 280.84 221.147 c 306.703
 247.01 l 270.129 247.01 l 251.016 247.01 235.043 233.604 231.082 215.686
 c h
231.082 215.686 m f
0.4 0.8 0.439216 rg
231.082 193.913 m 235.043 175.995 251.016 162.592 270.125 162.592 c 306.703
 162.592 l 280.84 188.455 l 267.324 201.967 246.555 203.78 231.082 193.913
 c h
231.082 193.913 m f
0.0627451 0.482353 0.898039 rg
247.008 139.475 m 247.008 158.584 233.602 174.557 215.688 178.522 c 205.82
 163.045 207.633 142.276 221.145 128.76 c 247.012 102.897 l 247.012 139.475
 l h
247.008 139.475 m f
0.627451 0.337255 0.698039 rg
162.59 139.475 m 162.59 102.897 l 188.457 128.76 l 201.969 142.276 203.781
 163.045 193.914 178.522 c 175.996 174.557 162.59 158.584 162.59 139.475
 c h
162.59 139.475 m f
1 0.14902 0.745098 rg
128.762 188.455 m 102.898 162.588 l 139.473 162.588 l 158.586 162.588 174.555
 175.995 178.52 193.913 c 163.047 203.78 142.273 201.967 128.762 188.455
 c h
128.762 188.455 m f
0.917647 0.34902 0.431373 rg
178.52 215.686 m 174.555 233.604 158.586 247.01 139.473 247.01 c 102.895
 247.01 l 128.762 221.143 l 142.273 207.631 163.047 205.819 178.52 215.686
 c h
178.52 215.686 m f
Q Q
showpage
%%Trailer
end restore
%%EOF
