%!PS-Adobe-3.0 EPSF-3.0
%%Creator: cairo 1.14.2 (http://cairographics.org)
%%CreationDate: Thu Apr 12 10:00:28 2018
%%Pages: 1
%%DocumentData: Clean7Bit
%%LanguageLevel: 2
%%BoundingBox: 0 -1 410 410
%%EndComments
%%BeginProlog
save
50 dict begin
/q { gsave } bind def
/Q { grestore } bind def
/cm { 6 array astore concat } bind def
/w { setlinewidth } bind def
/J { setlinecap } bind def
/j { setlinejoin } bind def
/M { setmiterlimit } bind def
/d { setdash } bind def
/m { moveto } bind def
/l { lineto } bind def
/c { curveto } bind def
/h { closepath } bind def
/re { exch dup neg 3 1 roll 5 3 roll moveto 0 rlineto
      0 exch rlineto 0 rlineto closepath } bind def
/S { stroke } bind def
/f { fill } bind def
/f* { eofill } bind def
/n { newpath } bind def
/W { clip } bind def
/W* { eoclip } bind def
/BT { } bind def
/ET { } bind def
/pdfmark where { pop globaldict /?pdfmark /exec load put }
    { globaldict begin /?pdfmark /pop load def /pdfmark
    /cleartomark load def end } ifelse
/BDC { mark 3 1 roll /BDC pdfmark } bind def
/EMC { mark /EMC pdfmark } bind def
/cairo_store_point { /cairo_point_y exch def /cairo_point_x exch def } def
/Tj { show currentpoint cairo_store_point } bind def
/TJ {
  {
    dup
    type /stringtype eq
    { show } { -0.001 mul 0 cairo_font_matrix dtransform rmoveto } ifelse
  } forall
  currentpoint cairo_store_point
} bind def
/cairo_selectfont { cairo_font_matrix aload pop pop pop 0 0 6 array astore
    cairo_font exch selectfont cairo_point_x cairo_point_y moveto } bind def
/Tf { pop /cairo_font exch def /cairo_font_matrix where
      { pop cairo_selectfont } if } bind def
/Td { matrix translate cairo_font_matrix matrix concatmatrix dup
      /cairo_font_matrix exch def dup 4 get exch 5 get cairo_store_point
      /cairo_font where { pop cairo_selectfont } if } bind def
/Tm { 2 copy 8 2 roll 6 array astore /cairo_font_matrix exch def
      cairo_store_point /cairo_font where { pop cairo_selectfont } if } bind def
/g { setgray } bind def
/rg { setrgbcolor } bind def
/d1 { setcachedevice } bind def
%%EndProlog
%%BeginSetup
%%EndSetup
%%Page: 1 1
%%BeginPageSetup
%%PageBoundingBox: 0 -1 410 410
%%EndPageSetup
q 0 -1 410 411 rectclip q
0.94902 g
325.602 -0.002 m 84 -0.002 l 37.684 -0.002 0 37.682 0 83.998 c 0 325.6 
l 0 371.916 37.684 409.6 84 409.6 c 325.602 409.6 l 371.918 409.6 409.602
 371.916 409.602 325.6 c 409.602 83.998 l 409.602 37.682 371.918 -0.002 
325.602 -0.002 c h
325.602 -0.002 m f
0.898039 g
325.602 409.6 m 204.801 409.6 l 204.801 -0.002 l 325.602 -0.002 l 371.918
 -0.002 409.602 37.682 409.602 83.998 c 409.602 325.6 l 409.602 371.916 
371.918 409.6 325.602 409.6 c h
325.602 409.6 m f
1 0.407843 0.286275 rg
138.426 279.955 m 147.059 279.955 151.461 284.959 153.086 287.459 c 153.293
 284.541 l 153.477 283.198 154.656 280.233 159.195 280.233 c 159.707 280.233
 160.273 280.26 160.898 280.303 c 161.523 280.35 162.297 280.467 163.227
 280.651 c 163.227 288.569 l 161.094 288.682 161.004 290.377 161.004 291.35
 c 161.004 317.049 l 151.695 317.049 l 151.695 294.475 l 150.629 292.252
 147.711 287.873 142.316 287.873 c 138.289 287.873 136.273 290.678 136.273
 296.28 c 136.273 317.049 l 126.965 317.049 l 126.965 294.264 l 126.965 
284.846 130.996 279.955 138.426 279.955 c h
138.426 279.955 m f
0.243137 0.239216 0.258824 rg
252.207 122.877 m 260.949 136.221 289.98 151.358 293.105 153.096 c 312.18
 163.717 328.273 176.307 328.273 198.42 c 328.273 224.643 307.84 242.705
 272.266 242.705 c 243.73 242.705 221.73 231.448 207.145 217.959 c 229.547
 192.17 l 231.629 194.776 245.32 212.229 266.016 212.229 c 280.633 212.229
 290.238 204.241 290.238 193.213 c 290.238 180.506 270.922 171.811 265.363
 169.116 c 232.441 153.155 205.578 139.26 205.578 91.362 c 331.137 91.362
 l 331.137 122.877 l h
252.207 122.877 m f
0.992157 0.294118 0.176471 rg
227.27 279.955 m 234.566 279.955 238.57 284.655 239.914 286.971 c 239.914
 286.971 239.305 280.166 246.027 280.166 c 247.043 280.166 248.363 280.327
 249.988 280.651 c 249.988 288.569 l 249.199 288.616 247.832 290.377 247.832
 291.35 c 247.832 331.362 l 238.523 331.362 l 238.523 310.659 l 237.32 312.745
 233.543 317.674 226.23 317.674 c 217.598 317.674 209.977 310.174 209.977
 298.85 c 209.973 288.866 216.586 279.955 227.27 279.955 c h
229.145 309.756 m 234.82 309.756 238.152 303.69 238.523 302.67 c 238.523
 293.987 l 238.199 293.108 235.543 287.873 229.703 287.873 c 223.531 287.873
 219.629 293.338 219.629 298.643 c 219.629 303.467 222.809 309.756 229.145
 309.756 c h
229.145 309.756 m f
269.992 303.229 m 261.238 303.229 254.5 298.698 254.5 291.487 c 254.5 285.67
 259.098 279.955 266.934 279.955 c 274.453 279.955 278.648 284.358 280.273
 286.487 c 280.48 284.471 l 280.941 281.846 282.84 280.166 286.316 280.166
 c 287.473 280.166 288.84 280.327 290.414 280.651 c 290.414 288.569 l 289
 288.569 288.191 289.471 288.191 291.35 c 288.191 302.67 l 288.191 311.963
 282.676 317.674 271.66 317.674 c 266.242 317.674 261.191 316.123 256.516
 313.022 c 259.363 307.116 l 261.309 308.459 265.609 311.213 270.754 311.213
 c 276.082 311.213 278.883 308.573 278.883 303.713 c 278.883 301.627 l 277.676
 302.139 274.559 303.229 269.992 303.229 c h
278.883 292.459 m 278.883 291.487 276.949 286.764 269.574 286.764 c 265.961
 286.764 263.324 289.17 263.324 292.252 c 263.324 295.631 266.855 298.018
 271.52 298.018 c 274.832 298.018 277.77 297.045 278.883 296.627 c h
278.883 292.459 m f
305.211 276.83 m 304.793 275.811 303.801 272.87 300.902 272.87 c 299.438
 272.87 297.523 273.334 296.734 273.565 c 296.734 265.506 l 297.57 265.229
 299.195 264.745 301.391 264.745 c 309.953 264.745 312.945 270.881 313.824
 273.428 c 329.105 317.053 l 320.355 317.053 l 311.602 288.709 l 301.738
 317.053 l 292.152 317.053 l 306.531 280.651 l 306.066 279.123 305.629 277.85
 305.211 276.83 c h
305.211 276.83 m f
1 0.407843 0.286275 rg
193.094 317.674 m 184 317.674 179.988 312.627 178.645 310.311 c 178.645
 317.049 l 170.242 317.049 l 170.242 280.651 l 179.547 280.651 l 179.547
 301.909 l 179.871 303.018 182.695 309.479 188.996 309.479 c 192.488 309.479
 194.762 306.893 194.762 301.073 c 194.762 280.651 l 204.07 280.651 l 204.07
 303.366 l 204.07 310.655 201.945 317.674 193.094 317.674 c h
193.094 317.674 m f
102.863 288.709 m 93.738 288.709 86.676 294.334 86.262 294.752 c 82.023
 286.487 l 84.895 284.448 91.93 280.096 102.723 280.096 c 111.395 280.096
 120.992 283.256 120.992 294.752 c 120.992 305.83 110.164 308.002 105.156
 309.338 c 103.309 309.83 93.902 311.26 93.902 316.358 c 93.902 320.123 
96.852 321.913 101.75 321.913 c 109.262 321.913 114.695 317.373 115.02 317.049
 c 119.258 324.83 l 117.078 326.311 110.707 330.319 102.027 330.319 c 92.074
 330.319 84.039 325.08 84.039 314.827 c 84.039 304.385 93.594 302.756 103.277
 299.963 c 104.855 299.506 110.781 298.018 110.781 293.78 c 110.781 290.397
 108.141 288.709 102.863 288.709 c h
102.863 288.709 m f
0.341176 0.337255 0.360784 rg
156.352 240.1 m 120.664 240.1 l 119.793 238.538 96.117 215.354 78.465 215.354
 c 78.465 182.791 l 99.012 182.791 119.102 199.725 120.664 201.807 c 120.664
 122.881 l 83.672 122.881 l 83.672 91.362 l 189.434 91.362 l 189.434 122.877
 l 156.352 122.877 l h
156.352 240.1 m f
Q Q
showpage
%%Trailer
end restore
%%EOF
