%!PS-Adobe-3.0 EPSF-3.0
%%Creator: cairo 1.14.2 (http://cairographics.org)
%%CreationDate: Thu Apr 12 10:00:35 2018
%%Pages: 1
%%DocumentData: Clean7Bit
%%LanguageLevel: 2
%%BoundingBox: 0 -1 410 410
%%EndComments
%%BeginProlog
save
50 dict begin
/q { gsave } bind def
/Q { grestore } bind def
/cm { 6 array astore concat } bind def
/w { setlinewidth } bind def
/J { setlinecap } bind def
/j { setlinejoin } bind def
/M { setmiterlimit } bind def
/d { setdash } bind def
/m { moveto } bind def
/l { lineto } bind def
/c { curveto } bind def
/h { closepath } bind def
/re { exch dup neg 3 1 roll 5 3 roll moveto 0 rlineto
      0 exch rlineto 0 rlineto closepath } bind def
/S { stroke } bind def
/f { fill } bind def
/f* { eofill } bind def
/n { newpath } bind def
/W { clip } bind def
/W* { eoclip } bind def
/BT { } bind def
/ET { } bind def
/pdfmark where { pop globaldict /?pdfmark /exec load put }
    { globaldict begin /?pdfmark /pop load def /pdfmark
    /cleartomark load def end } ifelse
/BDC { mark 3 1 roll /BDC pdfmark } bind def
/EMC { mark /EMC pdfmark } bind def
/cairo_store_point { /cairo_point_y exch def /cairo_point_x exch def } def
/Tj { show currentpoint cairo_store_point } bind def
/TJ {
  {
    dup
    type /stringtype eq
    { show } { -0.001 mul 0 cairo_font_matrix dtransform rmoveto } ifelse
  } forall
  currentpoint cairo_store_point
} bind def
/cairo_selectfont { cairo_font_matrix aload pop pop pop 0 0 6 array astore
    cairo_font exch selectfont cairo_point_x cairo_point_y moveto } bind def
/Tf { pop /cairo_font exch def /cairo_font_matrix where
      { pop cairo_selectfont } if } bind def
/Td { matrix translate cairo_font_matrix matrix concatmatrix dup
      /cairo_font_matrix exch def dup 4 get exch 5 get cairo_store_point
      /cairo_font where { pop cairo_selectfont } if } bind def
/Tm { 2 copy 8 2 roll 6 array astore /cairo_font_matrix exch def
      cairo_store_point /cairo_font where { pop cairo_selectfont } if } bind def
/g { setgray } bind def
/rg { setrgbcolor } bind def
/d1 { setcachedevice } bind def
%%EndProlog
%%BeginSetup
%%EndSetup
%%Page: 1 1
%%BeginPageSetup
%%PageBoundingBox: 0 -1 410 410
%%EndPageSetup
q 0 -1 410 411 rectclip q
0 g
325.602 409.6 m 84 409.6 l 37.684 409.6 0 371.916 0 325.6 c 0 83.998 l 
0 37.682 37.684 -0.002 84 -0.002 c 325.602 -0.002 l 371.918 -0.002 409.602
 37.682 409.602 83.998 c 409.602 325.6 l 409.602 371.916 371.918 409.6 325.602
 409.6 c h
385.602 83.998 m 385.602 50.916 358.684 23.998 325.602 23.998 c 84 23.998
 l 50.914 23.998 24 50.916 24 83.998 c 24 325.6 l 24 358.686 50.914 385.6
 84 385.6 c 325.602 385.6 l 358.684 385.6 385.602 358.686 385.602 325.6 
c h
385.602 83.998 m f
204.801 361.6 m 118.34 361.6 48 291.26 48 204.799 c 48 118.338 118.34 47.998
 204.801 47.998 c 291.262 47.998 361.602 118.338 361.602 204.799 c 361.602
 291.26 291.262 361.6 204.801 361.6 c h
332.969 170.014 m 331 162.772 328.434 155.772 325.324 149.073 c 305.023
 160.791 l 293.023 140.006 l 313.293 128.303 l 308.996 122.225 304.199 116.522
 298.961 111.252 c 283.926 129.166 l 265.543 113.741 l 280.586 95.811 l 
274.508 91.573 268.062 87.83 261.305 84.639 c 253.289 106.666 l 230.734 
98.455 l 238.758 76.409 l 231.652 74.526 224.316 73.225 216.801 72.545 c
 216.801 95.998 l 192.801 95.998 l 192.801 72.549 l 185.281 73.225 177.945
 74.526 170.84 76.409 c 178.863 98.459 l 156.312 106.666 l 148.293 84.639
 l 141.535 87.83 135.09 91.573 129.012 95.815 c 144.055 113.741 l 125.672
 129.17 l 110.637 111.252 l 105.402 116.522 100.605 122.225 96.305 128.307
 c 116.574 140.01 l 104.574 160.791 l 84.273 149.073 l 81.164 155.772 78.598
 162.772 76.629 170.018 c 99.734 174.092 l 95.566 197.725 l 72.469 193.655
 l 72.164 197.33 72 201.045 72 204.799 c 72 208.553 72.164 212.272 72.473
 215.948 c 95.57 211.873 l 99.738 235.51 l 76.633 239.584 l 78.602 246.83
 81.168 253.83 84.277 260.53 c 104.578 248.807 l 116.578 269.592 l 96.305
 281.295 l 100.605 287.377 105.402 293.08 110.637 298.35 c 125.672 280.432
 l 144.059 295.858 l 129.016 313.788 l 135.094 318.026 141.539 321.772 148.297
 324.959 c 156.312 302.936 l 178.867 311.143 l 170.84 333.194 l 177.945 
335.073 185.285 336.373 192.801 337.053 c 192.801 313.6 l 216.801 313.6 
l 216.801 337.053 l 224.316 336.373 231.656 335.073 238.762 333.194 c 230.734
 311.143 l 253.289 302.932 l 261.305 324.959 l 268.062 321.768 274.508 318.026
 280.586 313.788 c 265.543 295.858 l 283.926 280.432 l 298.961 298.35 l 
304.199 293.08 308.996 287.373 313.297 281.295 c 293.023 269.592 l 305.023
 248.807 l 325.324 260.53 l 328.434 253.83 331 246.83 332.969 239.584 c 
309.863 235.51 l 314.031 211.873 l 337.129 215.948 l 337.434 212.272 337.602
 208.553 337.602 204.799 c 337.602 201.045 337.434 197.33 337.129 193.651
 c 314.031 197.725 l 309.863 174.088 l h
332.969 170.014 m f
188.055 221.545 m 137.812 137.815 l 221.547 188.053 l 271.785 271.788 l
 h
188.055 221.545 m f
Q Q
showpage
%%Trailer
end restore
%%EOF
