%!PS-Adobe-3.0 EPSF-3.0
%%Creator: cairo 1.14.2 (http://cairographics.org)
%%CreationDate: Thu Apr 12 10:00:35 2018
%%Pages: 1
%%DocumentData: Clean7Bit
%%LanguageLevel: 2
%%BoundingBox: 0 -1 410 410
%%EndComments
%%BeginProlog
save
50 dict begin
/q { gsave } bind def
/Q { grestore } bind def
/cm { 6 array astore concat } bind def
/w { setlinewidth } bind def
/J { setlinecap } bind def
/j { setlinejoin } bind def
/M { setmiterlimit } bind def
/d { setdash } bind def
/m { moveto } bind def
/l { lineto } bind def
/c { curveto } bind def
/h { closepath } bind def
/re { exch dup neg 3 1 roll 5 3 roll moveto 0 rlineto
      0 exch rlineto 0 rlineto closepath } bind def
/S { stroke } bind def
/f { fill } bind def
/f* { eofill } bind def
/n { newpath } bind def
/W { clip } bind def
/W* { eoclip } bind def
/BT { } bind def
/ET { } bind def
/pdfmark where { pop globaldict /?pdfmark /exec load put }
    { globaldict begin /?pdfmark /pop load def /pdfmark
    /cleartomark load def end } ifelse
/BDC { mark 3 1 roll /BDC pdfmark } bind def
/EMC { mark /EMC pdfmark } bind def
/cairo_store_point { /cairo_point_y exch def /cairo_point_x exch def } def
/Tj { show currentpoint cairo_store_point } bind def
/TJ {
  {
    dup
    type /stringtype eq
    { show } { -0.001 mul 0 cairo_font_matrix dtransform rmoveto } ifelse
  } forall
  currentpoint cairo_store_point
} bind def
/cairo_selectfont { cairo_font_matrix aload pop pop pop 0 0 6 array astore
    cairo_font exch selectfont cairo_point_x cairo_point_y moveto } bind def
/Tf { pop /cairo_font exch def /cairo_font_matrix where
      { pop cairo_selectfont } if } bind def
/Td { matrix translate cairo_font_matrix matrix concatmatrix dup
      /cairo_font_matrix exch def dup 4 get exch 5 get cairo_store_point
      /cairo_font where { pop cairo_selectfont } if } bind def
/Tm { 2 copy 8 2 roll 6 array astore /cairo_font_matrix exch def
      cairo_store_point /cairo_font where { pop cairo_selectfont } if } bind def
/g { setgray } bind def
/rg { setrgbcolor } bind def
/d1 { setcachedevice } bind def
%%EndProlog
%%BeginSetup
%%EndSetup
%%Page: 1 1
%%BeginPageSetup
%%PageBoundingBox: 0 -1 410 410
%%EndPageSetup
q 0 -1 410 411 rectclip q
0 g
325.602 409.6 m 84 409.6 l 37.684 409.6 0 371.916 0 325.6 c 0 83.998 l 
0 37.682 37.684 -0.002 84 -0.002 c 325.602 -0.002 l 371.918 -0.002 409.602
 37.682 409.602 83.998 c 409.602 325.6 l 409.602 371.916 371.918 409.6 325.602
 409.6 c h
385.602 83.998 m 385.602 50.916 358.684 23.998 325.602 23.998 c 84 23.998
 l 50.914 23.998 24 50.916 24 83.998 c 24 325.6 l 24 358.686 50.914 385.6
 84 385.6 c 325.602 385.6 l 358.684 385.6 385.602 358.686 385.602 325.6 
c h
385.602 83.998 m f
312.195 152.096 m 286.918 167.26 l 274.109 174.944 257.789 172.936 247.227
 162.373 c 242.547 157.694 234.934 157.694 230.258 162.373 c 162.375 230.256
 l 157.695 234.936 157.695 242.545 162.375 247.225 c 172.938 257.788 174.945
 274.112 167.262 286.92 c 152.094 312.198 l 142.875 327.557 122.879 332.557
 107.516 323.342 c 95.535 316.155 l 94.492 315.108 l 78.848 299.463 77.109
 272.963 89.602 240.491 c 100.875 211.178 122.699 179.42 151.059 151.061
 c 179.418 122.702 211.18 100.873 240.492 89.6 c 254.816 84.092 267.98 81.35
 279.562 81.35 c 294.23 81.35 306.367 85.748 315.109 94.491 c 316.152 95.538
 l 323.34 107.514 l 332.559 122.877 327.559 142.877 312.195 152.096 c h
302.762 119.862 m 297.203 110.596 l 288.523 103.202 270.715 103.69 249.109
 111.998 c 222.859 122.096 194.066 141.995 168.031 168.03 c 141.992 194.065
 122.094 222.862 112 249.108 c 103.691 270.713 103.203 288.526 110.598 297.202
 c 119.863 302.76 l 123.879 305.17 129.105 303.862 131.516 299.846 c 146.68
 274.573 l 148.691 271.225 148.164 266.959 145.402 264.198 c 138.605 257.397
 134.859 248.358 134.859 238.741 c 134.859 229.123 138.605 220.084 145.402
 213.288 c 213.285 145.405 l 220.086 138.604 229.125 134.858 238.742 134.858
 c 248.355 134.858 257.398 138.604 264.195 145.405 c 266.957 148.163 271.223
 148.69 274.57 146.678 c 299.848 131.514 l 303.863 129.104 305.172 123.877
 302.762 119.862 c h
302.762 119.862 m f
Q Q
showpage
%%Trailer
end restore
%%EOF
