%!PS-Adobe-3.0 EPSF-3.0
%%Creator: cairo 1.14.2 (http://cairographics.org)
%%CreationDate: Thu Apr 12 10:00:35 2018
%%Pages: 1
%%DocumentData: Clean7Bit
%%LanguageLevel: 2
%%BoundingBox: 0 -1 410 410
%%EndComments
%%BeginProlog
save
50 dict begin
/q { gsave } bind def
/Q { grestore } bind def
/cm { 6 array astore concat } bind def
/w { setlinewidth } bind def
/J { setlinecap } bind def
/j { setlinejoin } bind def
/M { setmiterlimit } bind def
/d { setdash } bind def
/m { moveto } bind def
/l { lineto } bind def
/c { curveto } bind def
/h { closepath } bind def
/re { exch dup neg 3 1 roll 5 3 roll moveto 0 rlineto
      0 exch rlineto 0 rlineto closepath } bind def
/S { stroke } bind def
/f { fill } bind def
/f* { eofill } bind def
/n { newpath } bind def
/W { clip } bind def
/W* { eoclip } bind def
/BT { } bind def
/ET { } bind def
/pdfmark where { pop globaldict /?pdfmark /exec load put }
    { globaldict begin /?pdfmark /pop load def /pdfmark
    /cleartomark load def end } ifelse
/BDC { mark 3 1 roll /BDC pdfmark } bind def
/EMC { mark /EMC pdfmark } bind def
/cairo_store_point { /cairo_point_y exch def /cairo_point_x exch def } def
/Tj { show currentpoint cairo_store_point } bind def
/TJ {
  {
    dup
    type /stringtype eq
    { show } { -0.001 mul 0 cairo_font_matrix dtransform rmoveto } ifelse
  } forall
  currentpoint cairo_store_point
} bind def
/cairo_selectfont { cairo_font_matrix aload pop pop pop 0 0 6 array astore
    cairo_font exch selectfont cairo_point_x cairo_point_y moveto } bind def
/Tf { pop /cairo_font exch def /cairo_font_matrix where
      { pop cairo_selectfont } if } bind def
/Td { matrix translate cairo_font_matrix matrix concatmatrix dup
      /cairo_font_matrix exch def dup 4 get exch 5 get cairo_store_point
      /cairo_font where { pop cairo_selectfont } if } bind def
/Tm { 2 copy 8 2 roll 6 array astore /cairo_font_matrix exch def
      cairo_store_point /cairo_font where { pop cairo_selectfont } if } bind def
/g { setgray } bind def
/rg { setrgbcolor } bind def
/d1 { setcachedevice } bind def
%%EndProlog
%%BeginSetup
%%EndSetup
%%Page: 1 1
%%BeginPageSetup
%%PageBoundingBox: 0 -1 410 410
%%EndPageSetup
q 0 -1 410 411 rectclip q
0 g
325.602 409.6 m 84 409.6 l 37.684 409.6 0 371.916 0 325.6 c 0 83.998 l 
0 37.682 37.684 -0.002 84 -0.002 c 325.602 -0.002 l 371.918 -0.002 409.602
 37.682 409.602 83.998 c 409.602 325.6 l 409.602 371.916 371.918 409.6 325.602
 409.6 c h
385.602 83.998 m 385.602 50.916 358.684 23.998 325.602 23.998 c 84 23.998
 l 50.914 23.998 24 50.916 24 83.998 c 24 325.6 l 24 358.686 50.914 385.6
 84 385.6 c 325.602 385.6 l 358.684 385.6 385.602 358.686 385.602 325.6 
c h
385.602 83.998 m f
192.801 361.6 24 -40 re f
139.887 348.045 m 162.441 356.252 l 176.121 318.666 l 153.566 310.455 l
 h
139.887 348.045 m f
94.816 317.205 m 113.199 332.631 l 138.91 301.991 l 120.527 286.565 l h
94.816 317.205 m f
63.004 272.811 m 75.004 293.592 l 109.645 273.592 l 97.645 252.811 l h
63.004 272.811 m f
48.289 220.205 m 52.461 243.842 l 91.852 236.893 l 87.684 213.256 l h
48.289 220.205 m f
48.309 189.397 m 87.703 196.346 l 91.871 172.709 l 52.48 165.76 l h
48.309 189.397 m f
63.004 136.799 m 97.645 156.799 l 109.641 136.018 l 75.004 116.018 l h
63.004 136.799 m f
94.816 92.385 m 120.527 123.022 l 138.91 107.596 l 113.199 76.959 l h
94.816 92.385 m f
139.891 61.561 m 153.57 99.147 l 176.121 90.94 l 162.441 53.35 l h
139.891 61.561 m f
192.801 87.998 24 -40 re f
233.484 90.932 m 256.039 99.139 l 269.719 61.553 l 247.164 53.346 l h
233.484 90.932 m f
270.652 107.6 m 289.035 123.026 l 314.75 92.389 l 296.367 76.963 l h
270.652 107.6 m f
299.957 135.998 m 311.957 156.784 l 346.598 136.784 l 334.598 115.998 l
 h
299.957 135.998 m f
317.762 172.709 m 321.93 196.346 l 361.32 189.397 l 357.152 165.76 l h
317.762 172.709 m f
317.746 236.889 m 357.137 243.83 l 361.305 220.198 l 321.914 213.252 l 
h
317.746 236.889 m f
299.953 273.588 m 334.59 293.588 l 346.59 272.807 l 311.949 252.807 l h
299.953 273.588 m f
270.672 301.983 m 296.383 332.62 l 314.766 317.194 l 289.055 286.553 l 
h
270.672 301.983 m f
233.48 318.663 m 247.16 356.252 l 269.711 348.041 l 256.031 310.455 l h
233.48 318.663 m f
300.801 348.799 m 332.801 316.799 l 348.801 364.799 l h
300.801 348.799 m f
204.801 272.799 m 167.305 272.799 136.801 242.295 136.801 204.799 c 136.801
 167.303 167.305 136.799 204.801 136.799 c 242.297 136.799 272.801 167.303
 272.801 204.799 c 272.801 242.295 242.297 272.799 204.801 272.799 c h
192.801 162.475 m 178.172 166.631 166.633 178.17 162.477 192.799 c 192.801
 192.799 l h
192.801 216.799 m 162.477 216.799 l 166.633 231.428 178.172 242.967 192.801
 247.123 c h
216.801 162.475 m 216.801 192.799 l 247.125 192.799 l 242.969 178.17 231.43
 166.631 216.801 162.475 c h
216.801 216.799 m 216.801 247.123 l 231.43 242.967 242.969 231.428 247.125
 216.799 c h
216.801 216.799 m f
Q Q
showpage
%%Trailer
end restore
%%EOF
