%!PS-Adobe-3.0 EPSF-3.0
%%Creator: cairo 1.14.2 (http://cairographics.org)
%%CreationDate: Thu Apr 12 10:00:35 2018
%%Pages: 1
%%DocumentData: Clean7Bit
%%LanguageLevel: 2
%%BoundingBox: 0 -1 410 410
%%EndComments
%%BeginProlog
save
50 dict begin
/q { gsave } bind def
/Q { grestore } bind def
/cm { 6 array astore concat } bind def
/w { setlinewidth } bind def
/J { setlinecap } bind def
/j { setlinejoin } bind def
/M { setmiterlimit } bind def
/d { setdash } bind def
/m { moveto } bind def
/l { lineto } bind def
/c { curveto } bind def
/h { closepath } bind def
/re { exch dup neg 3 1 roll 5 3 roll moveto 0 rlineto
      0 exch rlineto 0 rlineto closepath } bind def
/S { stroke } bind def
/f { fill } bind def
/f* { eofill } bind def
/n { newpath } bind def
/W { clip } bind def
/W* { eoclip } bind def
/BT { } bind def
/ET { } bind def
/pdfmark where { pop globaldict /?pdfmark /exec load put }
    { globaldict begin /?pdfmark /pop load def /pdfmark
    /cleartomark load def end } ifelse
/BDC { mark 3 1 roll /BDC pdfmark } bind def
/EMC { mark /EMC pdfmark } bind def
/cairo_store_point { /cairo_point_y exch def /cairo_point_x exch def } def
/Tj { show currentpoint cairo_store_point } bind def
/TJ {
  {
    dup
    type /stringtype eq
    { show } { -0.001 mul 0 cairo_font_matrix dtransform rmoveto } ifelse
  } forall
  currentpoint cairo_store_point
} bind def
/cairo_selectfont { cairo_font_matrix aload pop pop pop 0 0 6 array astore
    cairo_font exch selectfont cairo_point_x cairo_point_y moveto } bind def
/Tf { pop /cairo_font exch def /cairo_font_matrix where
      { pop cairo_selectfont } if } bind def
/Td { matrix translate cairo_font_matrix matrix concatmatrix dup
      /cairo_font_matrix exch def dup 4 get exch 5 get cairo_store_point
      /cairo_font where { pop cairo_selectfont } if } bind def
/Tm { 2 copy 8 2 roll 6 array astore /cairo_font_matrix exch def
      cairo_store_point /cairo_font where { pop cairo_selectfont } if } bind def
/g { setgray } bind def
/rg { setrgbcolor } bind def
/d1 { setcachedevice } bind def
%%EndProlog
%%BeginSetup
%%EndSetup
%%Page: 1 1
%%BeginPageSetup
%%PageBoundingBox: 0 -1 410 410
%%EndPageSetup
q 0 -1 410 411 rectclip q
0 g
204.801 308.799 m 154.07 308.799 112.801 267.53 112.801 216.799 c 112.801
 192.491 122.281 170.358 137.734 153.893 c 140.09 162.327 144.035 170.311
 149.438 177.393 c 141.492 188.518 136.801 202.116 136.801 216.799 c 136.801
 254.295 167.305 284.799 204.801 284.799 c 242.297 284.799 272.801 254.295
 272.801 216.799 c 272.801 202.116 268.105 188.518 260.164 177.389 c 265.566
 170.307 269.508 162.327 271.863 153.889 c 287.32 170.358 296.801 192.491
 296.801 216.799 c 296.801 267.53 255.527 308.799 204.801 308.799 c h
204.801 308.799 m f
204.801 356.799 m 127.605 356.799 64.801 293.995 64.801 216.799 c 64.801
 162.745 95.598 115.748 140.57 92.428 c 136.152 123.358 l 107.457 144.495
 88.801 178.506 88.801 216.799 c 88.801 280.764 140.836 332.799 204.801 
332.799 c 268.762 332.799 320.801 280.764 320.801 216.799 c 320.801 178.506
 302.145 144.495 273.449 123.358 c 269.031 92.428 l 314 115.748 344.801 
162.745 344.801 216.799 c 344.801 293.995 281.996 356.799 204.801 356.799
 c h
204.801 356.799 m f
325.602 409.6 m 84 409.6 l 37.684 409.6 0 371.916 0 325.6 c 0 83.998 l 
0 37.682 37.684 -0.002 84 -0.002 c 325.602 -0.002 l 371.918 -0.002 409.602
 37.682 409.602 83.998 c 409.602 325.6 l 409.602 371.916 371.918 409.6 325.602
 409.6 c h
385.602 83.998 m 385.602 50.916 358.684 23.998 325.602 23.998 c 84 23.998
 l 50.914 23.998 24 50.916 24 83.998 c 24 325.6 l 24 358.686 50.914 385.6
 84 385.6 c 325.602 385.6 l 358.684 385.6 385.602 358.686 385.602 325.6 
c h
385.602 83.998 m f
204.801 260.799 m 184.949 260.799 168.801 244.651 168.801 224.799 c 168.801
 204.948 184.949 188.799 204.801 188.799 c 224.652 188.799 240.801 204.948
 240.801 224.799 c 240.801 244.651 224.652 260.799 204.801 260.799 c h
204.801 212.799 m 198.184 212.799 192.801 218.182 192.801 224.799 c 192.801
 231.416 198.184 236.799 204.801 236.799 c 211.418 236.799 216.801 231.416
 216.801 224.799 c 216.801 218.182 211.418 212.799 204.801 212.799 c h
204.801 212.799 m f
245.316 170.307 m 235.125 182.061 220.355 188.799 204.801 188.799 c 189.242
 188.799 174.477 182.061 164.285 170.307 c 154.094 158.557 149.508 142.987
 151.707 127.584 c 157.977 83.709 l 160.496 66.088 175.816 52.799 193.613
 52.799 c 215.984 52.799 l 233.785 52.799 249.105 66.088 251.625 83.709 
c 257.891 127.584 l 260.09 142.987 255.508 158.557 245.316 170.307 c h
234.133 130.979 m 227.867 87.104 l 227.027 81.229 221.918 76.799 215.984
 76.799 c 193.617 76.799 l 187.684 76.799 182.574 81.229 181.734 87.104 
c 175.469 130.979 l 174.254 139.487 176.785 148.092 182.414 154.584 c 188.047
 161.077 196.207 164.799 204.801 164.799 c 213.395 164.799 221.555 161.077
 227.188 154.584 c 232.816 148.092 235.348 139.487 234.133 130.979 c h
234.133 130.979 m f
Q Q
showpage
%%Trailer
end restore
%%EOF
