%!PS-Adobe-3.0 EPSF-3.0
%%Creator: cairo 1.14.2 (http://cairographics.org)
%%CreationDate: Thu Apr 12 10:00:34 2018
%%Pages: 1
%%DocumentData: Clean7Bit
%%LanguageLevel: 2
%%BoundingBox: 0 -1 410 410
%%EndComments
%%BeginProlog
save
50 dict begin
/q { gsave } bind def
/Q { grestore } bind def
/cm { 6 array astore concat } bind def
/w { setlinewidth } bind def
/J { setlinecap } bind def
/j { setlinejoin } bind def
/M { setmiterlimit } bind def
/d { setdash } bind def
/m { moveto } bind def
/l { lineto } bind def
/c { curveto } bind def
/h { closepath } bind def
/re { exch dup neg 3 1 roll 5 3 roll moveto 0 rlineto
      0 exch rlineto 0 rlineto closepath } bind def
/S { stroke } bind def
/f { fill } bind def
/f* { eofill } bind def
/n { newpath } bind def
/W { clip } bind def
/W* { eoclip } bind def
/BT { } bind def
/ET { } bind def
/pdfmark where { pop globaldict /?pdfmark /exec load put }
    { globaldict begin /?pdfmark /pop load def /pdfmark
    /cleartomark load def end } ifelse
/BDC { mark 3 1 roll /BDC pdfmark } bind def
/EMC { mark /EMC pdfmark } bind def
/cairo_store_point { /cairo_point_y exch def /cairo_point_x exch def } def
/Tj { show currentpoint cairo_store_point } bind def
/TJ {
  {
    dup
    type /stringtype eq
    { show } { -0.001 mul 0 cairo_font_matrix dtransform rmoveto } ifelse
  } forall
  currentpoint cairo_store_point
} bind def
/cairo_selectfont { cairo_font_matrix aload pop pop pop 0 0 6 array astore
    cairo_font exch selectfont cairo_point_x cairo_point_y moveto } bind def
/Tf { pop /cairo_font exch def /cairo_font_matrix where
      { pop cairo_selectfont } if } bind def
/Td { matrix translate cairo_font_matrix matrix concatmatrix dup
      /cairo_font_matrix exch def dup 4 get exch 5 get cairo_store_point
      /cairo_font where { pop cairo_selectfont } if } bind def
/Tm { 2 copy 8 2 roll 6 array astore /cairo_font_matrix exch def
      cairo_store_point /cairo_font where { pop cairo_selectfont } if } bind def
/g { setgray } bind def
/rg { setrgbcolor } bind def
/d1 { setcachedevice } bind def
%%EndProlog
%%BeginSetup
%%EndSetup
%%Page: 1 1
%%BeginPageSetup
%%PageBoundingBox: 0 -1 410 410
%%EndPageSetup
q 0 -1 410 411 rectclip q
0 g
325.602 409.6 m 84 409.6 l 37.684 409.6 0 371.916 0 325.6 c 0 83.998 l 
0 37.682 37.684 -0.002 84 -0.002 c 325.602 -0.002 l 371.918 -0.002 409.602
 37.682 409.602 83.998 c 409.602 325.6 l 409.602 371.916 371.918 409.6 325.602
 409.6 c h
313.602 23.998 m 84 23.998 l 50.914 23.998 24 50.916 24 83.998 c 24 325.6
 l 24 358.686 50.914 385.6 84 385.6 c 313.602 385.6 l h
385.602 83.998 m 385.602 55.026 364.953 30.784 337.602 25.205 c 337.602
 100.799 l 385.602 100.799 l h
385.602 124.799 m 337.602 124.799 l 337.602 192.799 l 385.602 192.799 l
 h
385.602 216.799 m 337.602 216.799 l 337.602 284.799 l 385.602 284.799 l
 h
385.602 308.799 m 337.602 308.799 l 337.602 384.393 l 364.953 378.819 385.602
 354.577 385.602 325.6 c h
385.602 308.799 m f
168.801 325.6 m 102.191 325.6 48 271.409 48 204.799 c 48 138.19 102.191
 83.998 168.801 83.998 c 235.41 83.998 289.602 138.19 289.602 204.799 c 
289.602 271.409 235.41 325.6 168.801 325.6 c h
212.801 118.592 m 199.59 111.823 184.633 107.998 168.801 107.998 c 152.965
 107.998 138.008 111.823 124.801 118.592 c 124.801 150.401 l 124.801 157.018
 130.184 162.401 136.801 162.401 c 200.801 162.401 l 207.418 162.401 212.801
 157.018 212.801 150.401 c h
144.801 210.401 m 144.801 223.635 155.566 234.401 168.801 234.401 c 182.035
 234.401 192.801 223.635 192.801 210.401 c 192.801 197.166 182.035 186.401
 168.801 186.401 c 155.566 186.401 144.801 197.166 144.801 210.401 c h
236.801 135.979 m 236.801 150.401 l 236.801 167.186 225.254 181.323 209.688
 185.288 c 214.191 192.6 216.801 201.202 216.801 210.401 c 216.801 236.866
 195.266 258.401 168.801 258.401 c 142.332 258.401 120.801 236.866 120.801
 210.401 c 120.801 201.202 123.406 192.6 127.914 185.288 c 112.348 181.323
 100.801 167.186 100.801 150.401 c 100.801 135.979 l 83.031 153.538 72 177.905
 72 204.799 c 72 258.174 115.426 301.6 168.801 301.6 c 222.176 301.6 265.602
 258.174 265.602 204.799 c 265.602 177.905 254.57 153.538 236.801 135.979
 c h
236.801 135.979 m f
Q Q
showpage
%%Trailer
end restore
%%EOF
