%!PS-Adobe-3.0 EPSF-3.0
%%Creator: cairo 1.14.2 (http://cairographics.org)
%%CreationDate: Thu Apr 12 10:00:34 2018
%%Pages: 1
%%DocumentData: Clean7Bit
%%LanguageLevel: 2
%%BoundingBox: 0 -1 410 410
%%EndComments
%%BeginProlog
save
50 dict begin
/q { gsave } bind def
/Q { grestore } bind def
/cm { 6 array astore concat } bind def
/w { setlinewidth } bind def
/J { setlinecap } bind def
/j { setlinejoin } bind def
/M { setmiterlimit } bind def
/d { setdash } bind def
/m { moveto } bind def
/l { lineto } bind def
/c { curveto } bind def
/h { closepath } bind def
/re { exch dup neg 3 1 roll 5 3 roll moveto 0 rlineto
      0 exch rlineto 0 rlineto closepath } bind def
/S { stroke } bind def
/f { fill } bind def
/f* { eofill } bind def
/n { newpath } bind def
/W { clip } bind def
/W* { eoclip } bind def
/BT { } bind def
/ET { } bind def
/pdfmark where { pop globaldict /?pdfmark /exec load put }
    { globaldict begin /?pdfmark /pop load def /pdfmark
    /cleartomark load def end } ifelse
/BDC { mark 3 1 roll /BDC pdfmark } bind def
/EMC { mark /EMC pdfmark } bind def
/cairo_store_point { /cairo_point_y exch def /cairo_point_x exch def } def
/Tj { show currentpoint cairo_store_point } bind def
/TJ {
  {
    dup
    type /stringtype eq
    { show } { -0.001 mul 0 cairo_font_matrix dtransform rmoveto } ifelse
  } forall
  currentpoint cairo_store_point
} bind def
/cairo_selectfont { cairo_font_matrix aload pop pop pop 0 0 6 array astore
    cairo_font exch selectfont cairo_point_x cairo_point_y moveto } bind def
/Tf { pop /cairo_font exch def /cairo_font_matrix where
      { pop cairo_selectfont } if } bind def
/Td { matrix translate cairo_font_matrix matrix concatmatrix dup
      /cairo_font_matrix exch def dup 4 get exch 5 get cairo_store_point
      /cairo_font where { pop cairo_selectfont } if } bind def
/Tm { 2 copy 8 2 roll 6 array astore /cairo_font_matrix exch def
      cairo_store_point /cairo_font where { pop cairo_selectfont } if } bind def
/g { setgray } bind def
/rg { setrgbcolor } bind def
/d1 { setcachedevice } bind def
%%EndProlog
%%BeginSetup
%%EndSetup
%%Page: 1 1
%%BeginPageSetup
%%PageBoundingBox: 0 -1 410 410
%%EndPageSetup
q 0 -1 410 411 rectclip q
0 g
325.602 409.6 m 84 409.6 l 37.684 409.6 0 371.916 0 325.6 c 0 83.998 l 
0 37.682 37.684 -0.002 84 -0.002 c 325.602 -0.002 l 371.918 -0.002 409.602
 37.682 409.602 83.998 c 409.602 325.6 l 409.602 371.916 371.918 409.6 325.602
 409.6 c h
96 385.6 m 120 385.6 l 120 215.592 l 116.121 216.381 112.109 216.799 108
 216.799 c 103.891 216.799 99.879 216.381 96 215.592 c h
50.938 375.635 m 72 354.569 l 72 320.627 l 33.965 358.663 l 38.43 365.393
 44.207 371.17 50.938 375.635 c h
72 25.205 m 44.645 30.784 24 55.026 24 83.998 c 24 325.6 l 24 328.479 24.215
 331.307 24.609 334.077 c 72 286.69 l 72 204.768 l 57.438 193.811 48 176.389
 48 156.799 c 48 137.213 57.438 119.791 72 108.834 c h
120 23.998 m 96 23.998 l 96 98.006 l 99.879 97.217 103.891 96.799 108 96.799
 c 112.109 96.799 116.121 97.217 120 98.006 c h
108 120.799 m 88.148 120.799 72 136.948 72 156.799 c 72 176.651 88.148 
192.799 108 192.799 c 127.852 192.799 144 176.651 144 156.799 c 144 136.948
 127.852 120.799 108 120.799 c h
385.602 83.998 m 385.602 81.123 385.383 78.295 384.988 75.522 c 369.02 
91.491 l 365.637 83.889 361.34 76.78 356.258 70.315 c 375.633 50.936 l 371.172
 44.205 365.395 38.428 358.664 33.967 c 339.285 53.342 l 332.82 48.26 325.711
 43.963 318.109 40.58 c 334.078 24.612 l 331.309 24.217 328.477 23.998 325.602
 23.998 c 144 23.998 l 144 108.834 l 158.562 119.791 168 137.213 168 156.799
 c 168 176.389 158.562 193.811 144 204.768 c 144 214.69 l 186.16 172.526
 l 188.672 178.182 191.723 183.627 195.293 188.799 c 198.781 193.846 l 144
 248.627 l 144 282.569 l 226.453 200.116 l 227.504 200.041 228.555 199.998
 229.602 199.998 c 238.133 199.998 246.395 202.475 253.465 207.045 c 144
 316.51 l 144 385.6 l 197.164 385.6 l 200.043 336.479 220.531 290.698 255.613
 255.612 c 290.695 220.53 336.477 200.041 385.602 197.166 c h
385.602 221.217 m 297.656 227.139 227.141 297.655 221.215 385.6 c 257.316
 385.6 l 263.09 317.514 317.516 263.092 385.602 257.319 c h
385.602 281.413 m 330.758 287.034 287.035 330.76 281.414 385.6 c 325.602
 385.6 l 358.684 385.6 385.602 358.686 385.602 325.6 c h
385.602 281.413 m f
108 189.6 m 84 132.799 l 108 140.799 l 132 132.799 l h
108 189.6 m f
346.742 179.702 m 342.457 185.905 l 335.004 184.733 l 331.906 184.248 328.742
 183.998 325.602 183.998 c 310.816 183.998 296.613 189.428 285.602 199.28
 c 277.602 206.444 l 269.598 199.28 l 258.59 189.428 244.383 183.998 229.602
 183.998 c 226.457 183.998 223.293 184.248 220.195 184.733 c 212.742 185.905
 l 208.457 179.702 l 198.738 165.635 193.602 149.143 193.602 131.998 c 193.602
 85.682 231.281 47.998 277.602 47.998 c 323.918 47.998 361.602 85.682 361.602
 131.998 c 361.602 149.143 356.461 165.635 346.742 179.702 c h
277.602 71.998 m 244.516 71.998 217.602 98.916 217.602 131.998 c 217.602
 135.791 217.953 139.538 218.645 143.202 c 336.555 143.202 l 337.246 139.538
 337.602 135.791 337.602 131.998 c 337.602 98.916 310.684 71.998 277.602
 71.998 c h
277.602 71.998 m f
Q Q
showpage
%%Trailer
end restore
%%EOF
