%!PS-Adobe-3.0 EPSF-3.0
%%Creator: cairo 1.14.2 (http://cairographics.org)
%%CreationDate: Thu Apr 12 10:00:34 2018
%%Pages: 1
%%DocumentData: Clean7Bit
%%LanguageLevel: 2
%%BoundingBox: 0 -1 410 410
%%EndComments
%%BeginProlog
save
50 dict begin
/q { gsave } bind def
/Q { grestore } bind def
/cm { 6 array astore concat } bind def
/w { setlinewidth } bind def
/J { setlinecap } bind def
/j { setlinejoin } bind def
/M { setmiterlimit } bind def
/d { setdash } bind def
/m { moveto } bind def
/l { lineto } bind def
/c { curveto } bind def
/h { closepath } bind def
/re { exch dup neg 3 1 roll 5 3 roll moveto 0 rlineto
      0 exch rlineto 0 rlineto closepath } bind def
/S { stroke } bind def
/f { fill } bind def
/f* { eofill } bind def
/n { newpath } bind def
/W { clip } bind def
/W* { eoclip } bind def
/BT { } bind def
/ET { } bind def
/pdfmark where { pop globaldict /?pdfmark /exec load put }
    { globaldict begin /?pdfmark /pop load def /pdfmark
    /cleartomark load def end } ifelse
/BDC { mark 3 1 roll /BDC pdfmark } bind def
/EMC { mark /EMC pdfmark } bind def
/cairo_store_point { /cairo_point_y exch def /cairo_point_x exch def } def
/Tj { show currentpoint cairo_store_point } bind def
/TJ {
  {
    dup
    type /stringtype eq
    { show } { -0.001 mul 0 cairo_font_matrix dtransform rmoveto } ifelse
  } forall
  currentpoint cairo_store_point
} bind def
/cairo_selectfont { cairo_font_matrix aload pop pop pop 0 0 6 array astore
    cairo_font exch selectfont cairo_point_x cairo_point_y moveto } bind def
/Tf { pop /cairo_font exch def /cairo_font_matrix where
      { pop cairo_selectfont } if } bind def
/Td { matrix translate cairo_font_matrix matrix concatmatrix dup
      /cairo_font_matrix exch def dup 4 get exch 5 get cairo_store_point
      /cairo_font where { pop cairo_selectfont } if } bind def
/Tm { 2 copy 8 2 roll 6 array astore /cairo_font_matrix exch def
      cairo_store_point /cairo_font where { pop cairo_selectfont } if } bind def
/g { setgray } bind def
/rg { setrgbcolor } bind def
/d1 { setcachedevice } bind def
%%EndProlog
%%BeginSetup
%%EndSetup
%%Page: 1 1
%%BeginPageSetup
%%PageBoundingBox: 0 -1 410 410
%%EndPageSetup
q 0 -1 410 411 rectclip q
0 g
325.602 409.6 m 84 409.6 l 37.684 409.6 0 371.916 0 325.6 c 0 83.998 l 
0 37.682 37.684 -0.002 84 -0.002 c 325.602 -0.002 l 371.918 -0.002 409.602
 37.682 409.602 83.998 c 409.602 325.6 l 409.602 371.916 371.918 409.6 325.602
 409.6 c h
385.602 83.998 m 385.602 50.916 358.684 23.998 325.602 23.998 c 84 23.998
 l 50.914 23.998 24 50.916 24 83.998 c 24 325.6 l 24 358.686 50.914 385.6
 84 385.6 c 325.602 385.6 l 358.684 385.6 385.602 358.686 385.602 325.6 
c h
385.602 83.998 m f
204.801 312.799 m 145.25 312.799 96.801 264.35 96.801 204.799 c 96.801 
145.248 145.25 96.799 204.801 96.799 c 264.352 96.799 312.801 145.248 312.801
 204.799 c 312.801 264.35 264.352 312.799 204.801 312.799 c h
204.801 120.799 m 158.48 120.799 120.801 158.483 120.801 204.799 c 120.801
 233.284 135.055 258.498 156.801 273.694 c 156.801 204.799 l 156.801 178.334
 178.332 156.799 204.801 156.799 c 231.266 156.799 252.801 178.334 252.801
 204.799 c 252.801 231.268 231.266 252.799 204.801 252.799 c 196.059 252.799
 187.867 250.44 180.801 246.342 c 180.801 285.299 l 188.406 287.573 196.465
 288.799 204.801 288.799 c 251.117 288.799 288.801 251.12 288.801 204.799
 c 288.801 158.483 251.117 120.799 204.801 120.799 c h
180.801 204.799 m 180.801 218.034 191.566 228.799 204.801 228.799 c 218.035
 228.799 228.801 218.034 228.801 204.799 c 228.801 191.565 218.035 180.799
 204.801 180.799 c 191.566 180.799 180.801 191.565 180.801 204.799 c h
180.801 204.799 m f
Q Q
showpage
%%Trailer
end restore
%%EOF
