%!PS-Adobe-3.0 EPSF-3.0
%%Creator: cairo 1.14.2 (http://cairographics.org)
%%CreationDate: Thu Apr 12 10:00:34 2018
%%Pages: 1
%%DocumentData: Clean7Bit
%%LanguageLevel: 2
%%BoundingBox: 0 -1 410 410
%%EndComments
%%BeginProlog
save
50 dict begin
/q { gsave } bind def
/Q { grestore } bind def
/cm { 6 array astore concat } bind def
/w { setlinewidth } bind def
/J { setlinecap } bind def
/j { setlinejoin } bind def
/M { setmiterlimit } bind def
/d { setdash } bind def
/m { moveto } bind def
/l { lineto } bind def
/c { curveto } bind def
/h { closepath } bind def
/re { exch dup neg 3 1 roll 5 3 roll moveto 0 rlineto
      0 exch rlineto 0 rlineto closepath } bind def
/S { stroke } bind def
/f { fill } bind def
/f* { eofill } bind def
/n { newpath } bind def
/W { clip } bind def
/W* { eoclip } bind def
/BT { } bind def
/ET { } bind def
/pdfmark where { pop globaldict /?pdfmark /exec load put }
    { globaldict begin /?pdfmark /pop load def /pdfmark
    /cleartomark load def end } ifelse
/BDC { mark 3 1 roll /BDC pdfmark } bind def
/EMC { mark /EMC pdfmark } bind def
/cairo_store_point { /cairo_point_y exch def /cairo_point_x exch def } def
/Tj { show currentpoint cairo_store_point } bind def
/TJ {
  {
    dup
    type /stringtype eq
    { show } { -0.001 mul 0 cairo_font_matrix dtransform rmoveto } ifelse
  } forall
  currentpoint cairo_store_point
} bind def
/cairo_selectfont { cairo_font_matrix aload pop pop pop 0 0 6 array astore
    cairo_font exch selectfont cairo_point_x cairo_point_y moveto } bind def
/Tf { pop /cairo_font exch def /cairo_font_matrix where
      { pop cairo_selectfont } if } bind def
/Td { matrix translate cairo_font_matrix matrix concatmatrix dup
      /cairo_font_matrix exch def dup 4 get exch 5 get cairo_store_point
      /cairo_font where { pop cairo_selectfont } if } bind def
/Tm { 2 copy 8 2 roll 6 array astore /cairo_font_matrix exch def
      cairo_store_point /cairo_font where { pop cairo_selectfont } if } bind def
/g { setgray } bind def
/rg { setrgbcolor } bind def
/d1 { setcachedevice } bind def
%%EndProlog
%%BeginSetup
%%EndSetup
%%Page: 1 1
%%BeginPageSetup
%%PageBoundingBox: 0 -1 410 410
%%EndPageSetup
q 0 -1 410 411 rectclip q
0 g
325.602 409.6 m 84 409.6 l 37.684 409.6 0 371.916 0 325.6 c 0 83.998 l 
0 37.682 37.684 -0.002 84 -0.002 c 325.602 -0.002 l 371.918 -0.002 409.602
 37.682 409.602 83.998 c 409.602 325.6 l 409.602 371.916 371.918 409.6 325.602
 409.6 c h
385.602 83.998 m 385.602 50.916 358.684 23.998 325.602 23.998 c 84 23.998
 l 50.914 23.998 24 50.916 24 83.998 c 24 325.6 l 24 358.686 50.914 385.6
 84 385.6 c 325.602 385.6 l 358.684 385.6 385.602 358.686 385.602 325.6 
c h
385.602 83.998 m f
204.801 361.6 m 118.34 361.6 48 291.26 48 204.799 c 48 118.338 118.34 47.998
 204.801 47.998 c 291.262 47.998 361.602 118.338 361.602 204.799 c 361.602
 291.26 291.262 361.6 204.801 361.6 c h
216.801 337.053 m 256.605 333.471 291.402 312.256 313.297 281.295 c 253.203
 246.6 l 243.949 257.299 231.23 264.905 216.801 267.655 c h
84.277 149.073 m 76.402 166.03 72 184.909 72 204.799 c 72 273.979 125.176
 330.967 192.801 337.053 c 192.801 267.655 l 163.23 262.022 140.801 235.987
 140.801 204.799 c 140.801 197.432 142.066 190.358 144.367 183.768 c h
192.801 72.549 m 152.996 76.131 118.199 97.342 96.305 128.303 c 156.398
 162.998 l 165.648 152.303 178.371 144.694 192.801 141.944 c h
164.801 204.799 m 164.801 226.858 182.742 244.799 204.801 244.799 c 226.855
 244.799 244.801 226.858 244.801 204.799 c 244.801 182.745 226.855 164.799
 204.801 164.799 c 182.742 164.799 164.801 182.745 164.801 204.799 c h
216.801 72.549 m 216.801 141.944 l 246.371 147.58 268.801 173.612 268.801
 204.799 c 268.801 212.166 267.535 219.241 265.23 225.834 c 325.324 260.53
 l 333.195 243.573 337.602 224.694 337.602 204.799 c 337.602 135.62 284.426
 78.635 216.801 72.549 c h
216.801 72.549 m f
220.801 204.799 m 220.801 195.963 213.637 188.799 204.801 188.799 c 195.965
 188.799 188.801 195.963 188.801 204.799 c 188.801 213.635 195.965 220.799
 204.801 220.799 c 213.637 220.799 220.801 213.635 220.801 204.799 c h
220.801 204.799 m f
Q Q
showpage
%%Trailer
end restore
%%EOF
