%!PS-Adobe-3.0 EPSF-3.0
%%Creator: cairo 1.14.2 (http://cairographics.org)
%%CreationDate: Thu Apr 12 10:00:34 2018
%%Pages: 1
%%DocumentData: Clean7Bit
%%LanguageLevel: 2
%%BoundingBox: 0 -1 410 410
%%EndComments
%%BeginProlog
save
50 dict begin
/q { gsave } bind def
/Q { grestore } bind def
/cm { 6 array astore concat } bind def
/w { setlinewidth } bind def
/J { setlinecap } bind def
/j { setlinejoin } bind def
/M { setmiterlimit } bind def
/d { setdash } bind def
/m { moveto } bind def
/l { lineto } bind def
/c { curveto } bind def
/h { closepath } bind def
/re { exch dup neg 3 1 roll 5 3 roll moveto 0 rlineto
      0 exch rlineto 0 rlineto closepath } bind def
/S { stroke } bind def
/f { fill } bind def
/f* { eofill } bind def
/n { newpath } bind def
/W { clip } bind def
/W* { eoclip } bind def
/BT { } bind def
/ET { } bind def
/pdfmark where { pop globaldict /?pdfmark /exec load put }
    { globaldict begin /?pdfmark /pop load def /pdfmark
    /cleartomark load def end } ifelse
/BDC { mark 3 1 roll /BDC pdfmark } bind def
/EMC { mark /EMC pdfmark } bind def
/cairo_store_point { /cairo_point_y exch def /cairo_point_x exch def } def
/Tj { show currentpoint cairo_store_point } bind def
/TJ {
  {
    dup
    type /stringtype eq
    { show } { -0.001 mul 0 cairo_font_matrix dtransform rmoveto } ifelse
  } forall
  currentpoint cairo_store_point
} bind def
/cairo_selectfont { cairo_font_matrix aload pop pop pop 0 0 6 array astore
    cairo_font exch selectfont cairo_point_x cairo_point_y moveto } bind def
/Tf { pop /cairo_font exch def /cairo_font_matrix where
      { pop cairo_selectfont } if } bind def
/Td { matrix translate cairo_font_matrix matrix concatmatrix dup
      /cairo_font_matrix exch def dup 4 get exch 5 get cairo_store_point
      /cairo_font where { pop cairo_selectfont } if } bind def
/Tm { 2 copy 8 2 roll 6 array astore /cairo_font_matrix exch def
      cairo_store_point /cairo_font where { pop cairo_selectfont } if } bind def
/g { setgray } bind def
/rg { setrgbcolor } bind def
/d1 { setcachedevice } bind def
%%EndProlog
%%BeginSetup
%%EndSetup
%%Page: 1 1
%%BeginPageSetup
%%PageBoundingBox: 0 -1 410 410
%%EndPageSetup
q 0 -1 410 411 rectclip q
0 g
239.324 357.76 m 242.797 351.838 244.801 344.948 244.801 337.6 c 244.801
 335.549 244.789 333.502 244.762 331.452 c 298.52 314.452 337.602 264.104
 337.602 204.799 c 337.602 194.944 336.512 185.334 334.465 176.084 c 336.25
 175.08 338.031 174.065 339.809 173.041 c 346.176 169.366 351.141 164.186
 354.535 158.213 c 359.125 172.936 361.602 188.584 361.602 204.799 c 361.602
 279.401 309.23 341.991 239.324 357.76 c h
239.324 357.76 m f
170.273 357.76 m 100.371 341.991 48 279.401 48 204.799 c 48 188.584 50.473
 172.936 55.066 158.213 c 58.461 164.186 63.426 169.366 69.793 173.041 c
 71.566 174.065 73.348 175.08 75.137 176.084 c 73.09 185.334 72 194.944 
72 204.799 c 72 264.104 111.078 314.452 164.836 331.452 c 164.812 333.502
 164.801 335.549 164.801 337.6 c 164.801 344.948 166.801 351.838 170.273
 357.76 c h
170.273 357.76 m f
299.809 103.76 m 298.012 104.795 296.223 105.846 294.438 106.905 c 270.797
 85.241 239.316 71.998 204.801 71.998 c 170.285 71.998 138.805 85.241 115.164
 106.905 c 113.379 105.846 111.59 104.795 109.793 103.76 c 103.465 100.108
 96.547 98.397 89.719 98.42 c 118.383 67.436 159.363 47.998 204.801 47.998
 c 250.238 47.998 291.219 67.436 319.879 98.42 c 313.055 98.397 306.133 
100.108 299.809 103.76 c h
299.809 103.76 m f
325.602 409.6 m 84 409.6 l 37.684 409.6 0 371.916 0 325.6 c 0 83.998 l 
0 37.682 37.684 -0.002 84 -0.002 c 325.602 -0.002 l 371.918 -0.002 409.602
 37.682 409.602 83.998 c 409.602 325.6 l 409.602 371.916 371.918 409.6 325.602
 409.6 c h
385.602 83.998 m 385.602 50.916 358.684 23.998 325.602 23.998 c 84 23.998
 l 50.914 23.998 24 50.916 24 83.998 c 24 325.6 l 24 358.686 50.914 385.6
 84 385.6 c 325.602 385.6 l 358.684 385.6 385.602 358.686 385.602 325.6 
c h
385.602 83.998 m f
331.809 159.186 m 302.867 175.893 272.195 189.78 240.535 200.518 c 240.703
 201.924 240.801 203.35 240.801 204.799 c 240.801 219.623 231.793 232.381
 218.961 237.893 c 225.488 270.678 228.801 304.182 228.801 337.6 c 228.801
 350.834 218.035 361.6 204.801 361.6 c 191.566 361.6 180.801 350.834 180.801
 337.6 c 180.801 304.182 184.109 270.678 190.637 237.893 c 177.809 232.381
 168.801 219.623 168.801 204.799 c 168.801 203.35 168.895 201.924 169.062
 200.518 c 137.406 189.78 106.734 175.893 77.793 159.186 c 66.332 152.569
 62.391 137.862 69.008 126.401 c 73.449 118.709 81.531 114.405 89.832 114.405
 c 93.902 114.405 98.023 115.44 101.793 117.616 c 130.734 134.327 158.098
 153.948 183.23 175.998 c 189.246 171.479 196.715 168.799 204.801 168.799
 c 212.887 168.799 220.355 171.479 226.371 175.995 c 251.504 153.948 278.867
 134.327 307.809 117.616 c 311.578 115.44 315.699 114.405 319.77 114.405
 c 328.066 114.405 336.152 118.709 340.594 126.401 c 347.211 137.862 343.27
 152.569 331.809 159.186 c h
204.801 192.799 m 198.184 192.799 192.801 198.182 192.801 204.799 c 192.801
 211.416 198.184 216.799 204.801 216.799 c 211.418 216.799 216.801 211.416
 216.801 204.799 c 216.801 198.182 211.418 192.799 204.801 192.799 c h
204.801 192.799 m f
Q Q
showpage
%%Trailer
end restore
%%EOF
