%!PS-Adobe-3.0 EPSF-3.0
%%Creator: cairo 1.14.2 (http://cairographics.org)
%%CreationDate: Thu Apr 12 10:00:34 2018
%%Pages: 1
%%DocumentData: Clean7Bit
%%LanguageLevel: 2
%%BoundingBox: 0 -1 410 410
%%EndComments
%%BeginProlog
save
50 dict begin
/q { gsave } bind def
/Q { grestore } bind def
/cm { 6 array astore concat } bind def
/w { setlinewidth } bind def
/J { setlinecap } bind def
/j { setlinejoin } bind def
/M { setmiterlimit } bind def
/d { setdash } bind def
/m { moveto } bind def
/l { lineto } bind def
/c { curveto } bind def
/h { closepath } bind def
/re { exch dup neg 3 1 roll 5 3 roll moveto 0 rlineto
      0 exch rlineto 0 rlineto closepath } bind def
/S { stroke } bind def
/f { fill } bind def
/f* { eofill } bind def
/n { newpath } bind def
/W { clip } bind def
/W* { eoclip } bind def
/BT { } bind def
/ET { } bind def
/pdfmark where { pop globaldict /?pdfmark /exec load put }
    { globaldict begin /?pdfmark /pop load def /pdfmark
    /cleartomark load def end } ifelse
/BDC { mark 3 1 roll /BDC pdfmark } bind def
/EMC { mark /EMC pdfmark } bind def
/cairo_store_point { /cairo_point_y exch def /cairo_point_x exch def } def
/Tj { show currentpoint cairo_store_point } bind def
/TJ {
  {
    dup
    type /stringtype eq
    { show } { -0.001 mul 0 cairo_font_matrix dtransform rmoveto } ifelse
  } forall
  currentpoint cairo_store_point
} bind def
/cairo_selectfont { cairo_font_matrix aload pop pop pop 0 0 6 array astore
    cairo_font exch selectfont cairo_point_x cairo_point_y moveto } bind def
/Tf { pop /cairo_font exch def /cairo_font_matrix where
      { pop cairo_selectfont } if } bind def
/Td { matrix translate cairo_font_matrix matrix concatmatrix dup
      /cairo_font_matrix exch def dup 4 get exch 5 get cairo_store_point
      /cairo_font where { pop cairo_selectfont } if } bind def
/Tm { 2 copy 8 2 roll 6 array astore /cairo_font_matrix exch def
      cairo_store_point /cairo_font where { pop cairo_selectfont } if } bind def
/g { setgray } bind def
/rg { setrgbcolor } bind def
/d1 { setcachedevice } bind def
%%EndProlog
%%BeginSetup
%%EndSetup
%%Page: 1 1
%%BeginPageSetup
%%PageBoundingBox: 0 -1 410 410
%%EndPageSetup
q 0 -1 410 411 rectclip q
0 g
325.602 409.6 m 84 409.6 l 37.684 409.6 0 371.916 0 325.6 c 0 83.998 l 
0 37.682 37.684 -0.002 84 -0.002 c 325.602 -0.002 l 371.918 -0.002 409.602
 37.682 409.602 83.998 c 409.602 325.6 l 409.602 371.916 371.918 409.6 325.602
 409.6 c h
385.602 83.998 m 385.602 50.916 358.684 23.998 325.602 23.998 c 84 23.998
 l 50.914 23.998 24 50.916 24 83.998 c 24 325.6 l 24 358.686 50.914 385.6
 84 385.6 c 325.602 385.6 l 358.684 385.6 385.602 358.686 385.602 325.6 
c h
385.602 83.998 m f
276.227 206.143 m 363.594 244.799 l 204.809 315.057 l 45.453 244.799 l 
133.281 206.08 l 117.605 194.975 104.539 180.284 95.406 163.225 c 82.707
 139.487 l 108.852 145.909 l 116.664 147.827 124.719 148.799 132.801 148.799
 c 156.289 148.799 179.117 140.491 197.082 125.397 c 204.801 118.913 l 212.52
 125.397 l 230.48 140.491 253.309 148.799 276.801 148.799 c 284.879 148.799
 292.938 147.827 300.75 145.909 c 326.895 139.487 l 314.191 163.225 l 305.047
 180.315 291.941 195.03 276.227 206.143 c h
104.945 244.799 m 204.793 288.819 l 304.277 244.799 l 204.793 200.78 l 
169.746 216.233 l 199.859 229.506 l 201.348 229.049 202.93 228.799 204.57
 228.799 c 213.406 228.799 220.57 235.963 220.57 244.799 c 220.57 253.635
 213.406 260.799 204.57 260.799 c 198.086 260.799 192.512 256.936 190 251.389
 c 140 229.346 l h
204.801 149.752 m 183.523 164.924 157.793 173.069 131.496 172.791 c 139.645
 181.569 149.336 188.877 160.078 194.264 c 204.809 174.545 l 249.453 194.299
 l 260.223 188.905 269.938 181.588 278.102 172.795 c 251.797 173.065 226.074
 164.924 204.801 149.752 c h
204.801 149.752 m f
112.801 132.799 24 -40 re f
Q Q
showpage
%%Trailer
end restore
%%EOF
