%!PS-Adobe-3.0 EPSF-3.0
%%Creator: cairo 1.14.2 (http://cairographics.org)
%%CreationDate: Thu Apr 12 10:00:34 2018
%%Pages: 1
%%DocumentData: Clean7Bit
%%LanguageLevel: 2
%%BoundingBox: 0 -1 410 410
%%EndComments
%%BeginProlog
save
50 dict begin
/q { gsave } bind def
/Q { grestore } bind def
/cm { 6 array astore concat } bind def
/w { setlinewidth } bind def
/J { setlinecap } bind def
/j { setlinejoin } bind def
/M { setmiterlimit } bind def
/d { setdash } bind def
/m { moveto } bind def
/l { lineto } bind def
/c { curveto } bind def
/h { closepath } bind def
/re { exch dup neg 3 1 roll 5 3 roll moveto 0 rlineto
      0 exch rlineto 0 rlineto closepath } bind def
/S { stroke } bind def
/f { fill } bind def
/f* { eofill } bind def
/n { newpath } bind def
/W { clip } bind def
/W* { eoclip } bind def
/BT { } bind def
/ET { } bind def
/pdfmark where { pop globaldict /?pdfmark /exec load put }
    { globaldict begin /?pdfmark /pop load def /pdfmark
    /cleartomark load def end } ifelse
/BDC { mark 3 1 roll /BDC pdfmark } bind def
/EMC { mark /EMC pdfmark } bind def
/cairo_store_point { /cairo_point_y exch def /cairo_point_x exch def } def
/Tj { show currentpoint cairo_store_point } bind def
/TJ {
  {
    dup
    type /stringtype eq
    { show } { -0.001 mul 0 cairo_font_matrix dtransform rmoveto } ifelse
  } forall
  currentpoint cairo_store_point
} bind def
/cairo_selectfont { cairo_font_matrix aload pop pop pop 0 0 6 array astore
    cairo_font exch selectfont cairo_point_x cairo_point_y moveto } bind def
/Tf { pop /cairo_font exch def /cairo_font_matrix where
      { pop cairo_selectfont } if } bind def
/Td { matrix translate cairo_font_matrix matrix concatmatrix dup
      /cairo_font_matrix exch def dup 4 get exch 5 get cairo_store_point
      /cairo_font where { pop cairo_selectfont } if } bind def
/Tm { 2 copy 8 2 roll 6 array astore /cairo_font_matrix exch def
      cairo_store_point /cairo_font where { pop cairo_selectfont } if } bind def
/g { setgray } bind def
/rg { setrgbcolor } bind def
/d1 { setcachedevice } bind def
%%EndProlog
%%BeginSetup
%%EndSetup
%%Page: 1 1
%%BeginPageSetup
%%PageBoundingBox: 0 -1 410 410
%%EndPageSetup
q 0 -1 410 411 rectclip q
0 g
325.602 409.6 m 84 409.6 l 37.684 409.6 0 371.916 0 325.6 c 0 83.998 l 
0 37.682 37.684 -0.002 84 -0.002 c 325.602 -0.002 l 371.918 -0.002 409.602
 37.682 409.602 83.998 c 409.602 325.6 l 409.602 371.916 371.918 409.6 325.602
 409.6 c h
375.633 358.663 m 255.711 238.741 l 274.707 219.745 l 334.914 235.354 l
 325.559 221.479 312.508 210.678 297.102 204.077 c 296 203.604 l 282.543
 197.838 271.066 188.362 262.816 176.202 c 254.648 164.166 250.008 150.053
 249.391 135.393 c 248.602 116.663 241.789 100.37 229.691 88.268 c 198.5
 57.077 141.402 63.42 102.41 102.413 c 63.422 141.401 57.078 198.498 88.27
 229.69 c 100.367 241.791 116.664 248.6 135.391 249.389 c 150.055 250.006
 164.164 254.651 176.199 262.819 c 188.363 271.069 197.836 282.545 203.605
 295.998 c 204.078 297.104 l 210.68 312.506 221.48 325.561 235.355 334.916
 c 219.746 274.709 l 238.742 255.713 l 358.664 375.635 l 365.395 371.17 
371.172 365.393 375.633 358.663 c h
385.602 83.998 m 385.602 50.916 358.684 23.998 325.602 23.998 c 84 23.998
 l 50.914 23.998 24 50.916 24 83.998 c 24 325.6 l 24 358.686 50.914 385.6
 84 385.6 c 325.602 385.6 l 328.477 385.6 331.305 385.385 334.078 384.991
 c 251.801 302.709 l 258.883 330.026 l 260.965 338.069 258.613 346.713 252.738
 352.588 c 244.891 360.436 232.461 361.717 223.176 355.635 c 204.871 343.643
 190.641 326.67 182.02 306.557 c 181.543 305.452 l 173.441 286.545 155.371
 274.252 134.383 273.366 c 109.539 272.323 87.727 263.088 71.297 246.659
 c 51.336 226.698 42.008 198.694 45.035 167.807 c 47.977 137.807 62.328 
108.553 85.441 85.44 c 108.555 62.327 137.805 47.979 167.809 45.038 c 171.629
 44.663 175.398 44.475 179.121 44.475 c 205.492 44.475 229.168 53.803 246.66
 71.295 c 263.086 87.725 272.324 109.538 273.367 134.381 c 274.25 155.37
 286.547 173.44 305.453 181.545 c 306.559 182.018 l 326.672 190.639 343.645
 204.87 355.637 223.174 c 361.719 232.459 360.438 244.889 352.59 252.737
 c 346.715 258.612 338.066 260.963 330.027 258.877 c 302.711 251.799 l 384.988
 334.077 l 385.383 331.307 385.602 328.479 385.602 325.6 c h
385.602 83.998 m f
145.965 191.217 m 162.938 208.19 l 208.191 162.936 l 191.219 145.963 l 
h
145.965 191.217 m f
179.906 225.163 m 196.879 242.131 l 242.133 196.877 l 225.16 179.909 l 
h
179.906 225.163 m f
Q Q
showpage
%%Trailer
end restore
%%EOF
