%!PS-Adobe-3.0 EPSF-3.0
%%Creator: cairo 1.14.2 (http://cairographics.org)
%%CreationDate: Thu Apr 12 10:00:34 2018
%%Pages: 1
%%DocumentData: Clean7Bit
%%LanguageLevel: 2
%%BoundingBox: 0 -1 410 410
%%EndComments
%%BeginProlog
save
50 dict begin
/q { gsave } bind def
/Q { grestore } bind def
/cm { 6 array astore concat } bind def
/w { setlinewidth } bind def
/J { setlinecap } bind def
/j { setlinejoin } bind def
/M { setmiterlimit } bind def
/d { setdash } bind def
/m { moveto } bind def
/l { lineto } bind def
/c { curveto } bind def
/h { closepath } bind def
/re { exch dup neg 3 1 roll 5 3 roll moveto 0 rlineto
      0 exch rlineto 0 rlineto closepath } bind def
/S { stroke } bind def
/f { fill } bind def
/f* { eofill } bind def
/n { newpath } bind def
/W { clip } bind def
/W* { eoclip } bind def
/BT { } bind def
/ET { } bind def
/pdfmark where { pop globaldict /?pdfmark /exec load put }
    { globaldict begin /?pdfmark /pop load def /pdfmark
    /cleartomark load def end } ifelse
/BDC { mark 3 1 roll /BDC pdfmark } bind def
/EMC { mark /EMC pdfmark } bind def
/cairo_store_point { /cairo_point_y exch def /cairo_point_x exch def } def
/Tj { show currentpoint cairo_store_point } bind def
/TJ {
  {
    dup
    type /stringtype eq
    { show } { -0.001 mul 0 cairo_font_matrix dtransform rmoveto } ifelse
  } forall
  currentpoint cairo_store_point
} bind def
/cairo_selectfont { cairo_font_matrix aload pop pop pop 0 0 6 array astore
    cairo_font exch selectfont cairo_point_x cairo_point_y moveto } bind def
/Tf { pop /cairo_font exch def /cairo_font_matrix where
      { pop cairo_selectfont } if } bind def
/Td { matrix translate cairo_font_matrix matrix concatmatrix dup
      /cairo_font_matrix exch def dup 4 get exch 5 get cairo_store_point
      /cairo_font where { pop cairo_selectfont } if } bind def
/Tm { 2 copy 8 2 roll 6 array astore /cairo_font_matrix exch def
      cairo_store_point /cairo_font where { pop cairo_selectfont } if } bind def
/g { setgray } bind def
/rg { setrgbcolor } bind def
/d1 { setcachedevice } bind def
%%EndProlog
%%BeginSetup
%%EndSetup
%%Page: 1 1
%%BeginPageSetup
%%PageBoundingBox: 0 -1 410 410
%%EndPageSetup
q 0 -1 410 411 rectclip q
0 g
325.602 409.6 m 84 409.6 l 37.684 409.6 0 371.916 0 325.6 c 0 83.998 l 
0 37.682 37.684 -0.002 84 -0.002 c 325.602 -0.002 l 371.918 -0.002 409.602
 37.682 409.602 83.998 c 409.602 325.6 l 409.602 371.916 371.918 409.6 325.602
 409.6 c h
385.602 83.998 m 385.602 50.916 358.684 23.998 325.602 23.998 c 84 23.998
 l 50.914 23.998 24 50.916 24 83.998 c 24 325.6 l 24 358.686 50.914 385.6
 84 385.6 c 325.602 385.6 l 358.684 385.6 385.602 358.686 385.602 325.6 
c h
385.602 83.998 m f
149.539 265.463 m 149.539 265.463 138.59 265.413 130.715 255.03 c 123.711
 245.799 125.496 237.905 125.496 237.905 c 125.496 237.905 134.988 236.264
 143.344 246.303 c 151.168 255.702 149.539 265.463 149.539 265.463 c h
149.539 265.463 m f
158.367 201.94 m 158.367 218.022 171.328 224.651 171.328 224.651 c 171.328
 224.651 164.703 236.639 147.855 236.639 c 138.066 236.639 130.547 231.069
 126.496 231.069 c 121.777 231.069 114.73 236.303 105.652 236.303 c 91.688
 236.303 76.801 223.799 76.801 199.963 c 76.801 175.741 94.391 145.6 108.312
 145.6 c 113.172 145.6 120.633 150.495 128.152 150.495 c 135.531 150.495
 140.977 145.776 147.98 145.776 c 163.227 145.776 174.516 177.549 174.516
 177.549 c 174.516 177.549 158.367 183.799 158.367 201.94 c h
158.367 201.94 m f
243.199 168.479 m 241.922 167.944 236 165.44 231.52 165.44 c 226.801 165.44
 223.52 167.799 223.52 173.6 c 223.52 214.561 l 241.121 214.561 l 241.121
 231.041 l 223.52 231.041 l 223.52 258.241 l 202.078 258.241 l 202.078 231.041
 l 191.039 231.041 l 191.039 214.561 l 202.078 214.561 l 202.078 166.401
 l 202.078 153.6 209.598 145.76 223.84 145.76 c 228.426 145.76 232.801 146.401
 236.961 147.678 c 241.121 148.959 244.641 150.241 247.52 151.522 c h
243.199 168.479 m f
315.199 231.041 m 293.758 164.639 l 272.477 231.041 l 250.398 231.041 l
 281.277 147.202 l 304.477 147.202 l 335.359 231.041 l h
315.199 231.041 m f
Q Q
showpage
%%Trailer
end restore
%%EOF
