%!PS-Adobe-3.0 EPSF-3.0
%%Creator: cairo 1.14.2 (http://cairographics.org)
%%CreationDate: Thu Apr 12 10:00:34 2018
%%Pages: 1
%%DocumentData: Clean7Bit
%%LanguageLevel: 2
%%BoundingBox: 0 -1 410 410
%%EndComments
%%BeginProlog
save
50 dict begin
/q { gsave } bind def
/Q { grestore } bind def
/cm { 6 array astore concat } bind def
/w { setlinewidth } bind def
/J { setlinecap } bind def
/j { setlinejoin } bind def
/M { setmiterlimit } bind def
/d { setdash } bind def
/m { moveto } bind def
/l { lineto } bind def
/c { curveto } bind def
/h { closepath } bind def
/re { exch dup neg 3 1 roll 5 3 roll moveto 0 rlineto
      0 exch rlineto 0 rlineto closepath } bind def
/S { stroke } bind def
/f { fill } bind def
/f* { eofill } bind def
/n { newpath } bind def
/W { clip } bind def
/W* { eoclip } bind def
/BT { } bind def
/ET { } bind def
/pdfmark where { pop globaldict /?pdfmark /exec load put }
    { globaldict begin /?pdfmark /pop load def /pdfmark
    /cleartomark load def end } ifelse
/BDC { mark 3 1 roll /BDC pdfmark } bind def
/EMC { mark /EMC pdfmark } bind def
/cairo_store_point { /cairo_point_y exch def /cairo_point_x exch def } def
/Tj { show currentpoint cairo_store_point } bind def
/TJ {
  {
    dup
    type /stringtype eq
    { show } { -0.001 mul 0 cairo_font_matrix dtransform rmoveto } ifelse
  } forall
  currentpoint cairo_store_point
} bind def
/cairo_selectfont { cairo_font_matrix aload pop pop pop 0 0 6 array astore
    cairo_font exch selectfont cairo_point_x cairo_point_y moveto } bind def
/Tf { pop /cairo_font exch def /cairo_font_matrix where
      { pop cairo_selectfont } if } bind def
/Td { matrix translate cairo_font_matrix matrix concatmatrix dup
      /cairo_font_matrix exch def dup 4 get exch 5 get cairo_store_point
      /cairo_font where { pop cairo_selectfont } if } bind def
/Tm { 2 copy 8 2 roll 6 array astore /cairo_font_matrix exch def
      cairo_store_point /cairo_font where { pop cairo_selectfont } if } bind def
/g { setgray } bind def
/rg { setrgbcolor } bind def
/d1 { setcachedevice } bind def
%%EndProlog
%%BeginSetup
%%EndSetup
%%Page: 1 1
%%BeginPageSetup
%%PageBoundingBox: 0 -1 410 410
%%EndPageSetup
q 0 -1 410 411 rectclip q
0 g
325.602 409.6 m 84 409.6 l 37.684 409.6 0 371.916 0 325.6 c 0 83.998 l 
0 37.682 37.684 -0.002 84 -0.002 c 325.602 -0.002 l 371.918 -0.002 409.602
 37.682 409.602 83.998 c 409.602 325.6 l 409.602 371.916 371.918 409.6 325.602
 409.6 c h
385.602 83.998 m 385.602 50.916 358.684 23.998 325.602 23.998 c 84 23.998
 l 50.914 23.998 24 50.916 24 83.998 c 24 325.6 l 24 358.686 50.914 385.6
 84 385.6 c 325.602 385.6 l 358.684 385.6 385.602 358.686 385.602 325.6 
c h
385.602 83.998 m f
256.449 360.799 m 256.449 360.799 232.77 360.69 215.738 338.241 c 200.594
 318.28 204.449 301.205 204.449 301.205 c 204.449 301.205 224.984 297.655
 243.051 319.362 c 259.969 339.694 256.449 360.799 256.449 360.799 c h
256.449 360.799 m f
314.797 162.686 m 314.523 162.791 287.539 173.592 287.539 204.248 c 287.539
 230.53 307.648 241.924 309.074 242.698 c 320.176 248.139 l 314.074 259.17
 l 313.352 260.479 295.824 291.288 252.805 291.288 c 237.598 291.288 224.949
 286.19 215.711 282.467 c 212.484 281.166 208.074 279.389 206.551 279.245
 c 204.469 279.284 199.707 281.12 195.496 282.741 c 186.445 286.225 175.176
 290.565 161.539 290.565 c 125.473 290.565 87.137 258.815 87.137 199.975
 c 87.137 173.389 96.262 141.815 111.547 115.51 c 128.203 86.842 148.52 
70.401 167.289 70.401 c 174.078 70.401 180.984 72.901 188.297 75.553 c 195.668
 78.225 203.293 80.987 210.199 80.987 c 216.113 80.987 221.625 78.928 228.012
 76.541 c 235.238 73.842 243.434 70.78 253.074 70.78 c 271.277 70.78 288.562
 84.311 304.445 110.998 c 315.152 128.983 321.504 146.729 321.77 147.475
 c 325.676 158.471 l h
283.652 122.991 m 272.93 105.065 261.785 94.78 253.074 94.78 c 247.77 94.78
 242.504 96.748 236.406 99.026 c 228.926 101.819 220.449 104.987 210.199
 104.987 c 199.074 104.987 188.562 101.178 180.117 98.116 c 175.312 96.373
 169.863 94.401 167.289 94.401 c 159.465 94.401 145.609 104.655 132.297 
127.569 c 119.047 150.37 111.137 177.44 111.137 199.975 c 111.137 226.295
 120.281 242.03 127.953 250.596 c 137.039 260.745 149.281 266.565 161.539
 266.565 c 170.715 266.565 179.297 263.26 186.871 260.342 c 193.676 257.721
 200.105 255.245 206.613 255.245 c 212.371 255.245 218.078 257.545 224.684
 260.205 c 232.918 263.526 242.254 267.288 252.805 267.288 c 269.203 267.288
 279.938 260.967 286.184 255.459 c 276.176 246.44 263.539 229.959 263.539
 204.248 c 263.539 172.104 282.715 154.307 295.352 146.069 c 292.668 139.862
 288.664 131.37 283.652 122.991 c h
283.652 122.991 m f
Q Q
showpage
%%Trailer
end restore
%%EOF
