%!PS-Adobe-3.0 EPSF-3.0
%%Creator: cairo 1.14.2 (http://cairographics.org)
%%CreationDate: Thu Apr 12 10:00:34 2018
%%Pages: 1
%%DocumentData: Clean7Bit
%%LanguageLevel: 2
%%BoundingBox: 0 -1 410 410
%%EndComments
%%BeginProlog
save
50 dict begin
/q { gsave } bind def
/Q { grestore } bind def
/cm { 6 array astore concat } bind def
/w { setlinewidth } bind def
/J { setlinecap } bind def
/j { setlinejoin } bind def
/M { setmiterlimit } bind def
/d { setdash } bind def
/m { moveto } bind def
/l { lineto } bind def
/c { curveto } bind def
/h { closepath } bind def
/re { exch dup neg 3 1 roll 5 3 roll moveto 0 rlineto
      0 exch rlineto 0 rlineto closepath } bind def
/S { stroke } bind def
/f { fill } bind def
/f* { eofill } bind def
/n { newpath } bind def
/W { clip } bind def
/W* { eoclip } bind def
/BT { } bind def
/ET { } bind def
/pdfmark where { pop globaldict /?pdfmark /exec load put }
    { globaldict begin /?pdfmark /pop load def /pdfmark
    /cleartomark load def end } ifelse
/BDC { mark 3 1 roll /BDC pdfmark } bind def
/EMC { mark /EMC pdfmark } bind def
/cairo_store_point { /cairo_point_y exch def /cairo_point_x exch def } def
/Tj { show currentpoint cairo_store_point } bind def
/TJ {
  {
    dup
    type /stringtype eq
    { show } { -0.001 mul 0 cairo_font_matrix dtransform rmoveto } ifelse
  } forall
  currentpoint cairo_store_point
} bind def
/cairo_selectfont { cairo_font_matrix aload pop pop pop 0 0 6 array astore
    cairo_font exch selectfont cairo_point_x cairo_point_y moveto } bind def
/Tf { pop /cairo_font exch def /cairo_font_matrix where
      { pop cairo_selectfont } if } bind def
/Td { matrix translate cairo_font_matrix matrix concatmatrix dup
      /cairo_font_matrix exch def dup 4 get exch 5 get cairo_store_point
      /cairo_font where { pop cairo_selectfont } if } bind def
/Tm { 2 copy 8 2 roll 6 array astore /cairo_font_matrix exch def
      cairo_store_point /cairo_font where { pop cairo_selectfont } if } bind def
/g { setgray } bind def
/rg { setrgbcolor } bind def
/d1 { setcachedevice } bind def
%%EndProlog
%%BeginSetup
%%EndSetup
%%Page: 1 1
%%BeginPageSetup
%%PageBoundingBox: 0 -1 410 410
%%EndPageSetup
q 0 -1 410 411 rectclip q
0 g
325.602 409.6 m 84 409.6 l 37.684 409.6 0 371.916 0 325.6 c 0 83.998 l 
0 37.682 37.684 -0.002 84 -0.002 c 325.602 -0.002 l 371.918 -0.002 409.602
 37.682 409.602 83.998 c 409.602 325.6 l 409.602 371.916 371.918 409.6 325.602
 409.6 c h
385.602 83.998 m 385.602 50.916 358.684 23.998 325.602 23.998 c 84 23.998
 l 50.914 23.998 24 50.916 24 83.998 c 24 325.6 l 24 358.686 50.914 385.6
 84 385.6 c 325.602 385.6 l 358.684 385.6 385.602 358.686 385.602 325.6 
c h
385.602 83.998 m f
244.516 310.776 m 243.133 315.936 239.824 320.248 235.199 322.92 c 225.648
 328.432 213.395 325.151 207.879 315.6 c 204.801 310.268 l 201.723 315.6
 l 196.207 325.147 183.953 328.432 174.402 322.92 c 164.852 317.405 161.566
 305.151 167.082 295.6 c 181.707 270.268 l 127.742 176.799 l 88.398 176.799
 l 77.371 176.799 68.398 167.827 68.398 156.799 c 68.398 145.772 77.371 
136.799 88.398 136.799 c 240.289 136.799 l 217.195 176.799 l 173.93 176.799
 l 242.52 295.6 l 245.191 300.225 245.898 305.616 244.516 310.776 c h
244.516 310.776 m f
321.199 176.799 m 281.859 176.799 l 237.133 254.268 l 214.039 214.268 l
 283.48 93.991 l 286.152 89.362 290.465 86.053 295.625 84.67 c 297.348 84.205
 299.098 83.979 300.836 83.979 c 304.301 83.979 307.723 84.889 310.805 86.666
 c 320.355 92.182 323.637 104.436 318.125 113.987 c 304.953 136.799 l 321.199
 136.799 l 332.227 136.799 341.199 145.772 341.199 156.799 c 341.199 167.827
 332.227 176.799 321.199 176.799 c h
321.199 176.799 m f
95.41 120.799 m 91.477 113.987 l 85.965 104.436 89.246 92.182 98.797 86.666
 c 101.941 84.854 105.375 83.991 108.766 83.991 c 115.68 83.991 122.418 
87.58 126.121 93.987 c 141.598 120.799 l h
95.41 120.799 m f
Q Q
showpage
%%Trailer
end restore
%%EOF
