%!PS-Adobe-3.0 EPSF-3.0
%%Creator: cairo 1.14.2 (http://cairographics.org)
%%CreationDate: Thu Apr 12 10:00:34 2018
%%Pages: 1
%%DocumentData: Clean7Bit
%%LanguageLevel: 2
%%BoundingBox: 0 -1 410 410
%%EndComments
%%BeginProlog
save
50 dict begin
/q { gsave } bind def
/Q { grestore } bind def
/cm { 6 array astore concat } bind def
/w { setlinewidth } bind def
/J { setlinecap } bind def
/j { setlinejoin } bind def
/M { setmiterlimit } bind def
/d { setdash } bind def
/m { moveto } bind def
/l { lineto } bind def
/c { curveto } bind def
/h { closepath } bind def
/re { exch dup neg 3 1 roll 5 3 roll moveto 0 rlineto
      0 exch rlineto 0 rlineto closepath } bind def
/S { stroke } bind def
/f { fill } bind def
/f* { eofill } bind def
/n { newpath } bind def
/W { clip } bind def
/W* { eoclip } bind def
/BT { } bind def
/ET { } bind def
/pdfmark where { pop globaldict /?pdfmark /exec load put }
    { globaldict begin /?pdfmark /pop load def /pdfmark
    /cleartomark load def end } ifelse
/BDC { mark 3 1 roll /BDC pdfmark } bind def
/EMC { mark /EMC pdfmark } bind def
/cairo_store_point { /cairo_point_y exch def /cairo_point_x exch def } def
/Tj { show currentpoint cairo_store_point } bind def
/TJ {
  {
    dup
    type /stringtype eq
    { show } { -0.001 mul 0 cairo_font_matrix dtransform rmoveto } ifelse
  } forall
  currentpoint cairo_store_point
} bind def
/cairo_selectfont { cairo_font_matrix aload pop pop pop 0 0 6 array astore
    cairo_font exch selectfont cairo_point_x cairo_point_y moveto } bind def
/Tf { pop /cairo_font exch def /cairo_font_matrix where
      { pop cairo_selectfont } if } bind def
/Td { matrix translate cairo_font_matrix matrix concatmatrix dup
      /cairo_font_matrix exch def dup 4 get exch 5 get cairo_store_point
      /cairo_font where { pop cairo_selectfont } if } bind def
/Tm { 2 copy 8 2 roll 6 array astore /cairo_font_matrix exch def
      cairo_store_point /cairo_font where { pop cairo_selectfont } if } bind def
/g { setgray } bind def
/rg { setrgbcolor } bind def
/d1 { setcachedevice } bind def
%%EndProlog
%%BeginSetup
%%EndSetup
%%Page: 1 1
%%BeginPageSetup
%%PageBoundingBox: 0 -1 410 410
%%EndPageSetup
q 0 -1 410 411 rectclip q
0 g
325.602 409.6 m 84 409.6 l 37.684 409.6 0 371.916 0 325.6 c 0 83.998 l 
0 37.682 37.684 -0.002 84 -0.002 c 325.602 -0.002 l 371.918 -0.002 409.602
 37.682 409.602 83.998 c 409.602 325.6 l 409.602 371.916 371.918 409.6 325.602
 409.6 c h
385.602 264.799 m 144 264.799 l 144 240.799 l 385.602 240.799 l 385.602
 168.799 l 144 168.799 l 144 144.799 l 385.602 144.799 l 385.602 83.998 
l 385.602 79.893 385.184 75.877 384.395 71.998 c 144 71.998 l 144 47.998
 l 373.566 47.998 l 362.609 33.436 345.188 23.998 325.602 23.998 c 84 23.998
 l 50.914 23.998 24 50.916 24 83.998 c 24 325.6 l 24 358.686 50.914 385.6
 84 385.6 c 325.602 385.6 l 345.188 385.6 362.609 376.163 373.566 361.6 
c 144 361.6 l 144 337.6 l 384.395 337.6 l 385.184 333.721 385.602 329.709
 385.602 325.6 c h
385.602 264.799 m f
84 240.799 m 64.148 240.799 48 224.651 48 204.799 c 48 184.948 64.148 168.799
 84 168.799 c 103.852 168.799 120 184.948 120 204.799 c 120 224.651 103.852
 240.799 84 240.799 c h
84 192.799 m 77.383 192.799 72 198.182 72 204.799 c 72 211.416 77.383 216.799
 84 216.799 c 90.617 216.799 96 211.416 96 204.799 c 96 198.182 90.617 192.799
 84 192.799 c h
84 192.799 m f
84 144.799 m 64.148 144.799 48 128.651 48 108.799 c 48 88.948 64.148 72.799
 84 72.799 c 103.852 72.799 120 88.948 120 108.799 c 120 128.651 103.852
 144.799 84 144.799 c h
84 96.799 m 77.383 96.799 72 102.182 72 108.799 c 72 115.416 77.383 120.799
 84 120.799 c 90.617 120.799 96 115.416 96 108.799 c 96 102.182 90.617 96.799
 84 96.799 c h
84 96.799 m f
84 336.799 m 64.148 336.799 48 320.651 48 300.799 c 48 280.948 64.148 264.799
 84 264.799 c 103.852 264.799 120 280.948 120 300.799 c 120 320.651 103.852
 336.799 84 336.799 c h
84 288.799 m 77.383 288.799 72 294.182 72 300.799 c 72 307.416 77.383 312.799
 84 312.799 c 90.617 312.799 96 307.416 96 300.799 c 96 294.182 90.617 288.799
 84 288.799 c h
84 288.799 m f
Q Q
showpage
%%Trailer
end restore
%%EOF
