%!PS-Adobe-3.0 EPSF-3.0
%%Creator: cairo 1.14.2 (http://cairographics.org)
%%CreationDate: Thu Apr 12 10:00:34 2018
%%Pages: 1
%%DocumentData: Clean7Bit
%%LanguageLevel: 2
%%BoundingBox: 0 -1 410 410
%%EndComments
%%BeginProlog
save
50 dict begin
/q { gsave } bind def
/Q { grestore } bind def
/cm { 6 array astore concat } bind def
/w { setlinewidth } bind def
/J { setlinecap } bind def
/j { setlinejoin } bind def
/M { setmiterlimit } bind def
/d { setdash } bind def
/m { moveto } bind def
/l { lineto } bind def
/c { curveto } bind def
/h { closepath } bind def
/re { exch dup neg 3 1 roll 5 3 roll moveto 0 rlineto
      0 exch rlineto 0 rlineto closepath } bind def
/S { stroke } bind def
/f { fill } bind def
/f* { eofill } bind def
/n { newpath } bind def
/W { clip } bind def
/W* { eoclip } bind def
/BT { } bind def
/ET { } bind def
/pdfmark where { pop globaldict /?pdfmark /exec load put }
    { globaldict begin /?pdfmark /pop load def /pdfmark
    /cleartomark load def end } ifelse
/BDC { mark 3 1 roll /BDC pdfmark } bind def
/EMC { mark /EMC pdfmark } bind def
/cairo_store_point { /cairo_point_y exch def /cairo_point_x exch def } def
/Tj { show currentpoint cairo_store_point } bind def
/TJ {
  {
    dup
    type /stringtype eq
    { show } { -0.001 mul 0 cairo_font_matrix dtransform rmoveto } ifelse
  } forall
  currentpoint cairo_store_point
} bind def
/cairo_selectfont { cairo_font_matrix aload pop pop pop 0 0 6 array astore
    cairo_font exch selectfont cairo_point_x cairo_point_y moveto } bind def
/Tf { pop /cairo_font exch def /cairo_font_matrix where
      { pop cairo_selectfont } if } bind def
/Td { matrix translate cairo_font_matrix matrix concatmatrix dup
      /cairo_font_matrix exch def dup 4 get exch 5 get cairo_store_point
      /cairo_font where { pop cairo_selectfont } if } bind def
/Tm { 2 copy 8 2 roll 6 array astore /cairo_font_matrix exch def
      cairo_store_point /cairo_font where { pop cairo_selectfont } if } bind def
/g { setgray } bind def
/rg { setrgbcolor } bind def
/d1 { setcachedevice } bind def
%%EndProlog
%%BeginSetup
%%EndSetup
%%Page: 1 1
%%BeginPageSetup
%%PageBoundingBox: 0 -1 410 410
%%EndPageSetup
q 0 -1 410 411 rectclip q
0 g
325.602 409.6 m 84 409.6 l 37.684 409.6 0 371.916 0 325.6 c 0 83.998 l 
0 37.682 37.684 -0.002 84 -0.002 c 325.602 -0.002 l 371.918 -0.002 409.602
 37.682 409.602 83.998 c 409.602 325.6 l 409.602 371.916 371.918 409.6 325.602
 409.6 c h
325.602 23.998 m 84 23.998 l 64.059 23.998 46.371 33.788 35.453 48.799 
c 374.145 48.799 l 363.23 33.788 345.539 23.998 325.602 23.998 c h
385.602 83.998 m 385.602 80.17 385.227 76.432 384.535 72.799 c 25.062 72.799
 l 24.375 76.432 24 80.17 24 83.998 c 24 120.799 l 385.602 120.799 l h
385.602 144.799 m 24 144.799 l 24 192.799 l 385.602 192.799 l h
385.602 265.561 m 385.336 265.577 385.07 265.6 384.801 265.6 c 378.172 
265.6 372.801 260.229 372.801 253.6 c 372.801 246.971 378.172 241.6 384.801
 241.6 c 385.07 241.6 385.336 241.623 385.602 241.639 c 385.602 216.799 
l 24 216.799 l 24 241.639 l 24.266 241.623 24.531 241.6 24.801 241.6 c 31.426
 241.6 36.801 246.971 36.801 253.6 c 36.801 260.229 31.426 265.6 24.801 
265.6 c 24.531 265.6 24.266 265.577 24 265.561 c 24 281.6 l 385.602 281.6
 l h
385.602 305.6 m 24 305.6 l 24 325.6 l 24 358.686 50.914 385.6 84 385.6 
c 325.602 385.6 l 358.684 385.6 385.602 358.686 385.602 325.6 c h
385.602 305.6 m f
236.801 253.6 m 236.801 246.971 231.426 241.6 224.801 241.6 c 218.172 241.6
 212.801 246.971 212.801 253.6 c 212.801 260.229 218.172 265.6 224.801 265.6
 c 231.426 265.6 236.801 260.229 236.801 253.6 c h
236.801 253.6 m f
276.801 253.6 m 276.801 246.971 271.426 241.6 264.801 241.6 c 258.172 241.6
 252.801 246.971 252.801 253.6 c 252.801 260.229 258.172 265.6 264.801 265.6
 c 271.426 265.6 276.801 260.229 276.801 253.6 c h
276.801 253.6 m f
316.801 253.6 m 316.801 246.971 311.426 241.6 304.801 241.6 c 298.172 241.6
 292.801 246.971 292.801 253.6 c 292.801 260.229 298.172 265.6 304.801 265.6
 c 311.426 265.6 316.801 260.229 316.801 253.6 c h
316.801 253.6 m f
356.801 253.6 m 356.801 246.971 351.426 241.6 344.801 241.6 c 338.172 241.6
 332.801 246.971 332.801 253.6 c 332.801 260.229 338.172 265.6 344.801 265.6
 c 351.426 265.6 356.801 260.229 356.801 253.6 c h
356.801 253.6 m f
196.801 253.6 m 196.801 246.971 191.426 241.6 184.801 241.6 c 178.172 241.6
 172.801 246.971 172.801 253.6 c 172.801 260.229 178.172 265.6 184.801 265.6
 c 191.426 265.6 196.801 260.229 196.801 253.6 c h
196.801 253.6 m f
156.801 253.6 m 156.801 246.971 151.426 241.6 144.801 241.6 c 138.172 241.6
 132.801 246.971 132.801 253.6 c 132.801 260.229 138.172 265.6 144.801 265.6
 c 151.426 265.6 156.801 260.229 156.801 253.6 c h
156.801 253.6 m f
116.801 253.6 m 116.801 246.971 111.426 241.6 104.801 241.6 c 98.172 241.6
 92.801 246.971 92.801 253.6 c 92.801 260.229 98.172 265.6 104.801 265.6
 c 111.426 265.6 116.801 260.229 116.801 253.6 c h
116.801 253.6 m f
76.801 253.6 m 76.801 246.971 71.426 241.6 64.801 241.6 c 58.172 241.6 
52.801 246.971 52.801 253.6 c 52.801 260.229 58.172 265.6 64.801 265.6 c
 71.426 265.6 76.801 260.229 76.801 253.6 c h
76.801 253.6 m f
Q Q
showpage
%%Trailer
end restore
%%EOF
