%!PS-Adobe-3.0 EPSF-3.0
%%Creator: cairo 1.14.2 (http://cairographics.org)
%%CreationDate: Thu Apr 12 10:00:34 2018
%%Pages: 1
%%DocumentData: Clean7Bit
%%LanguageLevel: 2
%%BoundingBox: 0 -1 410 410
%%EndComments
%%BeginProlog
save
50 dict begin
/q { gsave } bind def
/Q { grestore } bind def
/cm { 6 array astore concat } bind def
/w { setlinewidth } bind def
/J { setlinecap } bind def
/j { setlinejoin } bind def
/M { setmiterlimit } bind def
/d { setdash } bind def
/m { moveto } bind def
/l { lineto } bind def
/c { curveto } bind def
/h { closepath } bind def
/re { exch dup neg 3 1 roll 5 3 roll moveto 0 rlineto
      0 exch rlineto 0 rlineto closepath } bind def
/S { stroke } bind def
/f { fill } bind def
/f* { eofill } bind def
/n { newpath } bind def
/W { clip } bind def
/W* { eoclip } bind def
/BT { } bind def
/ET { } bind def
/pdfmark where { pop globaldict /?pdfmark /exec load put }
    { globaldict begin /?pdfmark /pop load def /pdfmark
    /cleartomark load def end } ifelse
/BDC { mark 3 1 roll /BDC pdfmark } bind def
/EMC { mark /EMC pdfmark } bind def
/cairo_store_point { /cairo_point_y exch def /cairo_point_x exch def } def
/Tj { show currentpoint cairo_store_point } bind def
/TJ {
  {
    dup
    type /stringtype eq
    { show } { -0.001 mul 0 cairo_font_matrix dtransform rmoveto } ifelse
  } forall
  currentpoint cairo_store_point
} bind def
/cairo_selectfont { cairo_font_matrix aload pop pop pop 0 0 6 array astore
    cairo_font exch selectfont cairo_point_x cairo_point_y moveto } bind def
/Tf { pop /cairo_font exch def /cairo_font_matrix where
      { pop cairo_selectfont } if } bind def
/Td { matrix translate cairo_font_matrix matrix concatmatrix dup
      /cairo_font_matrix exch def dup 4 get exch 5 get cairo_store_point
      /cairo_font where { pop cairo_selectfont } if } bind def
/Tm { 2 copy 8 2 roll 6 array astore /cairo_font_matrix exch def
      cairo_store_point /cairo_font where { pop cairo_selectfont } if } bind def
/g { setgray } bind def
/rg { setrgbcolor } bind def
/d1 { setcachedevice } bind def
%%EndProlog
%%BeginSetup
%%EndSetup
%%Page: 1 1
%%BeginPageSetup
%%PageBoundingBox: 0 -1 410 410
%%EndPageSetup
q 0 -1 410 411 rectclip q
0 g
325.602 409.6 m 84 409.6 l 37.684 409.6 0 371.916 0 325.6 c 0 83.998 l 
0 37.682 37.684 -0.002 84 -0.002 c 325.602 -0.002 l 371.918 -0.002 409.602
 37.682 409.602 83.998 c 409.602 325.6 l 409.602 371.916 371.918 409.6 325.602
 409.6 c h
385.602 83.998 m 385.602 50.916 358.684 23.998 325.602 23.998 c 84 23.998
 l 50.914 23.998 24 50.916 24 83.998 c 24 325.6 l 24 358.686 50.914 385.6
 84 385.6 c 325.602 385.6 l 358.684 385.6 385.602 358.686 385.602 325.6 
c h
385.602 83.998 m f
284.801 228.799 m 281.746 228.799 278.723 228.573 275.734 228.116 c 264.613
 256.944 236.527 276.799 204.801 276.799 c 203.125 276.799 201.461 276.741
 199.812 276.631 c 194.215 287.116 186.242 296.143 176.379 303.065 c 163.566
 312.049 148.496 316.799 132.801 316.799 c 90.895 316.799 56.801 282.705
 56.801 240.799 c 56.801 210.053 75.512 182.686 102.949 170.92 c 101.555
 166.428 100.801 161.682 100.801 156.799 c 100.801 130.334 122.332 108.799
 148.801 108.799 c 284.801 108.799 l 317.883 108.799 344.801 135.717 344.801
 168.799 c 344.801 201.885 317.883 228.799 284.801 228.799 c h
80.801 240.799 m 80.801 269.471 104.129 292.799 132.801 292.799 c 149.805
 292.799 165.605 284.319 175.227 270.811 c 147.969 259.252 128.801 232.221
 128.801 200.799 c 128.801 200.678 128.801 200.557 128.801 200.432 c 123.984
 198.213 119.621 195.221 115.844 191.631 c 95.195 198.76 80.801 218.479 
80.801 240.799 c h
284.801 132.799 m 148.801 132.799 l 135.566 132.799 124.801 143.565 124.801
 156.799 c 124.801 168.108 132.816 177.987 143.863 180.291 c 154.82 182.577
 l 153.301 193.666 l 152.969 196.096 152.801 198.495 152.801 200.799 c 152.801
 229.471 176.129 252.799 204.801 252.799 c 229.441 252.799 250.875 235.303
 255.758 211.198 c 258.582 197.268 l 271.844 202.389 l 275.988 203.987 280.348
 204.799 284.801 204.799 c 304.652 204.799 320.801 188.651 320.801 168.799
 c 320.801 148.948 304.652 132.799 284.801 132.799 c h
284.801 132.799 m f
Q Q
showpage
%%Trailer
end restore
%%EOF
