%!PS-Adobe-3.0 EPSF-3.0
%%Creator: cairo 1.14.2 (http://cairographics.org)
%%CreationDate: Thu Apr 12 10:00:34 2018
%%Pages: 1
%%DocumentData: Clean7Bit
%%LanguageLevel: 2
%%BoundingBox: 0 -1 410 410
%%EndComments
%%BeginProlog
save
50 dict begin
/q { gsave } bind def
/Q { grestore } bind def
/cm { 6 array astore concat } bind def
/w { setlinewidth } bind def
/J { setlinecap } bind def
/j { setlinejoin } bind def
/M { setmiterlimit } bind def
/d { setdash } bind def
/m { moveto } bind def
/l { lineto } bind def
/c { curveto } bind def
/h { closepath } bind def
/re { exch dup neg 3 1 roll 5 3 roll moveto 0 rlineto
      0 exch rlineto 0 rlineto closepath } bind def
/S { stroke } bind def
/f { fill } bind def
/f* { eofill } bind def
/n { newpath } bind def
/W { clip } bind def
/W* { eoclip } bind def
/BT { } bind def
/ET { } bind def
/pdfmark where { pop globaldict /?pdfmark /exec load put }
    { globaldict begin /?pdfmark /pop load def /pdfmark
    /cleartomark load def end } ifelse
/BDC { mark 3 1 roll /BDC pdfmark } bind def
/EMC { mark /EMC pdfmark } bind def
/cairo_store_point { /cairo_point_y exch def /cairo_point_x exch def } def
/Tj { show currentpoint cairo_store_point } bind def
/TJ {
  {
    dup
    type /stringtype eq
    { show } { -0.001 mul 0 cairo_font_matrix dtransform rmoveto } ifelse
  } forall
  currentpoint cairo_store_point
} bind def
/cairo_selectfont { cairo_font_matrix aload pop pop pop 0 0 6 array astore
    cairo_font exch selectfont cairo_point_x cairo_point_y moveto } bind def
/Tf { pop /cairo_font exch def /cairo_font_matrix where
      { pop cairo_selectfont } if } bind def
/Td { matrix translate cairo_font_matrix matrix concatmatrix dup
      /cairo_font_matrix exch def dup 4 get exch 5 get cairo_store_point
      /cairo_font where { pop cairo_selectfont } if } bind def
/Tm { 2 copy 8 2 roll 6 array astore /cairo_font_matrix exch def
      cairo_store_point /cairo_font where { pop cairo_selectfont } if } bind def
/g { setgray } bind def
/rg { setrgbcolor } bind def
/d1 { setcachedevice } bind def
%%EndProlog
%%BeginSetup
%%EndSetup
%%Page: 1 1
%%BeginPageSetup
%%PageBoundingBox: 0 -1 410 410
%%EndPageSetup
q 0 -1 410 411 rectclip q
0 g
325.602 409.6 m 84 409.6 l 37.684 409.6 0 371.916 0 325.6 c 0 83.998 l 
0 37.682 37.684 -0.002 84 -0.002 c 325.602 -0.002 l 371.918 -0.002 409.602
 37.682 409.602 83.998 c 409.602 325.6 l 409.602 371.916 371.918 409.6 325.602
 409.6 c h
385.602 83.998 m 385.602 50.916 358.684 23.998 325.602 23.998 c 84 23.998
 l 50.914 23.998 24 50.916 24 83.998 c 24 325.6 l 24 358.686 50.914 385.6
 84 385.6 c 325.602 385.6 l 358.684 385.6 385.602 358.686 385.602 325.6 
c h
385.602 83.998 m f
361.602 204.799 m 361.602 228.166 346.105 247.979 324.855 254.514 c 328.805
 261.936 330.906 270.26 330.906 278.905 c 330.906 292.795 325.496 305.854
 315.676 315.674 c 299.145 332.202 274.172 335.252 254.52 324.834 c 247.992
 346.096 228.176 361.6 204.801 361.6 c 181.434 361.6 161.621 346.108 155.086
 324.854 c 147.664 328.807 139.34 330.905 130.695 330.905 c 116.805 330.905
 103.746 325.495 93.926 315.674 c 84.105 305.854 78.695 292.795 78.695 278.905
 c 78.695 270.26 80.793 261.936 84.746 254.514 c 63.492 247.979 48 228.166
 48 204.799 c 48 181.432 63.492 161.623 84.746 155.088 c 80.793 147.666 
78.695 139.342 78.695 130.694 c 78.695 116.807 84.105 103.748 93.926 93.924
 c 103.746 84.104 116.805 78.694 130.695 78.694 c 139.344 78.694 147.668
 80.795 155.09 84.745 c 161.621 63.495 181.434 47.998 204.801 47.998 c 228.176
 47.998 247.992 63.502 254.52 84.768 c 262.117 80.737 270.512 78.721 278.906
 78.721 c 292.223 78.721 305.535 83.788 315.676 93.924 c 325.496 103.745
 330.906 116.803 330.906 130.694 c 330.906 139.342 328.805 147.666 324.855
 155.088 c 346.105 161.623 361.602 181.432 361.602 204.799 c h
162.688 222.233 m 161.648 222.12 160.602 222.057 159.543 222.057 c 152.066
 222.057 145.035 224.967 139.746 230.256 c 137.203 232.799 l 140.801 232.799
 l 149.652 232.799 157.551 228.666 162.688 222.233 c h
110.895 298.705 m 116.184 303.995 123.215 306.905 130.695 306.905 c 138.176
 306.905 145.207 303.991 150.496 298.705 c 152.801 296.397 l 152.801 268.799
 l 152.801 263.987 153.473 259.327 154.703 254.897 c 150.273 256.127 145.613
 256.799 140.801 256.799 c 113.203 256.799 l 110.895 259.104 l 105.609 264.393
 102.695 271.424 102.695 278.905 c 102.695 286.385 105.609 293.416 110.895
 298.705 c h
72 204.799 m 72 220.241 84.562 232.799 100 232.799 c 103.262 232.799 l 
122.777 213.284 l 126.141 209.92 129.891 207.088 133.918 204.799 c 129.891
 202.51 126.141 199.678 122.777 196.315 c 103.262 176.799 l 100 176.799 
l 84.562 176.799 72 189.362 72 204.799 c h
152.801 140.799 m 152.801 113.202 l 150.496 110.897 l 145.207 105.608 138.176
 102.694 130.695 102.694 c 123.215 102.694 116.184 105.608 110.895 110.897
 c 105.609 116.186 102.695 123.217 102.695 130.694 c 102.695 138.174 105.609
 145.205 110.895 150.495 c 113.203 152.799 l 140.801 152.799 l 145.613 152.799
 150.273 153.471 154.703 154.702 c 153.473 150.272 152.801 145.616 152.801
 140.799 c h
140.801 176.799 m 137.203 176.799 l 139.746 179.342 l 145.035 184.631 152.066
 187.545 159.547 187.545 c 160.602 187.545 161.652 187.479 162.688 187.366
 c 157.551 180.932 149.652 176.799 140.801 176.799 c h
176.801 272.397 m 179.344 269.854 l 184.633 264.565 187.543 257.534 187.543
 250.053 c 187.543 248.998 187.48 247.948 187.367 246.913 c 180.934 252.049
 176.801 259.948 176.801 268.799 c h
176.801 140.799 m 176.801 149.651 180.934 157.553 187.367 162.686 c 187.48
 161.651 187.543 160.604 187.543 159.545 c 187.543 152.065 184.633 145.034
 179.344 139.745 c 176.801 137.202 l h
232.801 99.998 m 232.801 84.561 220.238 71.998 204.801 71.998 c 189.359
 71.998 176.801 84.561 176.801 99.998 c 176.801 103.26 l 196.312 122.776
 l 199.68 126.139 202.512 129.889 204.801 133.916 c 207.09 129.889 209.922
 126.139 213.285 122.776 c 232.801 103.26 l h
192.551 209.866 m 193.852 210.94 195.105 212.077 196.312 213.288 c 197.523
 214.495 198.66 215.752 199.734 217.053 c 201.402 216.889 203.09 216.799
 204.801 216.799 c 206.508 216.799 208.199 216.889 209.867 217.053 c 210.938
 215.752 212.078 214.495 213.285 213.288 c 214.496 212.073 215.754 210.94
 217.051 209.873 c 216.891 208.205 216.801 206.51 216.801 204.799 c 216.801
 203.088 216.891 201.397 217.051 199.725 c 215.754 198.659 214.496 197.526
 213.285 196.315 c 212.078 195.108 210.938 193.85 209.867 192.549 c 208.199
 192.709 206.508 192.799 204.801 192.799 c 203.09 192.799 201.402 192.709
 199.734 192.549 c 198.66 193.85 197.523 195.108 196.312 196.315 c 195.105
 197.522 193.848 198.663 192.551 199.733 c 192.711 201.401 192.801 203.092
 192.801 204.799 c 192.801 206.51 192.711 208.198 192.551 209.866 c h
232.801 137.202 m 230.254 139.745 l 224.969 145.034 222.055 152.065 222.055
 159.545 c 222.055 160.604 222.121 161.651 222.234 162.686 c 228.668 157.553
 232.801 149.651 232.801 140.799 c h
232.801 268.799 m 232.801 259.948 228.668 252.049 222.234 246.913 c 222.121
 247.952 222.055 248.998 222.055 250.057 c 222.055 257.534 224.969 264.565
 230.254 269.854 c 232.801 272.401 l h
232.801 306.338 m 213.285 286.827 l 209.922 283.459 207.09 279.709 204.801
 275.682 c 202.512 279.709 199.68 283.459 196.312 286.827 c 176.801 306.338
 l 176.801 309.6 l 176.801 325.038 189.359 337.6 204.801 337.6 c 220.238
 337.6 232.801 325.038 232.801 309.6 c h
256.801 268.799 m 256.801 296.397 l 259.105 298.705 l 270.023 309.62 287.785
 309.62 298.703 298.705 c 303.992 293.416 306.906 286.385 306.906 278.905
 c 306.906 271.424 303.992 264.393 298.703 259.104 c 296.398 256.799 l 268.801
 256.799 l 263.984 256.799 259.328 256.127 254.898 254.897 c 256.129 259.327
 256.801 263.987 256.801 268.799 c h
268.801 232.799 m 272.398 232.799 l 269.855 230.256 l 263.602 224.002 255.098
 221.338 246.926 222.248 c 252.062 228.674 259.957 232.799 268.801 232.799
 c h
246.926 187.35 m 255.098 188.264 263.602 185.6 269.855 179.342 c 272.398
 176.799 l 268.801 176.799 l 259.957 176.799 252.062 180.928 246.926 187.35
 c h
298.703 110.897 m 287.789 99.979 270.023 99.979 259.105 110.897 c 256.801
 113.202 l 256.801 140.799 l 256.801 145.616 256.129 150.272 254.898 154.702
 c 259.328 153.471 263.984 152.799 268.801 152.799 c 296.398 152.799 l 298.703
 150.495 l 303.992 145.205 306.906 138.174 306.906 130.694 c 306.906 123.217
 303.992 116.186 298.703 110.897 c h
309.602 176.799 m 306.34 176.799 l 286.824 196.315 l 283.418 199.721 279.648
 202.538 275.648 204.799 c 279.652 207.061 283.418 209.881 286.824 213.288
 c 306.34 232.799 l 309.602 232.799 l 325.039 232.799 337.602 220.241 337.602
 204.799 c 337.602 189.362 325.039 176.799 309.602 176.799 c h
309.602 176.799 m f
Q Q
showpage
%%Trailer
end restore
%%EOF
