%!PS-Adobe-3.0 EPSF-3.0
%%Creator: cairo 1.14.2 (http://cairographics.org)
%%CreationDate: Thu Apr 12 10:00:34 2018
%%Pages: 1
%%DocumentData: Clean7Bit
%%LanguageLevel: 2
%%BoundingBox: 0 -1 410 410
%%EndComments
%%BeginProlog
save
50 dict begin
/q { gsave } bind def
/Q { grestore } bind def
/cm { 6 array astore concat } bind def
/w { setlinewidth } bind def
/J { setlinecap } bind def
/j { setlinejoin } bind def
/M { setmiterlimit } bind def
/d { setdash } bind def
/m { moveto } bind def
/l { lineto } bind def
/c { curveto } bind def
/h { closepath } bind def
/re { exch dup neg 3 1 roll 5 3 roll moveto 0 rlineto
      0 exch rlineto 0 rlineto closepath } bind def
/S { stroke } bind def
/f { fill } bind def
/f* { eofill } bind def
/n { newpath } bind def
/W { clip } bind def
/W* { eoclip } bind def
/BT { } bind def
/ET { } bind def
/pdfmark where { pop globaldict /?pdfmark /exec load put }
    { globaldict begin /?pdfmark /pop load def /pdfmark
    /cleartomark load def end } ifelse
/BDC { mark 3 1 roll /BDC pdfmark } bind def
/EMC { mark /EMC pdfmark } bind def
/cairo_store_point { /cairo_point_y exch def /cairo_point_x exch def } def
/Tj { show currentpoint cairo_store_point } bind def
/TJ {
  {
    dup
    type /stringtype eq
    { show } { -0.001 mul 0 cairo_font_matrix dtransform rmoveto } ifelse
  } forall
  currentpoint cairo_store_point
} bind def
/cairo_selectfont { cairo_font_matrix aload pop pop pop 0 0 6 array astore
    cairo_font exch selectfont cairo_point_x cairo_point_y moveto } bind def
/Tf { pop /cairo_font exch def /cairo_font_matrix where
      { pop cairo_selectfont } if } bind def
/Td { matrix translate cairo_font_matrix matrix concatmatrix dup
      /cairo_font_matrix exch def dup 4 get exch 5 get cairo_store_point
      /cairo_font where { pop cairo_selectfont } if } bind def
/Tm { 2 copy 8 2 roll 6 array astore /cairo_font_matrix exch def
      cairo_store_point /cairo_font where { pop cairo_selectfont } if } bind def
/g { setgray } bind def
/rg { setrgbcolor } bind def
/d1 { setcachedevice } bind def
%%EndProlog
%%BeginSetup
%%EndSetup
%%Page: 1 1
%%BeginPageSetup
%%PageBoundingBox: 0 -1 410 410
%%EndPageSetup
q 0 -1 410 411 rectclip q
0 g
325.602 409.6 m 84 409.6 l 37.684 409.6 0 371.916 0 325.6 c 0 83.998 l 
0 37.682 37.684 -0.002 84 -0.002 c 325.602 -0.002 l 371.918 -0.002 409.602
 37.682 409.602 83.998 c 409.602 325.6 l 409.602 371.916 371.918 409.6 325.602
 409.6 c h
385.602 83.998 m 385.602 50.916 358.684 23.998 325.602 23.998 c 84 23.998
 l 50.914 23.998 24 50.916 24 83.998 c 24 325.6 l 24 358.686 50.914 385.6
 84 385.6 c 325.602 385.6 l 358.684 385.6 385.602 358.686 385.602 325.6 
c h
385.602 83.998 m f
244.445 285.057 m 244.445 321.92 l 235.871 321.92 l 235.871 302.846 l 234.762
 304.768 231.281 309.311 224.543 309.311 c 216.59 309.311 209.566 302.401
 209.566 291.967 c 209.566 282.768 215.656 274.561 225.504 274.561 c 232.223
 274.561 235.914 278.889 237.152 281.026 c 237.152 281.026 236.59 274.752
 242.781 274.752 c 243.723 274.752 244.938 274.901 246.43 275.202 c 246.43
 282.495 l 245.703 282.538 244.445 284.159 244.445 285.057 c h
235.871 287.487 m 235.57 286.678 233.125 281.858 227.742 281.858 c 222.059
 281.858 218.465 286.889 218.465 291.776 c 218.465 296.221 221.391 302.014
 227.23 302.014 c 232.457 302.014 235.527 296.428 235.871 295.487 c h
235.871 287.487 m f
248.48 129.838 m 256.535 142.135 283.281 156.077 286.16 157.678 c 303.734
 167.467 318.559 179.065 318.559 199.44 c 318.559 223.6 299.734 240.241 
266.961 240.241 c 240.668 240.241 220.402 229.866 206.961 217.44 c 227.602
 193.678 l 229.52 196.08 242.133 212.159 261.199 212.159 c 274.668 212.159
 283.52 204.799 283.52 194.639 c 283.52 182.932 265.719 174.924 260.602 
172.44 c 230.266 157.733 205.52 144.932 205.52 100.799 c 321.199 100.799
 l 321.199 129.838 l h
248.48 129.838 m f
281.629 285.057 m 281.629 295.487 l 281.629 304.049 276.547 309.311 266.398
 309.311 c 261.406 309.311 256.754 307.881 252.445 305.026 c 255.07 299.584
 l 256.863 300.823 260.824 303.362 265.566 303.362 c 270.473 303.362 273.055
 300.924 273.055 296.448 c 273.055 294.53 l 271.945 294.998 269.07 295.998
 264.863 295.998 c 256.801 295.998 250.59 291.827 250.59 285.186 c 250.59
 279.827 254.824 274.561 262.047 274.561 c 268.973 274.561 272.84 278.612
 274.336 280.577 c 274.527 278.721 l 274.949 276.299 276.699 274.752 279.902
 274.752 c 280.969 274.752 282.227 274.901 283.68 275.202 c 283.68 282.495
 l 282.375 282.495 281.629 283.327 281.629 285.057 c h
264.477 280.83 m 261.148 280.83 258.719 283.049 258.719 285.889 c 258.719
 288.998 261.973 291.202 266.27 291.202 c 269.324 291.202 272.031 290.303
 273.055 289.92 c 273.055 286.08 l 273.055 285.186 271.273 280.83 264.477
 280.83 c h
264.477 280.83 m f
164.449 285.057 m 164.449 308.737 l 155.871 308.737 l 155.871 287.936 l
 154.891 285.889 152.199 281.858 147.234 281.858 c 143.52 281.858 141.664
 284.436 141.664 289.6 c 141.664 308.737 l 133.09 308.737 l 133.09 287.745
 l 133.09 279.065 136.801 274.561 143.648 274.561 c 151.602 274.561 155.66
 279.166 157.152 281.471 c 157.344 278.784 l 157.516 277.545 158.602 274.815
 162.785 274.815 c 163.254 274.815 163.777 274.838 164.352 274.881 c 164.93
 274.924 165.641 275.03 166.496 275.202 c 166.496 282.495 l 164.535 282.6
 164.449 284.159 164.449 285.057 c h
164.449 285.057 m f
112.992 301.631 m 111.293 302.084 102.625 303.401 102.625 308.096 c 102.625
 311.565 105.344 313.217 109.859 313.217 c 116.777 313.217 121.781 309.034
 122.082 308.737 c 125.984 315.905 l 123.98 317.268 118.109 320.959 110.113
 320.959 c 100.945 320.959 93.539 316.135 93.539 306.69 c 93.539 297.065
 102.344 295.565 111.266 292.991 c 112.719 292.573 118.176 291.202 118.176
 287.295 c 118.176 284.182 115.746 282.623 110.883 282.623 c 102.477 282.623
 95.969 287.807 95.586 288.194 c 91.68 280.577 l 94.328 278.698 100.809 
274.69 110.754 274.69 c 118.742 274.69 127.586 277.6 127.586 288.194 c 127.586
 298.401 117.609 300.401 112.992 301.631 c h
112.992 301.631 m f
311.262 308.737 m 303.199 282.623 l 294.109 308.737 l 285.277 308.737 l
 298.527 275.202 l 298.102 273.791 297.695 272.62 297.312 271.678 c 296.926
 270.741 296.012 268.034 293.344 268.034 c 291.992 268.034 290.227 268.459
 289.504 268.67 c 289.504 261.248 l 290.27 260.991 291.77 260.545 293.793
 260.545 c 301.68 260.545 304.438 266.198 305.246 268.545 c 319.328 308.737
 l h
311.262 308.737 m f
194.016 309.311 m 185.637 309.311 181.941 304.663 180.703 302.53 c 180.703
 308.737 l 172.961 308.737 l 172.961 275.202 l 181.535 275.202 l 181.535
 294.784 l 181.836 295.807 184.434 301.76 190.238 301.76 c 193.457 301.76
 195.551 299.377 195.551 294.014 c 195.551 275.202 l 204.129 275.202 l 204.129
 296.127 l 204.129 302.846 202.168 309.311 194.016 309.311 c h
194.016 309.311 m f
160.16 129.838 m 160.16 237.838 l 127.281 237.838 l 126.48 236.401 104.668
 215.041 88.402 215.041 c 88.402 185.041 l 107.332 185.041 125.84 200.639
 127.281 202.561 c 127.281 129.838 l 93.203 129.838 l 93.203 100.799 l 190.641
 100.799 l 190.641 129.838 l h
160.16 129.838 m f
Q Q
showpage
%%Trailer
end restore
%%EOF
